{
  "db_rest": {
    "@generator": "zend",
    "@version": "1.0",
    "fetchArtistYear": {
      "shows": {
        "key_0": {
          "name": "Grateful Dead",
          "artist_key": "2",
          "shows_key": "1144",
          "showdate": "01/05/79",
          "venue": "The Spectrum",
          "city": "Philadelphia",
          "state": "PA",
          "set1": [
            "Sugaree",
            "Minglewood Blues",
            "Candyman",
            "Mama Tried-> Mexicali Blues",
            "From The Heart Of Me",
            "Brown Eyed Women",
            "It's All Over Now",
            "Stagger Lee",
            "The Music Never Stopped"
          ],
          "set2": [
            "Sugaree",
            "Minglewood Blues",
            "Candyman",
            "Mama Tried-> Mexicali Blues",
            "From The Heart Of Me",
            "Brown Eyed Women",
            "It's All Over Now",
            "Stagger Lee",
            "The Music Never Stopped"
          ],
          "set3": "",
          "comment": "",
          "lastupdate": "1996-01-07 00:00:00",
          "showyear": "1979",
          "showsuserid": "system"
        },
        "key_1": {
          "name": "Grateful Dead",
          "artist_key": "2",
          "shows_key": "1145",
          "showdate": "01/07/79",
          "venue": "Madison Square Garden",
          "city": "New York",
          "state": "NY",
          "set1": [
            "Jack Straw",
            "They Love Each Other",
            "Cassidy",
            "Jack A Roe",
            "Looks Like Rain",
            "Tennessee Jed",
            "El Paso",
            "Stagger Lee",
            "Passenger"
          ],
          "set2": [
            "Jack Straw",
            "They Love Each Other",
            "Cassidy",
            "Jack A Roe",
            "Looks Like Rain",
            "Tennessee Jed",
            "El Paso",
            "Stagger Lee",
            "Passenger"
          ],
          "set3": "",
          "comment": "",
          "lastupdate": "2004-09-06 00:00:00",
          "showyear": "1979",
          "showsuserid": "system"
        },
        "key_2": {
          "name": "Grateful Dead",
          "artist_key": "2",
          "shows_key": "1146",
          "showdate": "01/08/79",
          "venue": "Madison Square Garden",
          "city": "New York",
          "state": "NY",
          "set1": [
            "Mississippi Half Step-> Franklin's Tower",
            "Minglewood Blues",
            "Candyman",
            "Me & My Uncle-> Big River",
            "Friend Of The Devil",
            "It's All Over Now",
            "Brown Eyed Women",
            "Lazy Lightning-> Supplication"
          ],
          "set2": [
            "Mississippi Half Step-> Franklin's Tower",
            "Minglewood Blues",
            "Candyman",
            "Me & My Uncle-> Big River",
            "Friend Of The Devil",
            "It's All Over Now",
            "Brown Eyed Women",
            "Lazy Lightning-> Supplication"
          ],
          "set3": "",
          "comment": "",
          "lastupdate": "2004-09-06 00:00:00",
          "showyear": "1979",
          "showsuserid": "system"
        },
        "key_3": {
          "name": "Grateful Dead",
          "artist_key": "2",
          "shows_key": "1147",
          "showdate": "01/10/79",
          "venue": "Nassau Coliseum",
          "city": "Uniondale",
          "state": "NY",
          "set1": [
            "Promised Land",
            "Dire Wolf",
            "Mama Tried-> Mexicali Blues",
            "Tennessee Jed",
            "Looks Like Rain",
            "Stagger Lee",
            "El Paso",
            "Row Jimmy",
            "Passenger",
            "Loser",
            "The Music Never Stopped"
          ],
          "set2": [
            "Promised Land",
            "Dire Wolf",
            "Mama Tried-> Mexicali Blues",
            "Tennessee Jed",
            "Looks Like Rain",
            "Stagger Lee",
            "El Paso",
            "Row Jimmy",
            "Passenger",
            "Loser",
            "The Music Never Stopped"
          ],
          "set3": "",
          "comment": "",
          "lastupdate": "1996-01-07 00:00:00",
          "showyear": "1979",
          "showsuserid": "system"
        },
        "key_4": {
          "name": "Grateful Dead",
          "artist_key": "2",
          "shows_key": "1148",
          "showdate": "01/11/79",
          "venue": "Nassau Veterans Memorial Coliseum",
          "city": "Uniondale",
          "state": "NY",
          "set1": [
            "Sugaree",
            "Me & My Uncle-> Big River",
            "Peggy-O",
            "Cassidy",
            "Friend Of The Devil",
            "Minglewood Blues",
            "From The Heart Of Me",
            "Ramble On Rose",
            "Jack Straw*-> Deal"
          ],
          "set2": [
            "Sugaree",
            "Me & My Uncle-> Big River",
            "Peggy-O",
            "Cassidy",
            "Friend Of The Devil",
            "Minglewood Blues",
            "From The Heart Of Me",
            "Ramble On Rose",
            "Jack Straw*-> Deal"
          ],
          "set3": "",
          "comment": "*Bobby reportedly sings \"We used to play for acid, now we play for Clive\"",
          "lastupdate": "2010-07-02 10:50:30",
          "showyear": "1979",
          "showsuserid": "MusicNevStopped"
        },
        "key_5": {
          "name": "Grateful Dead",
          "artist_key": "2",
          "shows_key": "1149",
          "showdate": "01/12/79",
          "venue": "The Spectrum",
          "city": "Philadelphia",
          "state": "PA",
          "set1": [
            "Jack Straw",
            "Candyman",
            "El Paso",
            "Tennessee Jed",
            "Beat It On Down The Line",
            "Peggy-O",
            "Passenger",
            "Deal"
          ],
          "set2": [
            "Jack Straw",
            "Candyman",
            "El Paso",
            "Tennessee Jed",
            "Beat It On Down The Line",
            "Peggy-O",
            "Passenger",
            "Deal"
          ],
          "set3": "",
          "comment": "",
          "lastupdate": "1996-01-07 00:00:00",
          "showyear": "1979",
          "showsuserid": "system"
        },
        "key_6": {
          "name": "Grateful Dead",
          "artist_key": "2",
          "shows_key": "1150",
          "showdate": "01/14/79",
          "venue": "Utica Memorial Coliseum",
          "city": "Utica",
          "state": "NY",
          "set1": [
            "Cold Rain & Snow",
            "Minglewood Blues",
            "Dire Wolf",
            "Me & My Uncle-> Big River",
            "They Love Each Other",
            "Looks Like Rain",
            "Brown Eyed Women",
            "It's All Over Now",
            "Jack A Roe",
            "Lazy Lightning-> Supplication"
          ],
          "set2": [
            "Cold Rain & Snow",
            "Minglewood Blues",
            "Dire Wolf",
            "Me & My Uncle-> Big River",
            "They Love Each Other",
            "Looks Like Rain",
            "Brown Eyed Women",
            "It's All Over Now",
            "Jack A Roe",
            "Lazy Lightning-> Supplication"
          ],
          "set3": "",
          "comment": "",
          "lastupdate": "1996-01-07 00:00:00",
          "showyear": "1979",
          "showsuserid": "system"
        },
        "key_7": {
          "name": "Grateful Dead",
          "artist_key": "2",
          "shows_key": "1151",
          "showdate": "01/15/79",
          "venue": "Springfield Civic Center",
          "city": "Springfield",
          "state": "MA",
          "set1": [
            "Jack Straw",
            "Jack A Roe",
            "Cassidy",
            "Row Jimmy",
            "Mama Tried-> Mexicali Blues",
            "Stagger Lee",
            "Passenger",
            "Deal"
          ],
          "set2": [
            "Jack Straw",
            "Jack A Roe",
            "Cassidy",
            "Row Jimmy",
            "Mama Tried-> Mexicali Blues",
            "Stagger Lee",
            "Passenger",
            "Deal"
          ],
          "set3": "",
          "comment": "",
          "lastupdate": "1996-01-07 00:00:00",
          "showyear": "1979",
          "showsuserid": "system"
        },
        "key_8": {
          "name": "Grateful Dead",
          "artist_key": "2",
          "shows_key": "1152",
          "showdate": "01/17/79",
          "venue": "Veterans' Memorial Coliseum",
          "city": "New Haven",
          "state": "CT",
          "set1": [
            "Shakedown Street",
            "Me & My Uncle-> Big River",
            "Peggy-O",
            "Beat It On Down The Line",
            "Stagger Lee",
            "Minglewood Blues",
            "Brown Eyed Women",
            "From The Heart Of Me",
            "I Need A Miracle"
          ],
          "set2": [
            "Shakedown Street",
            "Me & My Uncle-> Big River",
            "Peggy-O",
            "Beat It On Down The Line",
            "Stagger Lee",
            "Minglewood Blues",
            "Brown Eyed Women",
            "From The Heart Of Me",
            "I Need A Miracle"
          ],
          "set3": "",
          "comment": "",
          "lastupdate": "1996-01-07 00:00:00",
          "showyear": "1979",
          "showsuserid": "greenone"
        },
        "key_9": {
          "name": "Grateful Dead",
          "artist_key": "2",
          "shows_key": "1153",
          "showdate": "01/18/79",
          "venue": "Providence Civic Center",
          "city": "Providence",
          "state": "RI",
          "set1": [
            "Promised Land",
            "They Love Each Other",
            "Mama Tried-> Mexicali Blues",
            "Friend Of The Devil",
            "Cassidy",
            "Jack A Roe",
            "Looks Like Rain",
            "Ramble On Rose",
            "Minglewood Blues",
            "Deal"
          ],
          "set2": [
            "Promised Land",
            "They Love Each Other",
            "Mama Tried-> Mexicali Blues",
            "Friend Of The Devil",
            "Cassidy",
            "Jack A Roe",
            "Looks Like Rain",
            "Ramble On Rose",
            "Minglewood Blues",
            "Deal"
          ],
          "set3": "",
          "comment": "",
          "lastupdate": "1996-01-07 00:00:00",
          "showyear": "1979",
          "showsuserid": "system"
        },
        "key_10": {
          "name": "Grateful Dead",
          "artist_key": "2",
          "shows_key": "1154",
          "showdate": "01/20/79",
          "venue": "Shea's Buffalo Theater",
          "city": "Buffalo",
          "state": "NY",
          "set1": [
            "Promised Land",
            "Sugaree",
            "El Paso",
            "Peggy-O",
            "It's All Over Now",
            "Jack A Roe",
            "Minglewood Blues",
            "Stagger Lee",
            "Jack Straw"
          ],
          "set2": [
            "Promised Land",
            "Sugaree",
            "El Paso",
            "Peggy-O",
            "It's All Over Now",
            "Jack A Roe",
            "Minglewood Blues",
            "Stagger Lee",
            "Jack Straw"
          ],
          "set3": "",
          "comment": "entire show without Donna Jean Godchaux.  Show started almost two hours late!",
          "lastupdate": "2007-08-22 15:28:53",
          "showyear": "1979",
          "showsuserid": "aikox2"
        },
        "key_11": {
          "name": "Grateful Dead",
          "artist_key": "2",
          "shows_key": "1155",
          "showdate": "01/21/79",
          "venue": "Masonic Temple",
          "city": "Detroit",
          "state": "MI",
          "set1": [
            "Sugaree",
            "Me & My Uncle-> Big River",
            "They Love Each Other",
            "BIODTL (21 beats)",
            "Dire Wolf",
            "Looks Like Rain",
            "Brown-Eyed Women",
            "Minglewood Blues",
            "Friend of the Devil",
            "Jackstraw",
            "Deal"
          ],
          "set2": [
            "Sugaree",
            "Me & My Uncle-> Big River",
            "They Love Each Other",
            "BIODTL (21 beats)",
            "Dire Wolf",
            "Looks Like Rain",
            "Brown-Eyed Women",
            "Minglewood Blues",
            "Friend of the Devil",
            "Jackstraw",
            "Deal"
          ],
          "set3": "",
          "comment": "Donna Was Absent. Show started late. Cold as hell outside!",
          "lastupdate": "1996-01-07 00:00:00",
          "showyear": "1979",
          "showsuserid": "mvernon"
        },
        "key_12": {
          "name": "Grateful Dead",
          "artist_key": "2",
          "shows_key": "1156",
          "showdate": "02/03/79",
          "venue": "Market Square Arena",
          "city": "Indianapolis",
          "state": "IN",
          "set1": [
            "Promised Land",
            "Candyman",
            "Mama Tried-> Mexicali Blues",
            "China Cat Sunflower-> I Know You Rider",
            "Minglewood Blues",
            "Stagger Lee",
            "From The Heart Of Me",
            "The Music Never Stopped"
          ],
          "set2": [
            "Promised Land",
            "Candyman",
            "Mama Tried-> Mexicali Blues",
            "China Cat Sunflower-> I Know You Rider",
            "Minglewood Blues",
            "Stagger Lee",
            "From The Heart Of Me",
            "The Music Never Stopped"
          ],
          "set3": "",
          "comment": "Set list is incorrect. Brown-Eyed Women was played before China Cat and appears on the circulating first set. From the Heart of Me was played between Fire on the Mountain and Estimated Prophet and circulated in this position on some cassettes in the pre-digital days.",
          "lastupdate": "2006-10-30 11:34:32",
          "showyear": "1979",
          "showsuserid": "gorshar"
        },
        "key_13": {
          "name": "Grateful Dead",
          "artist_key": "2",
          "shows_key": "1157",
          "showdate": "02/04/79",
          "venue": "Dane County Coliseum",
          "city": "Madison",
          "state": "WI",
          "set1": [
            "Mississippi Half Step-> Franklin's Tower",
            "Me & My Uncle-> Big River",
            "Peggy-O",
            "Cassidy",
            "Friend Of The Devil",
            "El Paso",
            "Tennessee Jed",
            "Lazy Lightning-> Supplication"
          ],
          "set2": [
            "Mississippi Half Step-> Franklin's Tower",
            "Me & My Uncle-> Big River",
            "Peggy-O",
            "Cassidy",
            "Friend Of The Devil",
            "El Paso",
            "Tennessee Jed",
            "Lazy Lightning-> Supplication"
          ],
          "set3": "",
          "comment": "",
          "lastupdate": "1996-01-07 00:00:00",
          "showyear": "1979",
          "showsuserid": "system"
        },
        "key_14": {
          "name": "Grateful Dead",
          "artist_key": "2",
          "shows_key": "1158",
          "showdate": "02/06/79",
          "venue": "Tulsa Fairgrounds Pavilion",
          "city": "Tulsa",
          "state": "OK",
          "set1": [
            "Jack Straw",
            "Loser",
            "Beat It On Down The Line",
            "Peggy-O",
            "It's All Over Now",
            "China Cat Sunflower-> I Know You Rider",
            "From The Heart Of Me",
            "Minglewood Blues",
            "Deal"
          ],
          "set2": [
            "Jack Straw",
            "Loser",
            "Beat It On Down The Line",
            "Peggy-O",
            "It's All Over Now",
            "China Cat Sunflower-> I Know You Rider",
            "From The Heart Of Me",
            "Minglewood Blues",
            "Deal"
          ],
          "set3": "",
          "comment": "",
          "lastupdate": "1996-01-07 00:00:00",
          "showyear": "1979",
          "showsuserid": "system"
        },
        "key_15": {
          "name": "Grateful Dead",
          "artist_key": "2",
          "shows_key": "1159",
          "showdate": "02/07/79",
          "venue": "SIU Arena, U of Southern Illinois",
          "city": "Carbondale",
          "state": "IL",
          "set1": [
            "Don't Ease Me In",
            "Mama Tried-> Mexicali Blues",
            "Jack A Roe",
            "Looks Like Rain",
            "They Love Each Other",
            "Minglewood Blues",
            "Stagger Lee",
            "Cassidy",
            "Peggy-O",
            "The Music Never Stopped"
          ],
          "set2": [
            "Don't Ease Me In",
            "Mama Tried-> Mexicali Blues",
            "Jack A Roe",
            "Looks Like Rain",
            "They Love Each Other",
            "Minglewood Blues",
            "Stagger Lee",
            "Cassidy",
            "Peggy-O",
            "The Music Never Stopped"
          ],
          "set3": "",
          "comment": "",
          "lastupdate": "1996-01-07 00:00:00",
          "showyear": "1979",
          "showsuserid": "system"
        },
        "key_16": {
          "name": "Grateful Dead",
          "artist_key": "2",
          "shows_key": "1160",
          "showdate": "02/09/79",
          "venue": "Soldiers' and Sailors' Memorial Hall",
          "city": "Kansas City",
          "state": "KS",
          "set1": [
            "Promised Land",
            "Candyman",
            "Cassidy",
            "Tennessee Jed",
            "El Paso",
            "Jack A Roe",
            "Looks Like Rain",
            "Stagger Lee",
            "Passenger",
            "China Cat Sunflower-> I Know You Rider"
          ],
          "set2": [
            "Promised Land",
            "Candyman",
            "Cassidy",
            "Tennessee Jed",
            "El Paso",
            "Jack A Roe",
            "Looks Like Rain",
            "Stagger Lee",
            "Passenger",
            "China Cat Sunflower-> I Know You Rider"
          ],
          "set3": "",
          "comment": "",
          "lastupdate": "1996-01-07 00:00:00",
          "showyear": "1979",
          "showsuserid": "system"
        },
        "key_17": {
          "name": "Grateful Dead",
          "artist_key": "2",
          "shows_key": "1161",
          "showdate": "02/10/79",
          "venue": "Soldiers' and Sailors' Memorial Hall",
          "city": "Kansas City",
          "state": "KS",
          "set1": [
            "Don't Ease Me In",
            "Me & My Uncle-> Big River",
            "They Love Each Other",
            "Minglewood Blues",
            "Brown Eyed Women",
            "It's All Over Now",
            "Deal",
            "Jack Straw"
          ],
          "set2": [
            "Don't Ease Me In",
            "Me & My Uncle-> Big River",
            "They Love Each Other",
            "Minglewood Blues",
            "Brown Eyed Women",
            "It's All Over Now",
            "Deal",
            "Jack Straw"
          ],
          "set3": "",
          "comment": "",
          "lastupdate": "1996-01-07 00:00:00",
          "showyear": "1979",
          "showsuserid": "greenone"
        },
        "key_18": {
          "name": "Grateful Dead",
          "artist_key": "2",
          "shows_key": "1162",
          "showdate": "02/11/79",
          "venue": "Kiel Auditorium",
          "city": "St. Louis",
          "state": "MO",
          "set1": [
            "Promised Land",
            "Sugaree",
            "Mama Tried-> Mexicali Blues",
            "Friend Of The Devil",
            "Lazy Lightning-> Supplication",
            "Might As Well",
            "The Music Never Stopped"
          ],
          "set2": [
            "Promised Land",
            "Sugaree",
            "Mama Tried-> Mexicali Blues",
            "Friend Of The Devil",
            "Lazy Lightning-> Supplication",
            "Might As Well",
            "The Music Never Stopped"
          ],
          "set3": "",
          "comment": "",
          "lastupdate": "1996-01-07 00:00:00",
          "showyear": "1979",
          "showsuserid": "system"
        },
        "key_19": {
          "name": "Grateful Dead",
          "artist_key": "2",
          "shows_key": "1163",
          "showdate": "02/17/79",
          "venue": "Oakland-Alameda County Coliseum",
          "city": "Oakland",
          "state": "CA",
          "set1": [
            "Greatest Story Ever Told",
            "Don't Ease Me In",
            "Mama Tried",
            "Mexicali Blues",
            "Friend Of The Devil",
            "Passenger",
            "High Time",
            "Looks Like Rain",
            "Jack A Roe",
            "Lazy Lightning-> Supplication"
          ],
          "set2": [
            "Greatest Story Ever Told",
            "Don't Ease Me In",
            "Mama Tried",
            "Mexicali Blues",
            "Friend Of The Devil",
            "Passenger",
            "High Time",
            "Looks Like Rain",
            "Jack A Roe",
            "Lazy Lightning-> Supplication"
          ],
          "set3": "",
          "comment": "Keith and Donna's Last showRock for Life Benefit to end environmental Cancer",
          "lastupdate": "1996-01-07 00:00:00",
          "showyear": "1979",
          "showsuserid": "system"
        },
        "key_20": {
          "name": "Grateful Dead",
          "artist_key": "2",
          "shows_key": "1164",
          "showdate": "04/16/79",
          "venue": "Studio Rehersal, Club Front",
          "city": "San Rafael",
          "state": "CA",
          "set1": [
            "Jam-> Not Fade Away-> Jam-> Drums-> Passenger",
            "Bertha",
            "Good Lovin'-> Jam",
            "I Need A Miracle",
            "Scarlet Begonias-> Fire On The Mountain",
            "Gloria-> Linda Lou",
            "Jam",
            "Jack Straw"
          ],
          "set2": "",
          "set3": "",
          "comment": "",
          "lastupdate": "1996-01-07 00:00:00",
          "showyear": "1979",
          "showsuserid": "system"
        },
        "key_21": {
          "name": "Grateful Dead",
          "artist_key": "2",
          "shows_key": "1165",
          "showdate": "04/22/79",
          "venue": "Spartan Stadium, San Jose State U",
          "city": "San Jose",
          "state": "CA",
          "set1": [
            "Jack Straw",
            "Tennessee Jed",
            "Mama Tried-> Mexicali Blues",
            "Sugaree",
            "Looks Like Rain",
            "Brown Eyed Women",
            "Minglewood Blues",
            "Stagger Lee",
            "Passenger",
            "Deal"
          ],
          "set2": [
            "Jack Straw",
            "Tennessee Jed",
            "Mama Tried-> Mexicali Blues",
            "Sugaree",
            "Looks Like Rain",
            "Brown Eyed Women",
            "Minglewood Blues",
            "Stagger Lee",
            "Passenger",
            "Deal"
          ],
          "set3": "",
          "comment": "Brent Mydland's First Show,*Second Encore. Other artist(s): Charlie Daniels & Greg Kihn Band",
          "lastupdate": "1996-01-07 00:00:00",
          "showyear": "1979",
          "showsuserid": "system"
        },
        "key_22": {
          "name": "Grateful Dead",
          "artist_key": "2",
          "shows_key": "1166",
          "showdate": "05/03/79",
          "venue": "Charlotte Coliseum",
          "city": "Charlotte",
          "state": "NC",
          "set1": [
            "Promised Land",
            "Brown Eyed Women",
            "Me & My Uncle-> Big River",
            "Stagger Lee",
            "Looks Like Rain",
            "Row Jimmy",
            "It's All Over Now",
            "Deal"
          ],
          "set2": [
            "Promised Land",
            "Brown Eyed Women",
            "Me & My Uncle-> Big River",
            "Stagger Lee",
            "Looks Like Rain",
            "Row Jimmy",
            "It's All Over Now",
            "Deal"
          ],
          "set3": "",
          "comment": "",
          "lastupdate": "1996-01-07 00:00:00",
          "showyear": "1979",
          "showsuserid": "system"
        },
        "key_23": {
          "name": "Grateful Dead",
          "artist_key": "2",
          "shows_key": "1167",
          "showdate": "05/04/79",
          "venue": "Hampton Coliseum",
          "city": "Hampton",
          "state": "VA",
          "set1": [
            "Mississippi Half Step-> Franklin's Tower",
            "Mama Tried-> Mexicali Blues",
            "Candyman",
            "Lazy Lightning-> Supplication",
            "Loser",
            "Minglewood Blues",
            "Don't Ease Me In",
            "Passenger"
          ],
          "set2": [
            "Mississippi Half Step-> Franklin's Tower",
            "Mama Tried-> Mexicali Blues",
            "Candyman",
            "Lazy Lightning-> Supplication",
            "Loser",
            "Minglewood Blues",
            "Don't Ease Me In",
            "Passenger"
          ],
          "set3": "",
          "comment": "",
          "lastupdate": "1996-01-07 00:00:00",
          "showyear": "1979",
          "showsuserid": "system"
        },
        "key_24": {
          "name": "Grateful Dead",
          "artist_key": "2",
          "shows_key": "1168",
          "showdate": "05/05/79",
          "venue": "Baltimore Civic Center",
          "city": "Baltimore",
          "state": "MD",
          "set1": [
            "Jack Straw-> Sugaree",
            "El Paso",
            "Friend Of The Devil",
            "It's All Over Now",
            "Tennessee Jed",
            "Dancin' In The Streets"
          ],
          "set2": [
            "Jack Straw-> Sugaree",
            "El Paso",
            "Friend Of The Devil",
            "It's All Over Now",
            "Tennessee Jed",
            "Dancin' In The Streets"
          ],
          "set3": "",
          "comment": "",
          "lastupdate": "1996-01-07 00:00:00",
          "showyear": "1979",
          "showsuserid": "system"
        },
        "key_25": {
          "name": "Grateful Dead",
          "artist_key": "2",
          "shows_key": "1169",
          "showdate": "05/07/79",
          "venue": "Allan Kirby Field House, Lafayette College",
          "city": "Easton",
          "state": "PA",
          "set1": [
            "Don't Ease Me In",
            "Me & My Uncle-> Big River",
            "Candyman",
            "Looks Like Rain",
            "Tennessee Jed",
            "Minglewood Blues",
            "Peggy-O",
            "Passenger"
          ],
          "set2": [
            "Don't Ease Me In",
            "Me & My Uncle-> Big River",
            "Candyman",
            "Looks Like Rain",
            "Tennessee Jed",
            "Minglewood Blues",
            "Peggy-O",
            "Passenger"
          ],
          "set3": "",
          "comment": "*W john Cippolina",
          "lastupdate": "1996-01-07 00:00:00",
          "showyear": "1979",
          "showsuserid": "system"
        },
        "key_26": {
          "name": "Grateful Dead",
          "artist_key": "2",
          "shows_key": "1170",
          "showdate": "05/08/79",
          "venue": "Rec Hall, Penn State U",
          "city": "State College",
          "state": "PA",
          "set1": [
            "Promised Land",
            "They Love Each Other",
            "Mama Tried-> Mexicali Blues",
            "Brown Eyed Women",
            "It's All Over Now",
            "Row Jimmy",
            "El Paso",
            "Stagger Lee",
            "Lazy Lightning-> Supplication-> Deal"
          ],
          "set2": [
            "Promised Land",
            "They Love Each Other",
            "Mama Tried-> Mexicali Blues",
            "Brown Eyed Women",
            "It's All Over Now",
            "Row Jimmy",
            "El Paso",
            "Stagger Lee",
            "Lazy Lightning-> Supplication-> Deal"
          ],
          "set3": "",
          "comment": "",
          "lastupdate": "1996-01-07 00:00:00",
          "showyear": "1979",
          "showsuserid": "system"
        },
        "key_27": {
          "name": "Grateful Dead",
          "artist_key": "2",
          "shows_key": "1171",
          "showdate": "05/09/79",
          "venue": "Broome County Arena",
          "city": "Binghamton",
          "state": "NY",
          "set1": [
            "Sugaree",
            "Me & My Uncle",
            "Loser",
            "Minglewood Blues",
            "Friend Of The Devil",
            "Looks Like Rain",
            "Stagger Lee",
            "Jack Straw"
          ],
          "set2": [
            "Sugaree",
            "Me & My Uncle",
            "Loser",
            "Minglewood Blues",
            "Friend Of The Devil",
            "Looks Like Rain",
            "Stagger Lee",
            "Jack Straw"
          ],
          "set3": "",
          "comment": "",
          "lastupdate": "1996-01-07 00:00:00",
          "showyear": "1979",
          "showsuserid": "system"
        },
        "key_28": {
          "name": "Grateful Dead",
          "artist_key": "2",
          "shows_key": "1172",
          "showdate": "05/11/79",
          "venue": "Billerica Forum",
          "city": "Billerica",
          "state": "MA",
          "set1": [
            "Mississippi Half Step-> Franklin's Tower",
            "Mama Tried-> Mexicali Blues",
            "Peggy-O",
            "It's All Over Now",
            "Brown Eyed Women",
            "Lazy Lightning-> Supplication"
          ],
          "set2": [
            "Mississippi Half Step-> Franklin's Tower",
            "Mama Tried-> Mexicali Blues",
            "Peggy-O",
            "It's All Over Now",
            "Brown Eyed Women",
            "Lazy Lightning-> Supplication"
          ],
          "set3": "",
          "comment": "",
          "lastupdate": "1996-01-07 00:00:00",
          "showyear": "1979",
          "showsuserid": "system"
        },
        "key_29": {
          "name": "Grateful Dead",
          "artist_key": "2",
          "shows_key": "1173",
          "showdate": "05/12/79",
          "venue": "Alumni Stadium, University of Massachusetts",
          "city": "Amherst",
          "state": "MA",
          "set1": [
            "Jack Straw",
            "They Love Each Other",
            "Me & My Uncle-> Big River",
            "Tennessee Jed",
            "Minglewood Blues",
            "Stagger Lee",
            "Looks Like Rain",
            "Deal"
          ],
          "set2": [
            "Jack Straw",
            "They Love Each Other",
            "Me & My Uncle-> Big River",
            "Tennessee Jed",
            "Minglewood Blues",
            "Stagger Lee",
            "Looks Like Rain",
            "Deal"
          ],
          "set3": "",
          "comment": "Roy Ayers then Patti Smith Opened",
          "lastupdate": "2008-10-12 02:26:50",
          "showyear": "1979",
          "showsuserid": "system"
        },
        "key_30": {
          "name": "Grateful Dead",
          "artist_key": "2",
          "shows_key": "1174",
          "showdate": "05/13/79",
          "venue": "Cumberland County Civic Center",
          "city": "Portland",
          "state": "ME",
          "set1": [
            "Sugaree",
            "Mama Tried-> Mexicali Blues",
            "Jack A Roe",
            "It's All Over Now",
            "Candyman",
            "El Paso",
            "Row Jimmy",
            "Jack Straw"
          ],
          "set2": [
            "Sugaree",
            "Mama Tried-> Mexicali Blues",
            "Jack A Roe",
            "It's All Over Now",
            "Candyman",
            "El Paso",
            "Row Jimmy",
            "Jack Straw"
          ],
          "set3": "",
          "comment": "",
          "lastupdate": "1996-01-07 00:00:00",
          "showyear": "1979",
          "showsuserid": "system"
        },
        "key_31": {
          "name": "Grateful Dead",
          "artist_key": "2",
          "shows_key": "1175",
          "showdate": "06/28/79",
          "venue": "Sacramento Memorial Auditorium",
          "city": "Sacramento",
          "state": "CA",
          "set1": [
            "Don't Ease Me In",
            "Minglewood Blues",
            "They Love Each Other",
            "Mama Tried-> Mexicali Blues",
            "Peggy-O",
            "It's All Over Now",
            "Stagger Lee",
            "Passenger",
            "Loser",
            "The Music Never Stopped"
          ],
          "set2": [
            "Don't Ease Me In",
            "Minglewood Blues",
            "They Love Each Other",
            "Mama Tried-> Mexicali Blues",
            "Peggy-O",
            "It's All Over Now",
            "Stagger Lee",
            "Passenger",
            "Loser",
            "The Music Never Stopped"
          ],
          "set3": "",
          "comment": "",
          "lastupdate": "1996-01-07 00:00:00",
          "showyear": "1979",
          "showsuserid": "system"
        },
        "key_32": {
          "name": "Grateful Dead",
          "artist_key": "2",
          "shows_key": "1176",
          "showdate": "06/30/79",
          "venue": "Portland International Speedway",
          "city": "Portland",
          "state": "OR",
          "set1": [
            "Jack Straw",
            "Candyman",
            "Me & My Uncle-> Big River",
            "Tennessee Jed",
            "Looks Like Rain",
            "Deal"
          ],
          "set2": [
            "Jack Straw",
            "Candyman",
            "Me & My Uncle-> Big River",
            "Tennessee Jed",
            "Looks Like Rain",
            "Deal"
          ],
          "set3": "",
          "comment": "Other artist(s): McGuinn, Clark & Hillman, David Bromberg",
          "lastupdate": "1996-01-07 00:00:00",
          "showyear": "1979",
          "showsuserid": "system"
        },
        "key_33": {
          "name": "Grateful Dead",
          "artist_key": "2",
          "shows_key": "2343",
          "showdate": "07/01/79",
          "venue": "Seattle Center Coliseum",
          "city": "Seattle",
          "state": "WA",
          "set1": [
            "Mississippi Half Step-> Franklin's Tower",
            "Mama Tried-> Mexicali Blues",
            "Peggy-O",
            "Minglewood Blues",
            "Stagger Lee",
            "El Paso",
            "Brown Eyed Women",
            "Passenger"
          ],
          "set2": [
            "Mississippi Half Step-> Franklin's Tower",
            "Mama Tried-> Mexicali Blues",
            "Peggy-O",
            "Minglewood Blues",
            "Stagger Lee",
            "El Paso",
            "Brown Eyed Women",
            "Passenger"
          ],
          "set3": "",
          "comment": "",
          "lastupdate": "1996-01-07 00:00:00",
          "showyear": "1979",
          "showsuserid": "system"
        },
        "key_34": {
          "name": "Grateful Dead",
          "artist_key": "2",
          "shows_key": "1177",
          "showdate": "07/11/79",
          "venue": "Studio Rehersal, Club Front",
          "city": "San Rafael",
          "state": "CA",
          "set1": [
            "Easy To Love You",
            "Lost Sailor",
            "What'Ll You Raise",
            "Althea"
          ],
          "set2": "",
          "set3": "",
          "comment": "",
          "lastupdate": "1996-01-07 00:00:00",
          "showyear": "1979",
          "showsuserid": "system"
        },
        "key_35": {
          "name": "Grateful Dead",
          "artist_key": "2",
          "shows_key": "1178",
          "showdate": "08/04/79",
          "venue": "Oakland Auditorium Arena",
          "city": "Oakland",
          "state": "CA",
          "set1": [
            "Jack Straw",
            "They Love Each Other",
            "Mama Tried-> Mexicali Blues",
            "Peggy-O",
            "Minglewood Blues",
            "Tennessee Jed",
            "El Paso",
            "Althea",
            "Lost Sailor-> Deal"
          ],
          "set2": [
            "Jack Straw",
            "They Love Each Other",
            "Mama Tried-> Mexicali Blues",
            "Peggy-O",
            "Minglewood Blues",
            "Tennessee Jed",
            "El Paso",
            "Althea",
            "Lost Sailor-> Deal"
          ],
          "set3": "",
          "comment": "",
          "lastupdate": "1996-01-07 00:00:00",
          "showyear": "1979",
          "showsuserid": "system"
        },
        "key_36": {
          "name": "Grateful Dead",
          "artist_key": "2",
          "shows_key": "1179",
          "showdate": "08/05/79",
          "venue": "Oakland Auditorium Arena",
          "city": "Oakland",
          "state": "CA",
          "set1": [
            "Mississippi Half Step-> Franklin's Tower-> Me & My Uncle-> Big River",
            "Candyman",
            "It's All Over Now",
            "Brown Eyed Women",
            "Lost Sailor-> Althea-> Promised Land"
          ],
          "set2": [
            "Mississippi Half Step-> Franklin's Tower-> Me & My Uncle-> Big River",
            "Candyman",
            "It's All Over Now",
            "Brown Eyed Women",
            "Lost Sailor-> Althea-> Promised Land"
          ],
          "set3": "",
          "comment": "*W Hamza El Din",
          "lastupdate": "1996-01-07 00:00:00",
          "showyear": "1979",
          "showsuserid": "system"
        },
        "key_37": {
          "name": "Grateful Dead",
          "artist_key": "2",
          "shows_key": "1180",
          "showdate": "08/12/79",
          "venue": "Red Rocks Ampitheatre",
          "city": "Morrison",
          "state": "CO",
          "set1": [
            "Promised Land",
            "They Love Each Other",
            "Mama Tried-> Mexicali Blues",
            "Peggy-O",
            "Lazy Lightning-> Supplication",
            "Brown Eyed Women",
            "Looks Like Rain",
            "Althea-> Passenger"
          ],
          "set2": [
            "Promised Land",
            "They Love Each Other",
            "Mama Tried-> Mexicali Blues",
            "Peggy-O",
            "Lazy Lightning-> Supplication",
            "Brown Eyed Women",
            "Looks Like Rain",
            "Althea-> Passenger"
          ],
          "set3": "",
          "comment": "",
          "lastupdate": "2002-11-16 00:00:00",
          "showyear": "1979",
          "showsuserid": "hamilton"
        },
        "key_38": {
          "name": "Grateful Dead",
          "artist_key": "2",
          "shows_key": "1181",
          "showdate": "08/13/79",
          "venue": "McNichols Sports Arena",
          "city": "Denver",
          "state": "CO",
          "set1": [
            "Shakedown Street",
            "Me & My Uncle-> Big River",
            "Candyman",
            "El Paso",
            "Friend Of The Devil",
            "Minglewood Blues",
            "Althea",
            "Lost Sailor-> Deal"
          ],
          "set2": [
            "Shakedown Street",
            "Me & My Uncle-> Big River",
            "Candyman",
            "El Paso",
            "Friend Of The Devil",
            "Minglewood Blues",
            "Althea",
            "Lost Sailor-> Deal"
          ],
          "set3": "",
          "comment": "",
          "lastupdate": "1996-01-07 00:00:00",
          "showyear": "1979",
          "showsuserid": "system"
        },
        "key_39": {
          "name": "Grateful Dead",
          "artist_key": "2",
          "shows_key": "1182",
          "showdate": "08/14/79",
          "venue": "McNichols Sports Arena",
          "city": "Denver",
          "state": "CO",
          "set1": [
            "Jack Straw",
            "Jack A Roe",
            "Mama Tried-> Mexicali Blues",
            "Tennessee Jed",
            "Easy To Love You",
            "Passenger",
            "Stagger Lee",
            "The Music Never Stopped"
          ],
          "set2": [
            "Jack Straw",
            "Jack A Roe",
            "Mama Tried-> Mexicali Blues",
            "Tennessee Jed",
            "Easy To Love You",
            "Passenger",
            "Stagger Lee",
            "The Music Never Stopped"
          ],
          "set3": "",
          "comment": "* First time played",
          "lastupdate": "1996-01-07 00:00:00",
          "showyear": "1979",
          "showsuserid": "system"
        },
        "key_40": {
          "name": "Grateful Dead",
          "artist_key": "2",
          "shows_key": "1183",
          "showdate": "08/31/79",
          "venue": "Glens Falls Civic Center",
          "city": "Glens Falls",
          "state": "NY",
          "set1": [
            "Promised Land",
            "Dire Wolf",
            "Cassidy",
            "Loser",
            "El Paso",
            "Peggy-O",
            "Minglewood Blues",
            "Easy To Love You",
            "Althea",
            "Lost Sailor-> Saint Of Circumstance-> Deal"
          ],
          "set2": [
            "Promised Land",
            "Dire Wolf",
            "Cassidy",
            "Loser",
            "El Paso",
            "Peggy-O",
            "Minglewood Blues",
            "Easy To Love You",
            "Althea",
            "Lost Sailor-> Saint Of Circumstance-> Deal"
          ],
          "set3": "",
          "comment": "",
          "lastupdate": "2013-03-08 21:13:07",
          "showyear": "1979",
          "showsuserid": "BeLikeMike"
        },
        "key_41": {
          "name": "Grateful Dead",
          "artist_key": "2",
          "shows_key": "1184",
          "showdate": "09/01/79",
          "venue": "Holleder Memorial Stadium",
          "city": "Rochester",
          "state": "NY",
          "set1": [
            "Mississippi Half Step-> Franklin's Tower",
            "Me & My Uncle-> Big River",
            "Friend Of The Devil",
            "Looks Like Rain",
            "Don't Ease Me In",
            "Lost Sailor-> Saint Of Circumstance"
          ],
          "set2": [
            "Mississippi Half Step-> Franklin's Tower",
            "Me & My Uncle-> Big River",
            "Friend Of The Devil",
            "Looks Like Rain",
            "Don't Ease Me In",
            "Lost Sailor-> Saint Of Circumstance"
          ],
          "set3": "",
          "comment": "Greg Kihn then The Good Rats Opened",
          "lastupdate": "1996-01-07 00:00:00",
          "showyear": "1979",
          "showsuserid": "system"
        },
        "key_42": {
          "name": "Grateful Dead",
          "artist_key": "2",
          "shows_key": "1185",
          "showdate": "09/02/79",
          "venue": "Augusta Civic Center",
          "city": "Augusta",
          "state": "ME",
          "set1": [
            "Jack Straw",
            "They Love Each Other",
            "Mama Tried-> Mexicali Blues",
            "Stagger Lee",
            "Cassidy",
            "Row Jimmy",
            "Minglewood Blues",
            "Jack A Roe",
            "The Music Never Stopped"
          ],
          "set2": [
            "Jack Straw",
            "They Love Each Other",
            "Mama Tried-> Mexicali Blues",
            "Stagger Lee",
            "Cassidy",
            "Row Jimmy",
            "Minglewood Blues",
            "Jack A Roe",
            "The Music Never Stopped"
          ],
          "set3": "",
          "comment": "",
          "lastupdate": "1996-01-07 00:00:00",
          "showyear": "1979",
          "showsuserid": "system"
        },
        "key_43": {
          "name": "Grateful Dead",
          "artist_key": "2",
          "shows_key": "1186",
          "showdate": "09/04/79",
          "venue": "Madison Square Garden",
          "city": "New York",
          "state": "NY",
          "set1": [
            "Jack Straw",
            "Sugaree",
            "Me & My Uncle-> Big River",
            "Candyman",
            "Minglewood Blues",
            "Tennessee Jed",
            "Lost Sailor-> Saint Of Circumstance-> Deal"
          ],
          "set2": [
            "Jack Straw",
            "Sugaree",
            "Me & My Uncle-> Big River",
            "Candyman",
            "Minglewood Blues",
            "Tennessee Jed",
            "Lost Sailor-> Saint Of Circumstance-> Deal"
          ],
          "set3": "",
          "comment": "",
          "lastupdate": "2004-09-06 00:00:00",
          "showyear": "1979",
          "showsuserid": "system"
        },
        "key_44": {
          "name": "Grateful Dead",
          "artist_key": "2",
          "shows_key": "54603",
          "showdate": "09/05/79",
          "venue": "Madison Square Garden",
          "city": "New York",
          "state": "NY",
          "set1": [
            "Mississippi Half-Step > Franklin's Tower",
            "Mama Tried  > Mexicali Blues",
            "Peggy O.",
            "Cassidy",
            "Loser",
            "The Promised Land"
          ],
          "set2": [
            "Mississippi Half-Step > Franklin's Tower",
            "Mama Tried  > Mexicali Blues",
            "Peggy O.",
            "Cassidy",
            "Loser",
            "The Promised Land"
          ],
          "set3": "",
          "comment": "",
          "lastupdate": "2004-09-06 00:00:00",
          "showyear": "1979",
          "showsuserid": "hamilton"
        },
        "key_45": {
          "name": "Grateful Dead",
          "artist_key": "2",
          "shows_key": "1188",
          "showdate": "09/06/79",
          "venue": "Madison Square Garden",
          "city": "New York",
          "state": "NY",
          "set1": [
            "Minglewood Blues",
            "Dire Wolf",
            "El Paso",
            "Brown Eyed Women",
            "It's All Over Now",
            "Don't Ease Me In",
            "Looks Like Rain",
            "Althea-> Lost Sailor-> Saint Of Circumstance"
          ],
          "set2": [
            "Minglewood Blues",
            "Dire Wolf",
            "El Paso",
            "Brown Eyed Women",
            "It's All Over Now",
            "Don't Ease Me In",
            "Looks Like Rain",
            "Althea-> Lost Sailor-> Saint Of Circumstance"
          ],
          "set3": "",
          "comment": "",
          "lastupdate": "2004-09-06 00:00:00",
          "showyear": "1979",
          "showsuserid": "system"
        },
        "key_46": {
          "name": "Grateful Dead",
          "artist_key": "2",
          "shows_key": "1189",
          "showdate": "10/24/79",
          "venue": "Springfield Civic Center",
          "city": "Springfield",
          "state": "MA",
          "set1": [
            "Promised Land",
            "Loser",
            "Mama Tried-> Mexicali Blues",
            "They Love Each Other",
            "Minglewood Blues",
            "Dire Wolf",
            "Easy To Love You",
            "Lost Sailor-> Saint Of Circumstance"
          ],
          "set2": [
            "Promised Land",
            "Loser",
            "Mama Tried-> Mexicali Blues",
            "They Love Each Other",
            "Minglewood Blues",
            "Dire Wolf",
            "Easy To Love You",
            "Lost Sailor-> Saint Of Circumstance"
          ],
          "set3": "",
          "comment": "",
          "lastupdate": "1996-01-07 00:00:00",
          "showyear": "1979",
          "showsuserid": "system"
        },
        "key_47": {
          "name": "Grateful Dead",
          "artist_key": "2",
          "shows_key": "1190",
          "showdate": "10/25/79",
          "venue": "Veterans' Memorial Coliseum",
          "city": "New Haven",
          "state": "CT",
          "set1": [
            "Don't Ease Me In",
            "Cassidy",
            "Peggy-O",
            "El Paso",
            "Brown Eyed Women",
            "It's All Over Now",
            "Tennessee Jed",
            "Looks Like Rain",
            "Deal"
          ],
          "set2": [
            "Don't Ease Me In",
            "Cassidy",
            "Peggy-O",
            "El Paso",
            "Brown Eyed Women",
            "It's All Over Now",
            "Tennessee Jed",
            "Looks Like Rain",
            "Deal"
          ],
          "set3": "",
          "comment": "",
          "lastupdate": "1996-01-07 00:00:00",
          "showyear": "1979",
          "showsuserid": "system"
        },
        "key_48": {
          "name": "Grateful Dead",
          "artist_key": "2",
          "shows_key": "1191",
          "showdate": "10/27/79",
          "venue": "Cape Cod Coliseum",
          "city": "South Yarmouth",
          "state": "MA",
          "set1": [
            "Jack Straw",
            "Candyman",
            "Me & My Uncle-> Big River",
            "Brown Eyed Women",
            "Easy To Love You",
            "Minglewood Blues",
            "Stagger Lee",
            "Lost Sailor-> Saint Of Circumstance-> Deal"
          ],
          "set2": [
            "Jack Straw",
            "Candyman",
            "Me & My Uncle-> Big River",
            "Brown Eyed Women",
            "Easy To Love You",
            "Minglewood Blues",
            "Stagger Lee",
            "Lost Sailor-> Saint Of Circumstance-> Deal"
          ],
          "set3": "",
          "comment": "",
          "lastupdate": "1996-01-07 00:00:00",
          "showyear": "1979",
          "showsuserid": "system"
        },
        "key_49": {
          "name": "Grateful Dead",
          "artist_key": "2",
          "shows_key": "1192",
          "showdate": "10/28/79",
          "venue": "Cape Cod Coliseum",
          "city": "South Yarmouth",
          "state": "MA",
          "set1": [
            "Mississippi Half Step-> Franklin's Tower",
            "Mama Tried-> Mexicali Blues",
            "Althea",
            "Passenger",
            "Ramble On Rose",
            "The Music Never Stopped"
          ],
          "set2": [
            "Mississippi Half Step-> Franklin's Tower",
            "Mama Tried-> Mexicali Blues",
            "Althea",
            "Passenger",
            "Ramble On Rose",
            "The Music Never Stopped"
          ],
          "set3": "",
          "comment": "",
          "lastupdate": "1996-01-07 00:00:00",
          "showyear": "1979",
          "showsuserid": "system"
        },
        "key_50": {
          "name": "Grateful Dead",
          "artist_key": "2",
          "shows_key": "1193",
          "showdate": "10/31/79",
          "venue": "Nassau Coliseum",
          "city": "Uniondale",
          "state": "NY",
          "set1": [
            "China Cat Sunflower-> I Know You Rider",
            "Cassidy",
            "Loser",
            "Me & My Uncle-> Big River",
            "Althea",
            "Lost Sailor-> Saint Of Circumstance"
          ],
          "set2": [
            "China Cat Sunflower-> I Know You Rider",
            "Cassidy",
            "Loser",
            "Me & My Uncle-> Big River",
            "Althea",
            "Lost Sailor-> Saint Of Circumstance"
          ],
          "set3": "",
          "comment": "",
          "lastupdate": "1996-01-07 00:00:00",
          "showyear": "1979",
          "showsuserid": "system"
        },
        "key_51": {
          "name": "Grateful Dead",
          "artist_key": "2",
          "shows_key": "1194",
          "showdate": "11/01/79",
          "venue": "Nassau Coliseum",
          "city": "Uniondale",
          "state": "NY",
          "set1": [
            "Jack Straw",
            "They Love Each Other",
            "Mama Tried-> Mexicali Blues",
            "Peggy-O",
            "Minglewood Blues",
            "Candyman",
            "Looks Like Rain",
            "Don't Ease Me In",
            "Easy To Love You",
            "Promised Land"
          ],
          "set2": [
            "Jack Straw",
            "They Love Each Other",
            "Mama Tried-> Mexicali Blues",
            "Peggy-O",
            "Minglewood Blues",
            "Candyman",
            "Looks Like Rain",
            "Don't Ease Me In",
            "Easy To Love You",
            "Promised Land"
          ],
          "set3": "",
          "comment": "",
          "lastupdate": "1996-01-07 00:00:00",
          "showyear": "1979",
          "showsuserid": "system"
        },
        "key_52": {
          "name": "Grateful Dead",
          "artist_key": "2",
          "shows_key": "1195",
          "showdate": "11/02/79",
          "venue": "Nassau Coliseum",
          "city": "Uniondale",
          "state": "NY",
          "set1": [
            "Mississippi Half Step-> Franklin's Tower",
            "El Paso-> Mexicali Blues",
            "Tennessee Jed",
            "Lazy Lightning-> Supplication",
            "Deal"
          ],
          "set2": [
            "Mississippi Half Step-> Franklin's Tower",
            "El Paso-> Mexicali Blues",
            "Tennessee Jed",
            "Lazy Lightning-> Supplication",
            "Deal"
          ],
          "set3": "",
          "comment": "",
          "lastupdate": "1996-01-07 00:00:00",
          "showyear": "1979",
          "showsuserid": "system"
        },
        "key_53": {
          "name": "Grateful Dead",
          "artist_key": "2",
          "shows_key": "1196",
          "showdate": "11/04/79",
          "venue": "Providence Civic Center",
          "city": "Providence",
          "state": "RI",
          "set1": [
            "Minglewood Blues",
            "They Love Each Other",
            "Me & My Uncle-> Big River",
            "Althea",
            "Easy To Love You",
            "Brown Eyed Women",
            "Lost Sailor-> Saint Of Circumstance-> Deal"
          ],
          "set2": [
            "Minglewood Blues",
            "They Love Each Other",
            "Me & My Uncle-> Big River",
            "Althea",
            "Easy To Love You",
            "Brown Eyed Women",
            "Lost Sailor-> Saint Of Circumstance-> Deal"
          ],
          "set3": "",
          "comment": "",
          "lastupdate": "1996-01-07 00:00:00",
          "showyear": "1979",
          "showsuserid": "system"
        },
        "key_54": {
          "name": "Grateful Dead",
          "artist_key": "2",
          "shows_key": "1197",
          "showdate": "11/05/79",
          "venue": "The Spectrum",
          "city": "Philadelphia",
          "state": "PA",
          "set1": [
            "China Cat Sunflower-> I Know You Rider",
            "Cassidy",
            "Friend Of The Devil",
            "El Paso",
            "Stagger Lee",
            "Passenger",
            "Peggy-O",
            "The Music Never Stopped"
          ],
          "set2": [
            "China Cat Sunflower-> I Know You Rider",
            "Cassidy",
            "Friend Of The Devil",
            "El Paso",
            "Stagger Lee",
            "Passenger",
            "Peggy-O",
            "The Music Never Stopped"
          ],
          "set3": "",
          "comment": "",
          "lastupdate": "1996-01-07 00:00:00",
          "showyear": "1979",
          "showsuserid": "system"
        },
        "key_55": {
          "name": "Grateful Dead",
          "artist_key": "2",
          "shows_key": "1198",
          "showdate": "11/06/79",
          "venue": "The Spectrum",
          "city": "Philadelphia",
          "state": "PA",
          "set1": [
            "Alabama Getaway-> Promised Land",
            "Tennessee Jed",
            "Me & My Uncle-> Mexicali Blues",
            "Candyman",
            "Easy To Love You",
            "Looks Like Rain",
            "Jack A Roe",
            "Jack Straw-> Deal"
          ],
          "set2": [
            "Alabama Getaway-> Promised Land",
            "Tennessee Jed",
            "Me & My Uncle-> Mexicali Blues",
            "Candyman",
            "Easy To Love You",
            "Looks Like Rain",
            "Jack A Roe",
            "Jack Straw-> Deal"
          ],
          "set3": "",
          "comment": "",
          "lastupdate": "1996-01-07 00:00:00",
          "showyear": "1979",
          "showsuserid": "system"
        },
        "key_56": {
          "name": "Grateful Dead",
          "artist_key": "2",
          "shows_key": "1199",
          "showdate": "11/08/79",
          "venue": "Capital Centre",
          "city": "Landover",
          "state": "MD",
          "set1": [
            "Minglewood Blues",
            "Stagger Lee",
            "Mama Tried-> Mexicali Blues",
            "China Cat Sunflower-> I Know You Rider",
            "It's All Over Now",
            "Don't Ease Me In",
            "Looks Like Rain-> Deal"
          ],
          "set2": [
            "Minglewood Blues",
            "Stagger Lee",
            "Mama Tried-> Mexicali Blues",
            "China Cat Sunflower-> I Know You Rider",
            "It's All Over Now",
            "Don't Ease Me In",
            "Looks Like Rain-> Deal"
          ],
          "set3": "",
          "comment": "",
          "lastupdate": "2002-03-27 00:00:00",
          "showyear": "1979",
          "showsuserid": "system"
        },
        "key_57": {
          "name": "Grateful Dead",
          "artist_key": "2",
          "shows_key": "1200",
          "showdate": "11/09/79",
          "venue": "Community War Memorial Auditorium",
          "city": "Buffalo",
          "state": "NY",
          "set1": [
            "Alabama Getaway-> Promised Land",
            "They Love Each Other",
            "Cassidy",
            "Loser",
            "Lazy Lightning-> Supplication",
            "Althea",
            "Easy To Love You",
            "Jack Straw"
          ],
          "set2": [
            "Alabama Getaway-> Promised Land",
            "They Love Each Other",
            "Cassidy",
            "Loser",
            "Lazy Lightning-> Supplication",
            "Althea",
            "Easy To Love You",
            "Jack Straw"
          ],
          "set3": "",
          "comment": "",
          "lastupdate": "1996-01-07 00:00:00",
          "showyear": "1979",
          "showsuserid": "system"
        },
        "key_58": {
          "name": "Grateful Dead",
          "artist_key": "2",
          "shows_key": "1201",
          "showdate": "11/10/79",
          "venue": "Crisler Arena",
          "city": "Ann Arbor",
          "state": "MI",
          "set1": [
            "Cold Rain & Snow-> Minglewood Blues",
            "Peggy-O",
            "El Paso",
            "High Time",
            "Me & My Uncle-> Big River",
            "Ramble On Rose",
            "Looks Like Rain",
            "Dire Wolf",
            "Passenger",
            "Deal"
          ],
          "set2": [
            "Cold Rain & Snow-> Minglewood Blues",
            "Peggy-O",
            "El Paso",
            "High Time",
            "Me & My Uncle-> Big River",
            "Ramble On Rose",
            "Looks Like Rain",
            "Dire Wolf",
            "Passenger",
            "Deal"
          ],
          "set3": "",
          "comment": "",
          "lastupdate": "1996-01-07 00:00:00",
          "showyear": "1979",
          "showsuserid": "hamilton"
        },
        "key_59": {
          "name": "Grateful Dead",
          "artist_key": "2",
          "shows_key": "1202",
          "showdate": "11/23/79",
          "venue": "Golden Hall, Community Concourse",
          "city": "San Diego",
          "state": "CA",
          "set1": [
            "Alabama Getaway-> Promised Land",
            "They Love Each Other",
            "Me & My Uncle-> Big River",
            "High Time",
            "Minglewood Blues",
            "Stagger Lee",
            "Easy To Love You",
            "Looks Like Rain-> Deal"
          ],
          "set2": [
            "Alabama Getaway-> Promised Land",
            "They Love Each Other",
            "Me & My Uncle-> Big River",
            "High Time",
            "Minglewood Blues",
            "Stagger Lee",
            "Easy To Love You",
            "Looks Like Rain-> Deal"
          ],
          "set3": "",
          "comment": "",
          "lastupdate": "2003-02-15 00:00:00",
          "showyear": "1979",
          "showsuserid": "system"
        },
        "key_60": {
          "name": "Grateful Dead",
          "artist_key": "2",
          "shows_key": "1203",
          "showdate": "11/24/79",
          "venue": "Golden Hall, Community Concourse",
          "city": "San Diego",
          "state": "CA",
          "set1": [
            "China Cat Sunflower-> I Know You Rider",
            "Mama Tried-> Mexicali Blues",
            "Peggy-O",
            "Cassidy",
            "Easy To Love You-> Althea",
            "Passenger"
          ],
          "set2": [
            "China Cat Sunflower-> I Know You Rider",
            "Mama Tried-> Mexicali Blues",
            "Peggy-O",
            "Cassidy",
            "Easy To Love You-> Althea",
            "Passenger"
          ],
          "set3": "",
          "comment": "",
          "lastupdate": "2003-02-15 00:00:00",
          "showyear": "1979",
          "showsuserid": "system"
        },
        "key_61": {
          "name": "Grateful Dead",
          "artist_key": "2",
          "shows_key": "1204",
          "showdate": "11/25/79",
          "venue": "Pauley Pavilion, UCLA",
          "city": "Los Angeles",
          "state": "CA",
          "set1": [
            "Jack Straw",
            "Tennessee Jed",
            "Me & My Uncle-> Big River",
            "Loser",
            "Minglewood Blues",
            "Easy To Love You",
            "Althea",
            "Lost Sailor-> Saint Of Circumstance-> Deal"
          ],
          "set2": [
            "Jack Straw",
            "Tennessee Jed",
            "Me & My Uncle-> Big River",
            "Loser",
            "Minglewood Blues",
            "Easy To Love You",
            "Althea",
            "Lost Sailor-> Saint Of Circumstance-> Deal"
          ],
          "set3": "",
          "comment": "",
          "lastupdate": "1996-01-07 00:00:00",
          "showyear": "1979",
          "showsuserid": "system"
        },
        "key_62": {
          "name": "Grateful Dead",
          "artist_key": "2",
          "shows_key": "1205",
          "showdate": "11/29/79",
          "venue": "Cleveland Public Hall",
          "city": "Cleveland",
          "state": "OH",
          "set1": [
            "Alabama Getaway &gt; Promised Land",
            "Candyman",
            "Mama Tried &gt; Mexicali Blues",
            "They Love Each Other",
            "Minglewood Blues",
            "Easy To Love You",
            "Brown Eyed Women &gt; Looks Like Rain &gt; Don't Ease Me In"
          ],
          "set2": [
            "Alabama Getaway &gt; Promised Land",
            "Candyman",
            "Mama Tried &gt; Mexicali Blues",
            "They Love Each Other",
            "Minglewood Blues",
            "Easy To Love You",
            "Brown Eyed Women &gt; Looks Like Rain &gt; Don't Ease Me In"
          ],
          "set3": "",
          "comment": "",
          "lastupdate": "2014-11-09 07:14:30",
          "showyear": "1979",
          "showsuserid": "BinghamtonMike"
        },
        "key_63": {
          "name": "Grateful Dead",
          "artist_key": "2",
          "shows_key": "1206",
          "showdate": "11/30/79",
          "venue": "Stanley Theater",
          "city": "Pittsburgh",
          "state": "PA",
          "set1": [
            "Alabama Getaway-> Greatest Story Ever Told",
            "Peggy-O",
            "Cassidy",
            "Friend Of The Devil",
            "Easy To Love You",
            "El Paso",
            "Tennessee Jed",
            "Dancin' In The Streets-> Deal"
          ],
          "set2": [
            "Alabama Getaway-> Greatest Story Ever Told",
            "Peggy-O",
            "Cassidy",
            "Friend Of The Devil",
            "Easy To Love You",
            "El Paso",
            "Tennessee Jed",
            "Dancin' In The Streets-> Deal"
          ],
          "set3": "",
          "comment": "",
          "lastupdate": "1996-01-07 00:00:00",
          "showyear": "1979",
          "showsuserid": "system"
        },
        "key_64": {
          "name": "Grateful Dead",
          "artist_key": "2",
          "shows_key": "1207",
          "showdate": "12/01/79",
          "venue": "Stanley Theater",
          "city": "Pittsburgh",
          "state": "PA",
          "set1": [
            "Jack Straw-> Sugaree",
            "Me & My Uncle-> Big River",
            "Loser",
            "Easy To Love You",
            "Minglewood Blues",
            "Althea",
            "The Music Never Stopped"
          ],
          "set2": [
            "Jack Straw-> Sugaree",
            "Me & My Uncle-> Big River",
            "Loser",
            "Easy To Love You",
            "Minglewood Blues",
            "Althea",
            "The Music Never Stopped"
          ],
          "set3": "",
          "comment": "",
          "lastupdate": "1996-01-07 00:00:00",
          "showyear": "1979",
          "showsuserid": "system"
        },
        "key_65": {
          "name": "Grateful Dead",
          "artist_key": "2",
          "shows_key": "1208",
          "showdate": "12/03/79",
          "venue": "Uptown Theater",
          "city": "Chicago",
          "state": "IL",
          "set1": [
            "Alabama Getaway-> Promised Land",
            "Brown Eyed Women",
            "El Paso",
            "Ramble On Rose",
            "It's All Over Now",
            "Jack A Roe",
            "Lazy Lightning-> Supplication",
            "Althea",
            "The Music Never Stopped"
          ],
          "set2": [
            "Alabama Getaway-> Promised Land",
            "Brown Eyed Women",
            "El Paso",
            "Ramble On Rose",
            "It's All Over Now",
            "Jack A Roe",
            "Lazy Lightning-> Supplication",
            "Althea",
            "The Music Never Stopped"
          ],
          "set3": "",
          "comment": "",
          "lastupdate": "1996-01-07 00:00:00",
          "showyear": "1979",
          "showsuserid": "system"
        },
        "key_66": {
          "name": "Grateful Dead",
          "artist_key": "2",
          "shows_key": "1209",
          "showdate": "12/04/79",
          "venue": "Uptown Theater",
          "city": "Chicago",
          "state": "IL",
          "set1": [
            "Jack Straw",
            "Peggy-O",
            "Mama Tried-> Mexicali Blues",
            "They Love Each Other",
            "Minglewood Blues",
            "Stagger Lee",
            "Passenger-> Deal"
          ],
          "set2": [
            "Jack Straw",
            "Peggy-O",
            "Mama Tried-> Mexicali Blues",
            "They Love Each Other",
            "Minglewood Blues",
            "Stagger Lee",
            "Passenger-> Deal"
          ],
          "set3": "",
          "comment": "",
          "lastupdate": "1996-01-07 00:00:00",
          "showyear": "1979",
          "showsuserid": "system"
        },
        "key_67": {
          "name": "Grateful Dead",
          "artist_key": "2",
          "shows_key": "1210",
          "showdate": "12/05/79",
          "venue": "Uptown Theater",
          "city": "Chicago",
          "state": "IL",
          "set1": [
            "Alabama Getaway-> Greatest Story Ever Told",
            "Dire Wolf",
            "Me & My Uncle-> Big River",
            "Cold Rain & Snow",
            "Easy To Love You",
            "Althea-> Lost Sailor-> Saint Of Circumstance"
          ],
          "set2": [
            "Alabama Getaway-> Greatest Story Ever Told",
            "Dire Wolf",
            "Me & My Uncle-> Big River",
            "Cold Rain & Snow",
            "Easy To Love You",
            "Althea-> Lost Sailor-> Saint Of Circumstance"
          ],
          "set3": "",
          "comment": "1/0/00",
          "lastupdate": "1996-01-07 00:00:00",
          "showyear": "1979",
          "showsuserid": "system"
        },
        "key_68": {
          "name": "Grateful Dead",
          "artist_key": "2",
          "shows_key": "1211",
          "showdate": "12/07/79",
          "venue": "Indiana Convention Center",
          "city": "Indianapolis",
          "state": "IN",
          "set1": [
            "Minglewood Blues",
            "Tennessee Jed",
            "Me & My Uncle-> Big River",
            "Don't Ease Me In-> El Paso",
            "Big Railroad Blues",
            "Easy To Love You-> It's All Over Now",
            "Althea",
            "The Music Never Stopped"
          ],
          "set2": [
            "Minglewood Blues",
            "Tennessee Jed",
            "Me & My Uncle-> Big River",
            "Don't Ease Me In-> El Paso",
            "Big Railroad Blues",
            "Easy To Love You-> It's All Over Now",
            "Althea",
            "The Music Never Stopped"
          ],
          "set3": "",
          "comment": "",
          "lastupdate": "1996-01-07 00:00:00",
          "showyear": "1979",
          "showsuserid": "system"
        },
        "key_69": {
          "name": "Grateful Dead",
          "artist_key": "2",
          "shows_key": "1212",
          "showdate": "12/09/79",
          "venue": "Kiel Auditorium",
          "city": "St. Louis",
          "state": "MO",
          "set1": [
            "Alabama Getaway-> Promised Land",
            "Brown Eyed Women",
            "Cassidy",
            "Row Jimmy",
            "Minglewood Blues",
            "Candyman",
            "Lazy Lightning-> Supplication",
            "Deal"
          ],
          "set2": [
            "Alabama Getaway-> Promised Land",
            "Brown Eyed Women",
            "Cassidy",
            "Row Jimmy",
            "Minglewood Blues",
            "Candyman",
            "Lazy Lightning-> Supplication",
            "Deal"
          ],
          "set3": "",
          "comment": "",
          "lastupdate": "1996-01-07 00:00:00",
          "showyear": "1979",
          "showsuserid": "Flyerfanatic"
        },
        "key_70": {
          "name": "Grateful Dead",
          "artist_key": "2",
          "shows_key": "1213",
          "showdate": "12/10/79",
          "venue": "Soldiers' and Sailors' Memorial Hall",
          "city": "Kansas City",
          "state": "KS",
          "set1": [
            "Cold Rain & Snow-> Greatest Story Ever Told",
            "Peggy-O",
            "Mama Tried-> Mexicali Blues",
            "Tennessee Jed",
            "Dancin' In The Streets-> Franklin's Tower-> Looks Like Rain-> Deal"
          ],
          "set2": [
            "Cold Rain & Snow-> Greatest Story Ever Told",
            "Peggy-O",
            "Mama Tried-> Mexicali Blues",
            "Tennessee Jed",
            "Dancin' In The Streets-> Franklin's Tower-> Looks Like Rain-> Deal"
          ],
          "set3": "",
          "comment": "",
          "lastupdate": "1996-01-07 00:00:00",
          "showyear": "1979",
          "showsuserid": "system"
        },
        "key_71": {
          "name": "Grateful Dead",
          "artist_key": "2",
          "shows_key": "1214",
          "showdate": "12/11/79",
          "venue": "Soldiers' and Sailors' Memorial Hall",
          "city": "Kansas City",
          "state": "KS",
          "set1": [
            "Jack Straw",
            "Loser",
            "Me & My Uncle-> Big River",
            "Althea",
            "Easy To Love You",
            "Minglewood Blues",
            "China Cat Sunflower-> I Know You Rider"
          ],
          "set2": [
            "Jack Straw",
            "Loser",
            "Me & My Uncle-> Big River",
            "Althea",
            "Easy To Love You",
            "Minglewood Blues",
            "China Cat Sunflower-> I Know You Rider"
          ],
          "set3": "",
          "comment": "",
          "lastupdate": "1996-01-07 00:00:00",
          "showyear": "1979",
          "showsuserid": "system"
        },
        "key_72": {
          "name": "Grateful Dead",
          "artist_key": "2",
          "shows_key": "1215",
          "showdate": "12/26/79",
          "venue": "Oakland Auditorium Arena",
          "city": "Oakland",
          "state": "CA",
          "set1": [
            "Cold Rain & Snow",
            "CC Rider",
            "Dire Wolf",
            "Me & My Uncle-> Big River",
            "Brown Eyed Women",
            "Minglewood Blues",
            "Friend Of The Devil",
            "Looks Like Rain",
            "Alabama Getaway-> Promised Land"
          ],
          "set2": [
            "Cold Rain & Snow",
            "CC Rider",
            "Dire Wolf",
            "Me & My Uncle-> Big River",
            "Brown Eyed Women",
            "Minglewood Blues",
            "Friend Of The Devil",
            "Looks Like Rain",
            "Alabama Getaway-> Promised Land"
          ],
          "set3": "",
          "comment": "SEVA Benefit. This date is featured on <a href= \"http://mars.dead.net\">Dick's Picks 5</a>.",
          "lastupdate": "2001-02-06 00:00:00",
          "showyear": "1979",
          "showsuserid": "system"
        },
        "key_73": {
          "name": "Grateful Dead",
          "artist_key": "2",
          "shows_key": "1216",
          "showdate": "12/27/79",
          "venue": "Oakland Auditorium Arena",
          "city": "Oakland",
          "state": "CA",
          "set1": [
            "Jack Straw",
            "They Love Each Other",
            "Cassidy",
            "Peggy-O-> El Paso",
            "Don't Ease Me In",
            "Beat It On Down The Line",
            "Deal"
          ],
          "set2": [
            "Jack Straw",
            "They Love Each Other",
            "Cassidy",
            "Peggy-O-> El Paso",
            "Don't Ease Me In",
            "Beat It On Down The Line",
            "Deal"
          ],
          "set3": "",
          "comment": "*Second Encore",
          "lastupdate": "1996-01-07 00:00:00",
          "showyear": "1979",
          "showsuserid": "system"
        },
        "key_74": {
          "name": "Grateful Dead",
          "artist_key": "2",
          "shows_key": "1217",
          "showdate": "12/28/79",
          "venue": "Oakland Auditorium Arena",
          "city": "Oakland",
          "state": "CA",
          "set1": [
            "Sugaree",
            "Mama Tried-> Mexicali Blues",
            "Row Jimmy",
            "It's All Over Now",
            "High Time",
            "The Music Never Stopped"
          ],
          "set2": [
            "Sugaree",
            "Mama Tried-> Mexicali Blues",
            "Row Jimmy",
            "It's All Over Now",
            "High Time",
            "The Music Never Stopped"
          ],
          "set3": "",
          "comment": "*Second Encore",
          "lastupdate": "1996-01-07 00:00:00",
          "showyear": "1979",
          "showsuserid": "system"
        },
        "key_75": {
          "name": "Grateful Dead",
          "artist_key": "2",
          "shows_key": "1218",
          "showdate": "12/30/79",
          "venue": "Oakland Auditorium Arena",
          "city": "Oakland",
          "state": "CA",
          "set1": [
            "Minglewood Blues",
            "Candyman",
            "Me & My Uncle-> Big River",
            "Ramble On Rose",
            "Lazy Lightning-> Supplication-> Deal"
          ],
          "set2": [
            "Minglewood Blues",
            "Candyman",
            "Me & My Uncle-> Big River",
            "Ramble On Rose",
            "Lazy Lightning-> Supplication-> Deal"
          ],
          "set3": "",
          "comment": "*Second Encore",
          "lastupdate": "1996-01-07 00:00:00",
          "showyear": "1979",
          "showsuserid": "system"
        },
        "key_76": {
          "name": "Grateful Dead",
          "artist_key": "2",
          "shows_key": "1219",
          "showdate": "12/31/79",
          "venue": "Oakland Auditorium Arena",
          "city": "Oakland",
          "state": "CA",
          "set1": [
            "Jack Straw-> Franklin's Tower",
            "Mama Tried-> Mexicali Blues",
            "Tennessee Jed",
            "Looks Like Rain-> Alabama Getaway-> Promised Land"
          ],
          "set2": [
            "Jack Straw-> Franklin's Tower",
            "Mama Tried-> Mexicali Blues",
            "Tennessee Jed",
            "Looks Like Rain-> Alabama Getaway-> Promised Land"
          ],
          "set3": [
            "Jack Straw-> Franklin's Tower",
            "Mama Tried-> Mexicali Blues",
            "Tennessee Jed",
            "Looks Like Rain-> Alabama Getaway-> Promised Land"
          ],
          "comment": "*W John Cippolina Other artist(s): Richard Olson, Flying Karamozov Brothers",
          "lastupdate": "1996-01-07 00:00:00",
          "showyear": "1979",
          "showsuserid": "system"
        },
        "key_77": {
          "name": "Grateful Dead",
          "artist_key": "2",
          "shows_key": "48682",
          "showdate": "??/??/79",
          "venue": "studio (Go To Heaven Outtakes)",
          "city": "San Rafael?",
          "state": "CA",
          "set1": [
            "Lost Sailor\nSaint Of Circumstance\nFeel Like A Stranger"
          ],
          "set2": "",
          "set3": "",
          "comment": "Part of the KPFA Marathon broadcast on February 22, 2003",
          "lastupdate": "2009-03-19 22:24:24",
          "showyear": "1979",
          "showsuserid": "LossLessLegs"
        },
        "key_78": {
          "name": "Grateful Dead",
          "artist_key": "2",
          "shows_key": "501077",
          "showdate": "??/??/79",
          "venue": "Various",
          "city": "Various",
          "state": "Various",
          "set1": "",
          "set2": "",
          "set3": "",
          "comment": "",
          "lastupdate": "2010-11-04 14:10:27",
          "showyear": "1979",
          "showsuserid": "1346"
        }
      },
      "status": "success"
    }
  }
}