{
  "db_rest": {
    "@generator": "zend",
    "@version": "1.0",
    "fetchArtistYear": {
      "shows": {
        "key_0": {
          "name": "Grateful Dead",
          "artist_key": "2",
          "shows_key": "1786",
          "showdate": "02/13/88",
          "venue": "Henry J. Kaiser Convention Center",
          "city": "Oakland",
          "state": "CA",
          "set1": [
            "Hell In A Bucket-> Sugaree",
            "Minglewood Blues",
            "Friend Of The Devil",
            "Mama Tried-> Big River",
            "Loser"
          ],
          "set2": [
            "Hell In A Bucket-> Sugaree",
            "Minglewood Blues",
            "Friend Of The Devil",
            "Mama Tried-> Big River",
            "Loser"
          ],
          "set3": "",
          "comment": "*Without Jerry",
          "lastupdate": "2015-02-22 21:19:47",
          "showyear": "1988",
          "showsuserid": "BeLikeMike"
        },
        "key_1": {
          "name": "Grateful Dead",
          "artist_key": "2",
          "shows_key": "1787",
          "showdate": "02/14/88",
          "venue": "Henry J. Kaiser Convention Center",
          "city": "Oakland",
          "state": "CA",
          "set1": [
            "Touch Of Grey",
            "Feel Like A Stranger",
            "Franklin's Tower",
            "Walkin' Blues",
            "When Push Comes To Shove",
            "Cassidy"
          ],
          "set2": [
            "Touch Of Grey",
            "Feel Like A Stranger",
            "Franklin's Tower",
            "Walkin' Blues",
            "When Push Comes To Shove",
            "Cassidy"
          ],
          "set3": "",
          "comment": "Mardi Gras Parade During Iko. w/ Batucaje percussion begins second setDr. John Opened* featuring Chinese dragon parade Chinese Symphony Orchestra Opened *W/ Hamza El Din *W/ Hamza El Din",
          "lastupdate": "2015-02-22 21:19:13",
          "showyear": "1988",
          "showsuserid": "BeLikeMike"
        },
        "key_2": {
          "name": "Grateful Dead",
          "artist_key": "2",
          "shows_key": "2348",
          "showdate": "02/16/88",
          "venue": "Henry J. Kaiser Convention Center",
          "city": "Oakland",
          "state": "CA",
          "set1": [
            "Jack Straw-> West L.A. Fadeaway",
            "Me & My Uncle-> Mexicali Blues",
            "Row Jimmy",
            "When I Paint My Masterpiece",
            "Bird Song"
          ],
          "set2": [
            "Jack Straw-> West L.A. Fadeaway",
            "Me & My Uncle-> Mexicali Blues",
            "Row Jimmy",
            "When I Paint My Masterpiece",
            "Bird Song"
          ],
          "set3": "",
          "comment": "Mardis Gras",
          "lastupdate": "1996-01-07 00:00:00",
          "showyear": "1988",
          "showsuserid": "system"
        },
        "key_3": {
          "name": "Grateful Dead",
          "artist_key": "2",
          "shows_key": "135978",
          "showdate": "02/17/88",
          "venue": "Henry J. Kaiser Convention Center",
          "city": "Oakland",
          "state": "CA",
          "set1": [
            "Hey Pocky Way; Desolation Row; Tennessee Jed; Little Red Rooster; Cumberland Blues; It's All Over Now; Box Of Rain> Don't Ease Me In"
          ],
          "set2": [
            "Hey Pocky Way; Desolation Row; Tennessee Jed; Little Red Rooster; Cumberland Blues; It's All Over Now; Box Of Rain> Don't Ease Me In"
          ],
          "set3": "",
          "comment": "'We want Phil' before Box; Dragon dance during Drums",
          "lastupdate": "2003-02-03 01:52:30",
          "showyear": "1988",
          "showsuserid": "Junkie"
        },
        "key_4": {
          "name": "Grateful Dead",
          "artist_key": "2",
          "shows_key": "243378",
          "showdate": "03/12/88",
          "venue": "Civic Auditorium",
          "city": "San Francisco",
          "state": "CA",
          "set1": [
            "Good Morning Little School Girl &gt;\nTurn on Your Lovelight\nLong Tall Sally"
          ],
          "set2": "",
          "set3": "",
          "comment": "The 11th annual Bay Area Music Awards show, The Bammies.\r\n\r\nThe finale jam that featured the entire Grateful Dead, along with Huey Lewis and the News; Phil Lesh and Mario Cipollina on bass, Bob Weir (in tuxedo), Jerry Garcia (wearing a brown sport coat over his traditional black tee) and Chris Hayes on guitars, Billy Kreutzmann, Mickey Hart and Billy Gibson on drums, Johnny Colla on sax, Brent Mydland and Merl Saunders (who were seated at the same organ), and Sean Hopper on keyboards.",
          "lastupdate": "2010-12-30 15:23:14",
          "showyear": "1988",
          "showsuserid": "tomh1362"
        },
        "key_5": {
          "name": "Grateful Dead",
          "artist_key": "2",
          "shows_key": "1788",
          "showdate": "03/16/88",
          "venue": "Henry J. Kaiser Convention Center",
          "city": "Oakland",
          "state": "CA",
          "set1": [
            "Alabama Getaway-> Greatest Story Ever Told",
            "Stagger Lee",
            "Walkin' Blues",
            "Candyman",
            "Queen Jane Approximately",
            "Big Boss Man",
            "Cassidy",
            "Don't Ease Me In"
          ],
          "set2": [
            "Alabama Getaway-> Greatest Story Ever Told",
            "Stagger Lee",
            "Walkin' Blues",
            "Candyman",
            "Queen Jane Approximately",
            "Big Boss Man",
            "Cassidy",
            "Don't Ease Me In"
          ],
          "set3": "",
          "comment": "",
          "lastupdate": "2015-02-22 21:19:39",
          "showyear": "1988",
          "showsuserid": "BeLikeMike"
        },
        "key_6": {
          "name": "Grateful Dead",
          "artist_key": "2",
          "shows_key": "1789",
          "showdate": "03/17/88",
          "venue": "Henry J. Kaiser Convention Center",
          "city": "Oakland",
          "state": "CA",
          "set1": [
            "Hell In A Bucket-> Sugaree",
            "Minglewood Blues",
            "Ramble On Rose",
            "Memphis Blues",
            "Row Jimmy",
            "Let It Grow"
          ],
          "set2": [
            "Hell In A Bucket-> Sugaree",
            "Minglewood Blues",
            "Ramble On Rose",
            "Memphis Blues",
            "Row Jimmy",
            "Let It Grow"
          ],
          "set3": "",
          "comment": "*W/ Hamza El Din",
          "lastupdate": "2015-02-22 21:19:32",
          "showyear": "1988",
          "showsuserid": "BeLikeMike"
        },
        "key_7": {
          "name": "Grateful Dead",
          "artist_key": "2",
          "shows_key": "1790",
          "showdate": "03/18/88",
          "venue": "Henry J. Kaiser Convention Center",
          "city": "Oakland",
          "state": "CA",
          "set1": [
            "Iko Iko",
            "Little Red Rooster",
            "Brown Eyed Women",
            "When I Paint My Masterpiece",
            "Bird Song",
            "The Music Never Stopped"
          ],
          "set2": [
            "Iko Iko",
            "Little Red Rooster",
            "Brown Eyed Women",
            "When I Paint My Masterpiece",
            "Bird Song",
            "The Music Never Stopped"
          ],
          "set3": "",
          "comment": "",
          "lastupdate": "2015-02-22 21:19:23",
          "showyear": "1988",
          "showsuserid": "BeLikeMike"
        },
        "key_8": {
          "name": "Grateful Dead",
          "artist_key": "2",
          "shows_key": "93205",
          "showdate": "03/24/88",
          "venue": "The Omni",
          "city": "Atlanta",
          "state": "GA",
          "set1": [
            "Touch Of Grey",
            "Walkin' Blues",
            "Candyman",
            "Queen Jane Approximately",
            "Loser",
            "It's All Over Now",
            "Far From Me",
            "Cassidy > Don't Ease Me In"
          ],
          "set2": [
            "Touch Of Grey",
            "Walkin' Blues",
            "Candyman",
            "Queen Jane Approximately",
            "Loser",
            "It's All Over Now",
            "Far From Me",
            "Cassidy > Don't Ease Me In"
          ],
          "set3": "",
          "comment": "",
          "lastupdate": "2002-05-11 00:00:00",
          "showyear": "1988",
          "showsuserid": "diana"
        },
        "key_9": {
          "name": "Grateful Dead",
          "artist_key": "2",
          "shows_key": "1791",
          "showdate": "03/26/88",
          "venue": "Hampton Coliseum",
          "city": "Hampton",
          "state": "VA",
          "set1": [
            "Hell In A Bucket-> Sugaree",
            "Stir It Up",
            "Minglewood Blues",
            "Peggy-O",
            "Mexicali Blues-> Big River",
            "Row Jimmy",
            "Memphis Blues",
            "Might As Well"
          ],
          "set2": [
            "Hell In A Bucket-> Sugaree",
            "Stir It Up",
            "Minglewood Blues",
            "Peggy-O",
            "Mexicali Blues-> Big River",
            "Row Jimmy",
            "Memphis Blues",
            "Might As Well"
          ],
          "set3": "",
          "comment": "",
          "lastupdate": "1996-01-07 00:00:00",
          "showyear": "1988",
          "showsuserid": "system"
        },
        "key_10": {
          "name": "Grateful Dead",
          "artist_key": "2",
          "shows_key": "1792",
          "showdate": "03/27/88",
          "venue": "Hampton Coliseum",
          "city": "Hampton",
          "state": "VA",
          "set1": [
            "Iko Iko",
            "Little Red Rooster",
            "Stagger Lee",
            "Ballad Of A Thin Man",
            "Cumberland Blues-> Me & My Uncle",
            "To Lay Me Down",
            "Let It Grow"
          ],
          "set2": [
            "Iko Iko",
            "Little Red Rooster",
            "Stagger Lee",
            "Ballad Of A Thin Man",
            "Cumberland Blues-> Me & My Uncle",
            "To Lay Me Down",
            "Let It Grow"
          ],
          "set3": "",
          "comment": "\"We want Phil\" beginning of Set 2",
          "lastupdate": "2002-03-24 00:00:00",
          "showyear": "1988",
          "showsuserid": "hamilton"
        },
        "key_11": {
          "name": "Grateful Dead",
          "artist_key": "2",
          "shows_key": "1793",
          "showdate": "03/28/88",
          "venue": "Hampton Coliseum",
          "city": "Hampton",
          "state": "VA",
          "set1": [
            "Feel Like A Stranger-> Franklin's Tower",
            "Box Of Rain",
            "When Push Comes To Shove",
            "Walkin' Blues",
            "It Must Have Been The Roses",
            "When I Paint My Masterpiece",
            "Bird Song",
            "The Music Never Stopped"
          ],
          "set2": [
            "Feel Like A Stranger-> Franklin's Tower",
            "Box Of Rain",
            "When Push Comes To Shove",
            "Walkin' Blues",
            "It Must Have Been The Roses",
            "When I Paint My Masterpiece",
            "Bird Song",
            "The Music Never Stopped"
          ],
          "set3": "",
          "comment": "",
          "lastupdate": "1996-01-07 00:00:00",
          "showyear": "1988",
          "showsuserid": "greenone"
        },
        "key_12": {
          "name": "Grateful Dead",
          "artist_key": "2",
          "shows_key": "1794",
          "showdate": "03/30/88",
          "venue": "Meadowlands Arena",
          "city": "East Rutherford",
          "state": "NJ",
          "set1": [
            "Bertha-> Greatest Story Ever Told-> Hey Pocky Way",
            "West L.A. Fadeaway",
            "Queen Jane Approximately",
            "Big Railroad Blues",
            "Cassidy-> Don't Ease Me In"
          ],
          "set2": [
            "Bertha-> Greatest Story Ever Told-> Hey Pocky Way",
            "West L.A. Fadeaway",
            "Queen Jane Approximately",
            "Big Railroad Blues",
            "Cassidy-> Don't Ease Me In"
          ],
          "set3": "",
          "comment": "",
          "lastupdate": "1996-01-07 00:00:00",
          "showyear": "1988",
          "showsuserid": "system"
        },
        "key_13": {
          "name": "Grateful Dead",
          "artist_key": "2",
          "shows_key": "1795",
          "showdate": "03/31/88",
          "venue": "Meadowlands Arena",
          "city": "East Rutherford",
          "state": "NJ",
          "set1": [
            "Hell In A Bucket",
            "Sugaree",
            "Me & My Uncle-> Mexicali Blues",
            "Brown Eyed Women",
            "When I Paint My Masterpiece",
            "Ramble On Rose",
            "Let It Grow"
          ],
          "set2": [
            "Hell In A Bucket",
            "Sugaree",
            "Me & My Uncle-> Mexicali Blues",
            "Brown Eyed Women",
            "When I Paint My Masterpiece",
            "Ramble On Rose",
            "Let It Grow"
          ],
          "set3": "",
          "comment": "",
          "lastupdate": "2015-02-22 21:22:34",
          "showyear": "1988",
          "showsuserid": "BeLikeMike"
        },
        "key_14": {
          "name": "Grateful Dead",
          "artist_key": "2",
          "shows_key": "1796",
          "showdate": "04/01/88",
          "venue": "Meadowlands Arena",
          "city": "East Rutherford",
          "state": "NJ",
          "set1": [
            "Mississippi Half Step-> Jack Straw-> To Lay Me Down",
            "Ballad Of A Thin Man",
            "When Push Comes To Shove",
            "Minglewood Blues",
            "Cumberland Blues",
            "Deal"
          ],
          "set2": [
            "Mississippi Half Step-> Jack Straw-> To Lay Me Down",
            "Ballad Of A Thin Man",
            "When Push Comes To Shove",
            "Minglewood Blues",
            "Cumberland Blues",
            "Deal"
          ],
          "set3": "",
          "comment": "April fool Bobby Begining of first set: \"We'll see ya later!\"",
          "lastupdate": "1996-01-07 00:00:00",
          "showyear": "1988",
          "showsuserid": "system"
        },
        "key_15": {
          "name": "Grateful Dead",
          "artist_key": "2",
          "shows_key": "1797",
          "showdate": "04/03/88",
          "venue": "Hartford Civic Center",
          "city": "Hartford",
          "state": "CT",
          "set1": [
            "Promised Land-> Greatest Story Ever Told",
            "Althea",
            "Little Red Rooster",
            "Cold Rain & Snow",
            "Memphis Blues",
            "Box Of Rain",
            "Don't Ease Me In"
          ],
          "set2": [
            "Promised Land-> Greatest Story Ever Told",
            "Althea",
            "Little Red Rooster",
            "Cold Rain & Snow",
            "Memphis Blues",
            "Box Of Rain",
            "Don't Ease Me In"
          ],
          "set3": "",
          "comment": "",
          "lastupdate": "1996-01-07 00:00:00",
          "showyear": "1988",
          "showsuserid": "system"
        },
        "key_16": {
          "name": "Grateful Dead",
          "artist_key": "2",
          "shows_key": "1798",
          "showdate": "04/04/88",
          "venue": "Hartford Civic Center",
          "city": "Hartford",
          "state": "CT",
          "set1": [
            "Alabama Getaway-> Johnny B. Goode",
            "Good Time Blues",
            "They Love Each Other",
            "Queen Jane Approximately",
            "When Push Comes To Shove",
            "Cassidy",
            "Don't Ease Me In"
          ],
          "set2": [
            "Alabama Getaway-> Johnny B. Goode",
            "Good Time Blues",
            "They Love Each Other",
            "Queen Jane Approximately",
            "When Push Comes To Shove",
            "Cassidy",
            "Don't Ease Me In"
          ],
          "set3": "",
          "comment": "",
          "lastupdate": "1996-01-07 00:00:00",
          "showyear": "1988",
          "showsuserid": "system"
        },
        "key_17": {
          "name": "Grateful Dead",
          "artist_key": "2",
          "shows_key": "1799",
          "showdate": "04/05/88",
          "venue": "Hartford Civic Center",
          "city": "Hartford",
          "state": "CT",
          "set1": [
            "Hell In A Bucket-> Sugaree",
            "Walkin' Blues",
            "Dire Wolf",
            "It's All Over Now",
            "Bird Song",
            "When I Paint My Masterpiece",
            "Might As Well"
          ],
          "set2": [
            "Hell In A Bucket-> Sugaree",
            "Walkin' Blues",
            "Dire Wolf",
            "It's All Over Now",
            "Bird Song",
            "When I Paint My Masterpiece",
            "Might As Well"
          ],
          "set3": "",
          "comment": "",
          "lastupdate": "1996-01-07 00:00:00",
          "showyear": "1988",
          "showsuserid": "system"
        },
        "key_18": {
          "name": "Grateful Dead",
          "artist_key": "2",
          "shows_key": "1800",
          "showdate": "04/07/88",
          "venue": "The Centrum",
          "city": "Worcester",
          "state": "MA",
          "set1": [
            "Touch Of Gray",
            "Feel Like A Stranger",
            "Franklin's Tower",
            "Minglewood Blues",
            "Row Jimmy",
            "Memphis Blues",
            "Big Railroad Blues",
            "Around & Around"
          ],
          "set2": [
            "Touch Of Gray",
            "Feel Like A Stranger",
            "Franklin's Tower",
            "Minglewood Blues",
            "Row Jimmy",
            "Memphis Blues",
            "Big Railroad Blues",
            "Around & Around"
          ],
          "set3": "",
          "comment": "FM Broadcast WCUW",
          "lastupdate": "1996-01-07 00:00:00",
          "showyear": "1988",
          "showsuserid": "system"
        },
        "key_19": {
          "name": "Grateful Dead",
          "artist_key": "2",
          "shows_key": "1801",
          "showdate": "04/08/88",
          "venue": "The Centrum",
          "city": "Worcester",
          "state": "MA",
          "set1": [
            "Jack Straw",
            "West L.A. Fadeaway",
            "Little Red Rooster",
            "Stagger Lee",
            "Queen Jane"
          ],
          "set2": [
            "Jack Straw",
            "West L.A. Fadeaway",
            "Little Red Rooster",
            "Stagger Lee",
            "Queen Jane"
          ],
          "set3": "",
          "comment": "FM Broadcast WCUW",
          "lastupdate": "1996-01-07 00:00:00",
          "showyear": "1988",
          "showsuserid": "system"
        },
        "key_20": {
          "name": "Grateful Dead",
          "artist_key": "2",
          "shows_key": "1802",
          "showdate": "04/09/88",
          "venue": "The Centrum",
          "city": "Worcester",
          "state": "MA",
          "set1": [
            "Big Boss Man",
            "Walkin' Blues",
            "Far From Me",
            "Candyman",
            "Me & My Uncle-> Mexicali Blues",
            "Tennessee Jed",
            "When I Paint My Masterpiece",
            "Deal"
          ],
          "set2": [
            "Big Boss Man",
            "Walkin' Blues",
            "Far From Me",
            "Candyman",
            "Me & My Uncle-> Mexicali Blues",
            "Tennessee Jed",
            "When I Paint My Masterpiece",
            "Deal"
          ],
          "set3": "",
          "comment": "FM Broadcast WCUWThe Oscar show.*with Brent Other artist(s): singing* Sang Happy B'day Billy and Mickey joke",
          "lastupdate": "1996-01-07 00:00:00",
          "showyear": "1988",
          "showsuserid": "system"
        },
        "key_21": {
          "name": "Grateful Dead",
          "artist_key": "2",
          "shows_key": "2356",
          "showdate": "04/11/88",
          "venue": "Joe Louis Arena",
          "city": "Detroit",
          "state": "MI",
          "set1": [
            "Hell In A Bucket-> Sugaree",
            "Minglewood Blues",
            "It Must Have Been The Roses",
            "Memphis Blues",
            "To Lay Me Down-> The Music Never Stopped"
          ],
          "set2": [
            "Hell In A Bucket-> Sugaree",
            "Minglewood Blues",
            "It Must Have Been The Roses",
            "Memphis Blues",
            "To Lay Me Down-> The Music Never Stopped"
          ],
          "set3": "",
          "comment": "",
          "lastupdate": "1996-08-11 00:00:00",
          "showyear": "1988",
          "showsuserid": "diana"
        },
        "key_22": {
          "name": "Grateful Dead",
          "artist_key": "2",
          "shows_key": "2350",
          "showdate": "04/13/88",
          "venue": "Rosemont Horizon",
          "city": "Rosemont",
          "state": "IL",
          "set1": [
            "Mississippi Half Step-> Feel Like A Stranger-> Franklin's Tower",
            "Little Red Rooster-> When Push Comes To Shove",
            "Queen Jane Approximately",
            "Don't Ease Me In"
          ],
          "set2": [
            "Mississippi Half Step-> Feel Like A Stranger-> Franklin's Tower",
            "Little Red Rooster-> When Push Comes To Shove",
            "Queen Jane Approximately",
            "Don't Ease Me In"
          ],
          "set3": "",
          "comment": "",
          "lastupdate": "1996-01-07 00:00:00",
          "showyear": "1988",
          "showsuserid": "system"
        },
        "key_23": {
          "name": "Grateful Dead",
          "artist_key": "2",
          "shows_key": "1803",
          "showdate": "04/14/88",
          "venue": "Rosemont Horizon",
          "city": "Rosemont",
          "state": "IL",
          "set1": [
            "Jack Straw",
            "West L.A. Fadeaway",
            "Mama Tried-> Big River",
            "Althea",
            "When I Paint My Masterpiece",
            "Bird Song",
            "Promised Land"
          ],
          "set2": [
            "Jack Straw",
            "West L.A. Fadeaway",
            "Mama Tried-> Big River",
            "Althea",
            "When I Paint My Masterpiece",
            "Bird Song",
            "Promised Land"
          ],
          "set3": "",
          "comment": "",
          "lastupdate": "1996-01-07 00:00:00",
          "showyear": "1988",
          "showsuserid": "system"
        },
        "key_24": {
          "name": "Grateful Dead",
          "artist_key": "2",
          "shows_key": "1804",
          "showdate": "04/15/88",
          "venue": "Rosemont Horizon",
          "city": "Rosemont",
          "state": "IL",
          "set1": [
            "Scarlet Begonias-> Fire On The Mountain",
            "Scarlet Begonias",
            "Walkin' Blues",
            "Candyman",
            "Louie Louie-> Cumberland Blues",
            "Memphis Blues-> Deal"
          ],
          "set2": [
            "Scarlet Begonias-> Fire On The Mountain",
            "Scarlet Begonias",
            "Walkin' Blues",
            "Candyman",
            "Louie Louie-> Cumberland Blues",
            "Memphis Blues-> Deal"
          ],
          "set3": "",
          "comment": "Drummers birthday Joke Before Heaven's Door",
          "lastupdate": "1996-01-07 00:00:00",
          "showyear": "1988",
          "showsuserid": "system"
        },
        "key_25": {
          "name": "Grateful Dead",
          "artist_key": "2",
          "shows_key": "2349",
          "showdate": "04/22/88",
          "venue": "Irvine Meadows",
          "city": "Irvine",
          "state": "CA",
          "set1": [
            "Mississippi Half Step-> Feel Like A Stranger-> Franklin's Tower",
            "Minglewood Blues",
            "Candyman",
            "Queen Jane Approximately",
            "When Push Comes To Shove",
            "Let It Grow"
          ],
          "set2": [
            "Mississippi Half Step-> Feel Like A Stranger-> Franklin's Tower",
            "Minglewood Blues",
            "Candyman",
            "Queen Jane Approximately",
            "When Push Comes To Shove",
            "Let It Grow"
          ],
          "set3": "",
          "comment": "",
          "lastupdate": "1996-01-07 00:00:00",
          "showyear": "1988",
          "showsuserid": "system"
        },
        "key_26": {
          "name": "Grateful Dead",
          "artist_key": "2",
          "shows_key": "1805",
          "showdate": "04/23/88",
          "venue": "Irvine Meadows",
          "city": "Irvine",
          "state": "CA",
          "set1": [
            "Hell In A Bucket",
            "Cold Rain & Snow",
            "Beer Barrel Polka",
            "Hey Pocky Way",
            "West L.A. Fadeaway",
            "Me & My Uncle-> Big River",
            "To Lay Me Down",
            "Cassidy",
            "Don't Ease Me In"
          ],
          "set2": [
            "Hell In A Bucket",
            "Cold Rain & Snow",
            "Beer Barrel Polka",
            "Hey Pocky Way",
            "West L.A. Fadeaway",
            "Me & My Uncle-> Big River",
            "To Lay Me Down",
            "Cassidy",
            "Don't Ease Me In"
          ],
          "set3": "",
          "comment": "",
          "lastupdate": "1996-01-07 00:00:00",
          "showyear": "1988",
          "showsuserid": "system"
        },
        "key_27": {
          "name": "Grateful Dead",
          "artist_key": "2",
          "shows_key": "1806",
          "showdate": "04/24/88",
          "venue": "Irvine Meadows",
          "city": "Irvine",
          "state": "CA",
          "set1": [
            "Touch Of Grey",
            "Little Red Rooster",
            "Row Jimmy",
            "Far From Me",
            "When I Paint My Masterpiece",
            "Bird Song",
            "Promised Land"
          ],
          "set2": [
            "Touch Of Grey",
            "Little Red Rooster",
            "Row Jimmy",
            "Far From Me",
            "When I Paint My Masterpiece",
            "Bird Song",
            "Promised Land"
          ],
          "set3": "",
          "comment": "*Brief speach by Jerry between Masterpiece and Birdsong",
          "lastupdate": "2004-09-03 00:00:00",
          "showyear": "1988",
          "showsuserid": "system"
        },
        "key_28": {
          "name": "Grateful Dead",
          "artist_key": "2",
          "shows_key": "1808",
          "showdate": "04/30/88",
          "venue": "Frost Amphitheatre",
          "city": "Palo Alto",
          "state": "CA",
          "set1": [
            "Let The Good Times Roll-> Feel Like A Stranger",
            "Row Jimmy",
            "Walkin' Blues",
            "Hey Pocky Way",
            "Ramble On Rose",
            "Let It Grow"
          ],
          "set2": [
            "Let The Good Times Roll-> Feel Like A Stranger",
            "Row Jimmy",
            "Walkin' Blues",
            "Hey Pocky Way",
            "Ramble On Rose",
            "Let It Grow"
          ],
          "set3": "",
          "comment": "FM Broadcast KZSU",
          "lastupdate": "1996-01-07 00:00:00",
          "showyear": "1988",
          "showsuserid": "system"
        },
        "key_29": {
          "name": "Grateful Dead",
          "artist_key": "2",
          "shows_key": "1809",
          "showdate": "05/01/88",
          "venue": "Frost Amphitheatre",
          "city": "Palo Alto",
          "state": "CA",
          "set1": [
            "Box Of Rain",
            "Hell In A Bucket-> Touch Of Gray",
            "Little Red Rooster",
            "Far From Me",
            "Cumberland Blues",
            "Memphis Blues",
            "When Push Comes To Shove",
            "Cassidy"
          ],
          "set2": [
            "Box Of Rain",
            "Hell In A Bucket-> Touch Of Gray",
            "Little Red Rooster",
            "Far From Me",
            "Cumberland Blues",
            "Memphis Blues",
            "When Push Comes To Shove",
            "Cassidy"
          ],
          "set3": "",
          "comment": "FM Broadcast KZSU",
          "lastupdate": "1996-01-07 00:00:00",
          "showyear": "1988",
          "showsuserid": "system"
        },
        "key_30": {
          "name": "Grateful Dead",
          "artist_key": "2",
          "shows_key": "183575",
          "showdate": "06/01/88",
          "venue": "The Inn by the Sea Tape",
          "city": "Unknown",
          "state": "Unknown",
          "set1": [
            "Instrumental\r\nVictim Or The Crime\r\nBlow Away\r\nBelieve It Or Not\r\nGentlemen",
            "Start Your Engines\r\nBuilt To Last\r\nI Will Take You Home\r\nVictim or The Crime\r\nInstrumental 2\r\nInstrumental 3"
          ],
          "set2": "",
          "set3": "",
          "comment": "'The Inn By The Sea' tape; This tape was left in a room occupied\r\nby The Grateful Dead at \"The Inn By The Sea,\" in\r\nCape Elizabeth, Maine when they were doing the July 2 and 3, 1988 shows at Oxford Plains, Maine; Recorded at Club Front?",
          "lastupdate": "2014-11-11 07:33:51",
          "showyear": "1988",
          "showsuserid": "system"
        },
        "key_31": {
          "name": "Grateful Dead",
          "artist_key": "2",
          "shows_key": "1810",
          "showdate": "06/17/88",
          "venue": "Metropolitan Sports Center",
          "city": "Bloomington",
          "state": "MN",
          "set1": [
            "Hell In A Bucket-> Sugaree",
            "Minglewood Blues",
            "Row Jimmy",
            "Far From Me",
            "When I Paint My Masterpiece",
            "Althea",
            "Victim Or The Crime"
          ],
          "set2": [
            "Hell In A Bucket-> Sugaree",
            "Minglewood Blues",
            "Row Jimmy",
            "Far From Me",
            "When I Paint My Masterpiece",
            "Althea",
            "Victim Or The Crime"
          ],
          "set3": "",
          "comment": "",
          "lastupdate": "1996-01-07 00:00:00",
          "showyear": "1988",
          "showsuserid": "system"
        },
        "key_32": {
          "name": "Grateful Dead",
          "artist_key": "2",
          "shows_key": "1811",
          "showdate": "06/19/88",
          "venue": "Alpine Valley Music Theatre",
          "city": "East Troy",
          "state": "WI",
          "set1": [
            "Mississippi Half Step",
            "Feel Like A Stranger",
            "Good Time Blues",
            "Ramble On Rose",
            "Little Red Rooster",
            "Bird Song",
            "Promised Land"
          ],
          "set2": [
            "Mississippi Half Step",
            "Feel Like A Stranger",
            "Good Time Blues",
            "Ramble On Rose",
            "Little Red Rooster",
            "Bird Song",
            "Promised Land"
          ],
          "set3": "",
          "comment": "*Kreutzmann gave a pep talk to the crowd before the show - be cool,",
          "lastupdate": "1996-01-07 00:00:00",
          "showyear": "1988",
          "showsuserid": "system"
        },
        "key_33": {
          "name": "Grateful Dead",
          "artist_key": "2",
          "shows_key": "1812",
          "showdate": "06/20/88",
          "venue": "Alpine Valley Music Theatre",
          "city": "East Troy",
          "state": "WI",
          "set1": [
            "Jack Straw",
            "Box Of Rain",
            "West L.A. Fadeaway",
            "Memphis Blues",
            "Loser",
            "Cassidy",
            "Don't Ease Me In"
          ],
          "set2": [
            "Jack Straw",
            "Box Of Rain",
            "West L.A. Fadeaway",
            "Memphis Blues",
            "Loser",
            "Cassidy",
            "Don't Ease Me In"
          ],
          "set3": "",
          "comment": "*Only first verse\r\n$First Live: Blow Away",
          "lastupdate": "1996-01-07 00:00:00",
          "showyear": "1988",
          "showsuserid": "diana"
        },
        "key_34": {
          "name": "Grateful Dead",
          "artist_key": "2",
          "shows_key": "1813",
          "showdate": "06/22/88",
          "venue": "Alpine Valley Music Theatre",
          "city": "East Troy",
          "state": "WI",
          "set1": [
            "Let The Good Times Roll",
            "Hell In A Bucket",
            "Candyman",
            "Walkin' Blues",
            "When Push Comes To Shove",
            "Queen Jane Approximately",
            "Tennessee Jed",
            "Let It Grow"
          ],
          "set2": [
            "Let The Good Times Roll",
            "Hell In A Bucket",
            "Candyman",
            "Walkin' Blues",
            "When Push Comes To Shove",
            "Queen Jane Approximately",
            "Tennessee Jed",
            "Let It Grow"
          ],
          "set3": "",
          "comment": "",
          "lastupdate": "1996-01-07 00:00:00",
          "showyear": "1988",
          "showsuserid": "system"
        },
        "key_35": {
          "name": "Grateful Dead",
          "artist_key": "2",
          "shows_key": "1814",
          "showdate": "06/23/88",
          "venue": "Alpine Valley Music Theatre",
          "city": "East Troy",
          "state": "WI",
          "set1": [
            "Iko Iko",
            "Minglewood Blues",
            "It Must Have Been The Roses",
            "Me & My Uncle-> Mexicali Blues",
            "Stagger Lee",
            "When I Paint My Masterpiece",
            "Bird Song",
            "Promised Land"
          ],
          "set2": [
            "Iko Iko",
            "Minglewood Blues",
            "It Must Have Been The Roses",
            "Me & My Uncle-> Mexicali Blues",
            "Stagger Lee",
            "When I Paint My Masterpiece",
            "Bird Song",
            "Promised Land"
          ],
          "set3": "",
          "comment": "First GD Performance Of \"Blackbird\"",
          "lastupdate": "1996-01-07 00:00:00",
          "showyear": "1988",
          "showsuserid": "hamilton"
        },
        "key_36": {
          "name": "Grateful Dead",
          "artist_key": "2",
          "shows_key": "1815",
          "showdate": "06/25/88",
          "venue": "Buckeye Lake Music Center",
          "city": "Hebron",
          "state": "OH",
          "set1": [
            "Feel Like A Stranger-> Franklin's Tower",
            "Box Of Rain",
            "Sugaree*",
            "Memphis Blues*",
            "West L.A. Fadeaway",
            "Cassidy",
            "Deal"
          ],
          "set2": [
            "Feel Like A Stranger-> Franklin's Tower",
            "Box Of Rain",
            "Sugaree*",
            "Memphis Blues*",
            "West L.A. Fadeaway",
            "Cassidy",
            "Deal"
          ],
          "set3": "",
          "comment": "*w/ Hornsby on accordian. Bruce Hornsby and the Range opened.",
          "lastupdate": "1996-01-07 00:00:00",
          "showyear": "1988",
          "showsuserid": "system"
        },
        "key_37": {
          "name": "Grateful Dead",
          "artist_key": "2",
          "shows_key": "1816",
          "showdate": "06/26/88",
          "venue": "Civic Arena",
          "city": "Pittsburgh",
          "state": "PA",
          "set1": [
            "Mississippi Half Step",
            "Little Red Rooster",
            "When Push Comes To Shove",
            "Mama Tried-> Big River",
            "Cumberland Blues",
            "Gentlemen Start Your Engines",
            "Big Railroad Blues",
            "The Music Never Stopped"
          ],
          "set2": [
            "Mississippi Half Step",
            "Little Red Rooster",
            "When Push Comes To Shove",
            "Mama Tried-> Big River",
            "Cumberland Blues",
            "Gentlemen Start Your Engines",
            "Big Railroad Blues",
            "The Music Never Stopped"
          ],
          "set3": "",
          "comment": "",
          "lastupdate": "1996-01-07 00:00:00",
          "showyear": "1988",
          "showsuserid": "system"
        },
        "key_38": {
          "name": "Grateful Dead",
          "artist_key": "2",
          "shows_key": "2145",
          "showdate": "06/28/88",
          "venue": "Saratoga Performing Arts Center",
          "city": "Saratoga Springs",
          "state": "NY",
          "set1": [
            "Hell In A Bucket-> Bertha",
            "Walkin Blues",
            "Candyman",
            "When I Paint My Masterpiece",
            "Row Jimmy",
            "Victim Or The Crime",
            "Foolish Heart"
          ],
          "set2": [
            "Hell In A Bucket-> Bertha",
            "Walkin Blues",
            "Candyman",
            "When I Paint My Masterpiece",
            "Row Jimmy",
            "Victim Or The Crime",
            "Foolish Heart"
          ],
          "set3": "",
          "comment": "",
          "lastupdate": "2001-05-07 00:00:00",
          "showyear": "1988",
          "showsuserid": "hamilton"
        },
        "key_39": {
          "name": "Grateful Dead",
          "artist_key": "2",
          "shows_key": "2146",
          "showdate": "06/30/88",
          "venue": "Silver Stadium",
          "city": "Rochester",
          "state": "NY",
          "set1": [
            "Box Of Rain-> Cold Rain & Snow",
            "Minglewood Blues",
            "Ramble On Rose",
            "Me & My Me & My Uncle-> Mexicali Blues",
            "Far From Me",
            "Queen Jane Approximately-> Don't Ease Me In"
          ],
          "set2": [
            "Box Of Rain-> Cold Rain & Snow",
            "Minglewood Blues",
            "Ramble On Rose",
            "Me & My Me & My Uncle-> Mexicali Blues",
            "Far From Me",
            "Queen Jane Approximately-> Don't Ease Me In"
          ],
          "set3": "",
          "comment": "only Green Onions",
          "lastupdate": "2003-01-05 00:00:00",
          "showyear": "1988",
          "showsuserid": "mvernon"
        },
        "key_40": {
          "name": "Grateful Dead",
          "artist_key": "2",
          "shows_key": "2147",
          "showdate": "07/02/88",
          "venue": "Oxford Plains Speedway",
          "city": "Oxford",
          "state": "ME",
          "set1": [
            "Iko Iko -> Jack Straw",
            "West L.A. Fadeaway",
            "Memphis Blues",
            "Row Jimmy",
            "Blow Away",
            "Victim Or The Crime",
            "Foolish Heart"
          ],
          "set2": [
            "Iko Iko -> Jack Straw",
            "West L.A. Fadeaway",
            "Memphis Blues",
            "Row Jimmy",
            "Blow Away",
            "Victim Or The Crime",
            "Foolish Heart"
          ],
          "set3": "",
          "comment": "",
          "lastupdate": "1996-01-07 00:00:00",
          "showyear": "1988",
          "showsuserid": "system"
        },
        "key_41": {
          "name": "Grateful Dead",
          "artist_key": "2",
          "shows_key": "2148",
          "showdate": "07/03/88",
          "venue": "Oxford Plains Speedway",
          "city": "Oxford",
          "state": "ME",
          "set1": [
            "Hell In A Bucket-> Sugaree",
            "Walkin Blues",
            "Tennessee Jed",
            "Queen Jane Approximately",
            "Bird Song"
          ],
          "set2": [
            "Hell In A Bucket-> Sugaree",
            "Walkin Blues",
            "Tennessee Jed",
            "Queen Jane Approximately",
            "Bird Song"
          ],
          "set3": "",
          "comment": "",
          "lastupdate": "1996-01-07 00:00:00",
          "showyear": "1988",
          "showsuserid": "system"
        },
        "key_42": {
          "name": "Grateful Dead",
          "artist_key": "2",
          "shows_key": "1817",
          "showdate": "07/15/88",
          "venue": "Greek Theatre, U. Of California",
          "city": "Berkeley",
          "state": "CA",
          "set1": [
            "Shakedown Street",
            "Walkin' Blues",
            "Friend Of The Devil",
            "Queen Jane Approximately",
            "Dire Wolf",
            "Good Time Blues",
            "Turn On Your Love Light",
            "Cassidy",
            "Bertha"
          ],
          "set2": [
            "Shakedown Street",
            "Walkin' Blues",
            "Friend Of The Devil",
            "Queen Jane Approximately",
            "Dire Wolf",
            "Good Time Blues",
            "Turn On Your Love Light",
            "Cassidy",
            "Bertha"
          ],
          "set3": "",
          "comment": "Rex Benefit, FM Broadcast KPFA Berkeley",
          "lastupdate": "1996-01-07 00:00:00",
          "showyear": "1988",
          "showsuserid": "system"
        },
        "key_43": {
          "name": "Grateful Dead",
          "artist_key": "2",
          "shows_key": "1818",
          "showdate": "07/16/88",
          "venue": "Greek Theatre, U. Of California",
          "city": "Berkeley",
          "state": "CA",
          "set1": [
            "The Music Never Stopped",
            "Sugaree",
            "Little Red Rooster",
            "Loser",
            "Memphis Blues",
            "Far From Me",
            "Bird Song"
          ],
          "set2": [
            "The Music Never Stopped",
            "Sugaree",
            "Little Red Rooster",
            "Loser",
            "Memphis Blues",
            "Far From Me",
            "Bird Song"
          ],
          "set3": "",
          "comment": "* W/ Baba O;atunji. Rex Benefit, FM Broadcast KPFA Berkeley  Alexander Gradsky Played between sets.",
          "lastupdate": "1996-01-07 00:00:00",
          "showyear": "1988",
          "showsuserid": "system"
        },
        "key_44": {
          "name": "Grateful Dead",
          "artist_key": "2",
          "shows_key": "1819",
          "showdate": "07/17/88",
          "venue": "Greek Theatre, U. Of California",
          "city": "Berkeley",
          "state": "CA",
          "set1": [
            "Foolish Heart",
            "Greatest Story Ever Told",
            "Althea",
            "Me & My Uncle",
            "Big River",
            "Candyman",
            "Let It Grow"
          ],
          "set2": [
            "Foolish Heart",
            "Greatest Story Ever Told",
            "Althea",
            "Me & My Uncle",
            "Big River",
            "Candyman",
            "Let It Grow"
          ],
          "set3": "",
          "comment": "",
          "lastupdate": "1996-01-07 00:00:00",
          "showyear": "1988",
          "showsuserid": "system"
        },
        "key_45": {
          "name": "Grateful Dead",
          "artist_key": "2",
          "shows_key": "2253",
          "showdate": "07/29/88",
          "venue": "Laguna Seca Recreation Area",
          "city": "Monterey",
          "state": "CA",
          "set1": [
            "Iko Iko",
            "Walkin' Blues",
            "Candyman",
            "Queen Jane Approximately",
            "Althea",
            "Blow Away",
            "Cassidy-> Deal"
          ],
          "set2": [
            "Iko Iko",
            "Walkin' Blues",
            "Candyman",
            "Queen Jane Approximately",
            "Althea",
            "Blow Away",
            "Cassidy-> Deal"
          ],
          "set3": "",
          "comment": "Other Artist(s): David Lindley and El Rayo-X and Los Lobos openned",
          "lastupdate": "1996-01-07 00:00:00",
          "showyear": "1988",
          "showsuserid": "system"
        },
        "key_46": {
          "name": "Grateful Dead",
          "artist_key": "2",
          "shows_key": "2254",
          "showdate": "07/30/88",
          "venue": "Laguna Seca Recreation Area",
          "city": "Monterey",
          "state": "CA",
          "set1": [
            "Let The Good Times Roll-> Feel Like A Stranger",
            "Loser",
            "Minglewood Blues",
            "Row Jimmy",
            "Memphis Blues",
            "When Push Comes To Shove-> The Music Never Stopped-> Don't Ease Me In"
          ],
          "set2": [
            "Let The Good Times Roll-> Feel Like A Stranger",
            "Loser",
            "Minglewood Blues",
            "Row Jimmy",
            "Memphis Blues",
            "When Push Comes To Shove-> The Music Never Stopped-> Don't Ease Me In"
          ],
          "set3": "",
          "comment": "Other artist(s): David Lindley and El Rayo-X and Los Lobos openned.",
          "lastupdate": "1996-01-07 00:00:00",
          "showyear": "1988",
          "showsuserid": "system"
        },
        "key_47": {
          "name": "Grateful Dead",
          "artist_key": "2",
          "shows_key": "2255",
          "showdate": "07/31/88",
          "venue": "Laguna Seca Recreation Area",
          "city": "Monterey",
          "state": "CA",
          "set1": [
            "Mississippi Half Step",
            "Little Red Rooster*",
            "West L.A. Fadeaway*",
            "Me & My Uncle-> Big River",
            "Ramble On Rose",
            "Gentlemen Start Your Engines",
            "When I Paint My Masterpiece",
            "Bird Song"
          ],
          "set2": [
            "Mississippi Half Step",
            "Little Red Rooster*",
            "West L.A. Fadeaway*",
            "Me & My Uncle-> Big River",
            "Ramble On Rose",
            "Gentlemen Start Your Engines",
            "When I Paint My Masterpiece",
            "Bird Song"
          ],
          "set3": "",
          "comment": "Last \"Gentlemen Start Your Engines\"\n\nOther Artist(s): David Lindley and El Rayo-X and Los Lobos openned. * w/ David Hidalgo.",
          "lastupdate": "2012-04-21 16:06:39",
          "showyear": "1988",
          "showsuserid": "sailorsaint420"
        },
        "key_48": {
          "name": "Grateful Dead",
          "artist_key": "2",
          "shows_key": "2256",
          "showdate": "08/26/88",
          "venue": "Tacoma Dome",
          "city": "Tacoma",
          "state": "WA",
          "set1": [
            "Hell In A Bucket",
            "Sugaree",
            "Good Time Blues",
            "Iko Iko",
            "Walkin' Blues",
            "When Push Comes To Shove",
            "When I Paint My Masterpiece",
            "Row Jimmy",
            "The Music Never Stopped"
          ],
          "set2": [
            "Hell In A Bucket",
            "Sugaree",
            "Good Time Blues",
            "Iko Iko",
            "Walkin' Blues",
            "When Push Comes To Shove",
            "When I Paint My Masterpiece",
            "Row Jimmy",
            "The Music Never Stopped"
          ],
          "set3": "",
          "comment": "Santana opened.",
          "lastupdate": "2002-03-04 00:00:00",
          "showyear": "1988",
          "showsuserid": "hamilton"
        },
        "key_49": {
          "name": "Grateful Dead",
          "artist_key": "2",
          "shows_key": "2257",
          "showdate": "08/28/88",
          "venue": "Autzen Stadium, U. of Oregon",
          "city": "Eugene",
          "state": "OR",
          "set1": [
            "Mississippi Half Step",
            "Little Red Rooster",
            "Friend Of The Devil",
            "Memphis Blues",
            "Foolish Heart",
            "Victim Or The Crime",
            "Don't Ease Me In"
          ],
          "set2": [
            "Mississippi Half Step",
            "Little Red Rooster",
            "Friend Of The Devil",
            "Memphis Blues",
            "Foolish Heart",
            "Victim Or The Crime",
            "Don't Ease Me In"
          ],
          "set3": "",
          "comment": "Other artist(s): Jimmy Cliff and Robert Cray openned.",
          "lastupdate": "1996-01-07 00:00:00",
          "showyear": "1988",
          "showsuserid": "system"
        },
        "key_50": {
          "name": "Grateful Dead",
          "artist_key": "2",
          "shows_key": "2258",
          "showdate": "09/02/88",
          "venue": "Capital Centre",
          "city": "Landover",
          "state": "MD",
          "set1": [
            "Hell In A Bucket",
            "They Love Each Other",
            "Minglewood Blues",
            "Dire Wolf",
            "Queen Jane Approximately",
            "Althea",
            "Let It Grow"
          ],
          "set2": [
            "Hell In A Bucket",
            "They Love Each Other",
            "Minglewood Blues",
            "Dire Wolf",
            "Queen Jane Approximately",
            "Althea",
            "Let It Grow"
          ],
          "set3": "",
          "comment": "",
          "lastupdate": "2002-03-27 00:00:00",
          "showyear": "1988",
          "showsuserid": "system"
        },
        "key_51": {
          "name": "Grateful Dead",
          "artist_key": "2",
          "shows_key": "2259",
          "showdate": "09/03/88",
          "venue": "Capital Centre",
          "city": "Landover",
          "state": "MD",
          "set1": [
            "Let The Good Times Roll",
            "Feel Like A Stranger-> Franklin's Tower-> Little Red Rooster-> Peggy-O",
            "Me & My Uncle-> Big River",
            "Bird Song"
          ],
          "set2": [
            "Let The Good Times Roll",
            "Feel Like A Stranger-> Franklin's Tower-> Little Red Rooster-> Peggy-O",
            "Me & My Uncle-> Big River",
            "Bird Song"
          ],
          "set3": "",
          "comment": "",
          "lastupdate": "2002-03-27 00:00:00",
          "showyear": "1988",
          "showsuserid": "system"
        },
        "key_52": {
          "name": "Grateful Dead",
          "artist_key": "2",
          "shows_key": "2260",
          "showdate": "09/05/88",
          "venue": "Capital Centre",
          "city": "Landover",
          "state": "MD",
          "set1": [
            "Iko Iko",
            "Walkin' Blues",
            "Ramble On Rose",
            "Mama Tried-> Mexicali Blues",
            "Row Jimmy",
            "Memphis Blues",
            "When Push Comes To Shove",
            "The Music Never Stopped"
          ],
          "set2": [
            "Iko Iko",
            "Walkin' Blues",
            "Ramble On Rose",
            "Mama Tried-> Mexicali Blues",
            "Row Jimmy",
            "Memphis Blues",
            "When Push Comes To Shove",
            "The Music Never Stopped"
          ],
          "set3": "",
          "comment": "",
          "lastupdate": "2002-03-27 00:00:00",
          "showyear": "1988",
          "showsuserid": "system"
        },
        "key_53": {
          "name": "Grateful Dead",
          "artist_key": "2",
          "shows_key": "2261",
          "showdate": "09/06/88",
          "venue": "Capital Centre",
          "city": "Landover",
          "state": "MD",
          "set1": [
            "Jack Straw",
            "Desolation Row",
            "West L.A. Fadeaway",
            "Beat It On Down The Line",
            "Cumberland Blues",
            "Stagger Lee",
            "Cassidy",
            "Deal"
          ],
          "set2": [
            "Jack Straw",
            "Desolation Row",
            "West L.A. Fadeaway",
            "Beat It On Down The Line",
            "Cumberland Blues",
            "Stagger Lee",
            "Cassidy",
            "Deal"
          ],
          "set3": "",
          "comment": "",
          "lastupdate": "2002-03-27 00:00:00",
          "showyear": "1988",
          "showsuserid": "system"
        },
        "key_54": {
          "name": "Grateful Dead",
          "artist_key": "2",
          "shows_key": "2262",
          "showdate": "09/08/88",
          "venue": "The Spectrum",
          "city": "Philadelphia",
          "state": "PA",
          "set1": [
            "Let The Good Times Roll-> Shakedown Street",
            "Walkin' Blues",
            "To Lay Me Down",
            "Loser",
            "It's All Over Now",
            "Let It Grow"
          ],
          "set2": [
            "Let The Good Times Roll-> Shakedown Street",
            "Walkin' Blues",
            "To Lay Me Down",
            "Loser",
            "It's All Over Now",
            "Let It Grow"
          ],
          "set3": "",
          "comment": "",
          "lastupdate": "1996-01-07 00:00:00",
          "showyear": "1988",
          "showsuserid": "system"
        },
        "key_55": {
          "name": "Grateful Dead",
          "artist_key": "2",
          "shows_key": "2263",
          "showdate": "09/09/88",
          "venue": "The Spectrum",
          "city": "Philadelphia",
          "state": "PA",
          "set1": [
            "Hell In A Bucket-> Sugaree",
            "Minglewood Blues",
            "Brown Eyed Women",
            "Me & My Uncle-> Big River",
            "Candyman",
            "Queen Jane Approximately",
            "Don't Ease Me In"
          ],
          "set2": [
            "Hell In A Bucket-> Sugaree",
            "Minglewood Blues",
            "Brown Eyed Women",
            "Me & My Uncle-> Big River",
            "Candyman",
            "Queen Jane Approximately",
            "Don't Ease Me In"
          ],
          "set3": "",
          "comment": "",
          "lastupdate": "1996-01-07 00:00:00",
          "showyear": "1988",
          "showsuserid": "system"
        },
        "key_56": {
          "name": "Grateful Dead",
          "artist_key": "2",
          "shows_key": "2264",
          "showdate": "09/11/88",
          "venue": "The Spectrum",
          "city": "Philadelphia",
          "state": "PA",
          "set1": [
            "Iko Iko",
            "Feel Like A Stranger-> Franklin's Tower",
            "Little Red Rooster",
            "Peggy-O",
            "Memphis Blues",
            "Tennessee Jed",
            "Promised Land"
          ],
          "set2": [
            "Iko Iko",
            "Feel Like A Stranger-> Franklin's Tower",
            "Little Red Rooster",
            "Peggy-O",
            "Memphis Blues",
            "Tennessee Jed",
            "Promised Land"
          ],
          "set3": "",
          "comment": "",
          "lastupdate": "1996-01-07 00:00:00",
          "showyear": "1988",
          "showsuserid": "system"
        },
        "key_57": {
          "name": "Grateful Dead",
          "artist_key": "2",
          "shows_key": "2265",
          "showdate": "09/12/88",
          "venue": "The Spectrum",
          "city": "Philadelphia",
          "state": "PA",
          "set1": [
            "Jack Straw",
            "Althea",
            "Good Times",
            "Dire Wolf",
            "Cassidy",
            "Dupree's Diamond Blues",
            "When I Paint My Masterpiece",
            "When Push Comes To Shove",
            "The Music Never Stopped"
          ],
          "set2": [
            "Jack Straw",
            "Althea",
            "Good Times",
            "Dire Wolf",
            "Cassidy",
            "Dupree's Diamond Blues",
            "When I Paint My Masterpiece",
            "When Push Comes To Shove",
            "The Music Never Stopped"
          ],
          "set3": "",
          "comment": "",
          "lastupdate": "2001-11-26 00:00:00",
          "showyear": "1988",
          "showsuserid": "hamilton"
        },
        "key_58": {
          "name": "Grateful Dead",
          "artist_key": "2",
          "shows_key": "2266",
          "showdate": "09/14/88",
          "venue": "Madison Square Garden",
          "city": "New York",
          "state": "NY",
          "set1": [
            "Let The Good Times Roll",
            "Alabama Getaway-> Greatest Story Ever Told",
            "Stagger Lee",
            "Walkin' Blues",
            "It Must Have Been The Roses",
            "Queen Jane Approximately",
            "Ramble On Rose",
            "Let It Grow"
          ],
          "set2": [
            "Let The Good Times Roll",
            "Alabama Getaway-> Greatest Story Ever Told",
            "Stagger Lee",
            "Walkin' Blues",
            "It Must Have Been The Roses",
            "Queen Jane Approximately",
            "Ramble On Rose",
            "Let It Grow"
          ],
          "set3": "",
          "comment": "",
          "lastupdate": "2004-09-06 00:00:00",
          "showyear": "1988",
          "showsuserid": "system"
        },
        "key_59": {
          "name": "Grateful Dead",
          "artist_key": "2",
          "shows_key": "2267",
          "showdate": "09/15/88",
          "venue": "Madison Square Garden",
          "city": "New York",
          "state": "NY",
          "set1": [
            "Hell In A Bucket-> Sugaree",
            "Desolation Row",
            "Row Jimmy",
            "Cassidy-> Deal"
          ],
          "set2": [
            "Hell In A Bucket-> Sugaree",
            "Desolation Row",
            "Row Jimmy",
            "Cassidy-> Deal"
          ],
          "set3": "",
          "comment": "",
          "lastupdate": "2004-09-06 00:00:00",
          "showyear": "1988",
          "showsuserid": "system"
        },
        "key_60": {
          "name": "Grateful Dead",
          "artist_key": "2",
          "shows_key": "2268",
          "showdate": "09/16/88",
          "venue": "Madison Square Garden",
          "city": "New York",
          "state": "NY",
          "set1": [
            "Hey Pocky Away",
            "New Minglewood Blues",
            "Mississippi Half-Step Uptown Toodleloo",
            "Me And My Uncle",
            "Mexicali Blues",
            "To Lay Me Down",
            "When I Paint My Masterpiece",
            "Bird Song"
          ],
          "set2": [
            "Hey Pocky Away",
            "New Minglewood Blues",
            "Mississippi Half-Step Uptown Toodleloo",
            "Me And My Uncle",
            "Mexicali Blues",
            "To Lay Me Down",
            "When I Paint My Masterpiece",
            "Bird Song"
          ],
          "set3": "",
          "comment": "",
          "lastupdate": "2003-03-26 00:00:00",
          "showyear": "1988",
          "showsuserid": "system"
        },
        "key_61": {
          "name": "Grateful Dead",
          "artist_key": "2",
          "shows_key": "2309",
          "showdate": "09/18/88",
          "venue": "Madison Square Garden",
          "city": "New York",
          "state": "NY",
          "set1": [
            "Feel Like A Stranger-> Franklin's Tower",
            "Good Time Blues",
            "Big Railroad Blues",
            "Memphis Blues",
            "Stagger Lee",
            "Promised Land"
          ],
          "set2": [
            "Feel Like A Stranger-> Franklin's Tower",
            "Good Time Blues",
            "Big Railroad Blues",
            "Memphis Blues",
            "Stagger Lee",
            "Promised Land"
          ],
          "set3": "",
          "comment": "",
          "lastupdate": "2004-09-06 00:00:00",
          "showyear": "1988",
          "showsuserid": "system"
        },
        "key_62": {
          "name": "Grateful Dead",
          "artist_key": "2",
          "shows_key": "2310",
          "showdate": "09/19/88",
          "venue": "Madison Square Garden",
          "city": "New York",
          "state": "NY",
          "set1": [
            "Touch Of Gray",
            "Little Red Rooster",
            "Dire Wolf",
            "Far From Me",
            "Queen Jane Approximately",
            "Tennessee Jed",
            "Let It Grow"
          ],
          "set2": [
            "Touch Of Gray",
            "Little Red Rooster",
            "Dire Wolf",
            "Far From Me",
            "Queen Jane Approximately",
            "Tennessee Jed",
            "Let It Grow"
          ],
          "set3": "",
          "comment": "",
          "lastupdate": "2004-09-06 00:00:00",
          "showyear": "1988",
          "showsuserid": "system"
        },
        "key_63": {
          "name": "Grateful Dead",
          "artist_key": "2",
          "shows_key": "2311",
          "showdate": "09/20/88",
          "venue": "Madison Square Garden",
          "city": "New York",
          "state": "NY",
          "set1": [
            "Jack Straw",
            "Althea",
            "Mama Tried-> Big River",
            "Peggy-O",
            "When I Paint My Masterpiece",
            "Louie Louie",
            "The Music Never Stopped"
          ],
          "set2": [
            "Jack Straw",
            "Althea",
            "Mama Tried-> Big River",
            "Peggy-O",
            "When I Paint My Masterpiece",
            "Louie Louie",
            "The Music Never Stopped"
          ],
          "set3": "",
          "comment": "",
          "lastupdate": "2004-09-06 00:00:00",
          "showyear": "1988",
          "showsuserid": "system"
        },
        "key_64": {
          "name": "Grateful Dead",
          "artist_key": "2",
          "shows_key": "2312",
          "showdate": "09/22/88",
          "venue": "Madison Square Garden",
          "city": "New York",
          "state": "NY",
          "set1": [
            "Shakedown Street",
            "Minglewood Blues",
            "Candyman",
            "Beat It On Down The Line-> Greatest Story Ever Told",
            "To Lay Me Down",
            "Cassidy-> Deal"
          ],
          "set2": [
            "Shakedown Street",
            "Minglewood Blues",
            "Candyman",
            "Beat It On Down The Line-> Greatest Story Ever Told",
            "To Lay Me Down",
            "Cassidy-> Deal"
          ],
          "set3": "",
          "comment": "",
          "lastupdate": "2004-09-06 00:00:00",
          "showyear": "1988",
          "showsuserid": "hamilton"
        },
        "key_65": {
          "name": "Grateful Dead",
          "artist_key": "2",
          "shows_key": "2313",
          "showdate": "09/23/88",
          "venue": "Madison Square Garden",
          "city": "New York",
          "state": "NY",
          "set1": [
            "Let The Good Times Roll",
            "Hell In A Bucket",
            "Cold Rain & Snow",
            "Walkin' Blues",
            "Loser",
            "Memphis Blues",
            "Dupree's Diamond Blues",
            "Promised Land"
          ],
          "set2": [
            "Let The Good Times Roll",
            "Hell In A Bucket",
            "Cold Rain & Snow",
            "Walkin' Blues",
            "Loser",
            "Memphis Blues",
            "Dupree's Diamond Blues",
            "Promised Land"
          ],
          "set3": "",
          "comment": "",
          "lastupdate": "2004-09-06 00:00:00",
          "showyear": "1988",
          "showsuserid": "system"
        },
        "key_66": {
          "name": "Grateful Dead",
          "artist_key": "2",
          "shows_key": "2314",
          "showdate": "09/24/88",
          "venue": "Madison Square Garden",
          "city": "New York",
          "state": "NY",
          "set1": [
            "Iko Iko",
            "Feel Like A Stranger",
            "West L.A. Fadeaway",
            "Little Red Rooster",
            "Box Of Rain",
            "Ramble On Rose",
            "When I Paint My Masterpiece",
            "Don't Ease Me In"
          ],
          "set2": [
            "Iko Iko",
            "Feel Like A Stranger",
            "West L.A. Fadeaway",
            "Little Red Rooster",
            "Box Of Rain",
            "Ramble On Rose",
            "When I Paint My Masterpiece",
            "Don't Ease Me In"
          ],
          "set3": "",
          "comment": "Show was a Rain Forrest Benefit,  Other Artist(s): Mick Taylor on West LA and Rooster, Suzanne Vega on Chinese Bones, Neighborhood Girls and Heavan's Door, Daryl Hall and John Oats on Every Time and What's Going On,  Baba Olatunji & Michael Hinton on Drums, Hornsby on NFA, Jack Cassady on both encores, Bruce Hornsby and the Range openned.",
          "lastupdate": "2004-09-06 00:00:00",
          "showyear": "1988",
          "showsuserid": "system"
        },
        "key_67": {
          "name": "Grateful Dead",
          "artist_key": "2",
          "shows_key": "2315",
          "showdate": "09/30/88",
          "venue": "Shoreline Amphitheatre",
          "city": "Mountain View",
          "state": "CA",
          "set1": [
            "Iko Iko",
            "Walkin' Blues",
            "Stagger Lee",
            "Me & My Uncle-> Big River",
            "When Push Comes To Shove",
            "Let It Grow"
          ],
          "set2": [
            "Iko Iko",
            "Walkin' Blues",
            "Stagger Lee",
            "Me & My Uncle-> Big River",
            "When Push Comes To Shove",
            "Let It Grow"
          ],
          "set3": "",
          "comment": "",
          "lastupdate": "1996-01-07 00:00:00",
          "showyear": "1988",
          "showsuserid": "system"
        },
        "key_68": {
          "name": "Grateful Dead",
          "artist_key": "2",
          "shows_key": "2316",
          "showdate": "10/01/88",
          "venue": "Shoreline Amphitheatre",
          "city": "Mountain View",
          "state": "CA",
          "set1": [
            "Hell In A Bucket",
            "Sugaree",
            "Little Red Rooster",
            "Friend Of The Devil",
            "Queen Jane Approximately",
            "Tennessee Jed",
            "Cassidy",
            "Don't Ease Me In"
          ],
          "set2": [
            "Hell In A Bucket",
            "Sugaree",
            "Little Red Rooster",
            "Friend Of The Devil",
            "Queen Jane Approximately",
            "Tennessee Jed",
            "Cassidy",
            "Don't Ease Me In"
          ],
          "set3": "",
          "comment": "",
          "lastupdate": "1996-01-07 00:00:00",
          "showyear": "1988",
          "showsuserid": "system"
        },
        "key_69": {
          "name": "Grateful Dead",
          "artist_key": "2",
          "shows_key": "2317",
          "showdate": "10/02/88",
          "venue": "Shoreline Amphitheatre",
          "city": "Mountain View",
          "state": "CA",
          "set1": [
            "Cold Rain & Snow",
            "Minglewood Blues",
            "Peggy-O",
            "Memphis Blues",
            "To Lay Me Down",
            "Box Of Rain",
            "Deal"
          ],
          "set2": [
            "Cold Rain & Snow",
            "Minglewood Blues",
            "Peggy-O",
            "Memphis Blues",
            "To Lay Me Down",
            "Box Of Rain",
            "Deal"
          ],
          "set3": "",
          "comment": "",
          "lastupdate": "1996-01-07 00:00:00",
          "showyear": "1988",
          "showsuserid": "system"
        },
        "key_70": {
          "name": "Grateful Dead",
          "artist_key": "2",
          "shows_key": "2318",
          "showdate": "10/14/88",
          "venue": "Miami Arena",
          "city": "Miami",
          "state": "FL",
          "set1": [
            "Touch Of Grey",
            "Minglewood Blues",
            "Row Jimmy",
            "It's All Over Now",
            "Brown Eyed Women",
            "When I Paint My Masterpiece",
            "Bird Song",
            "Promised Land"
          ],
          "set2": [
            "Touch Of Grey",
            "Minglewood Blues",
            "Row Jimmy",
            "It's All Over Now",
            "Brown Eyed Women",
            "When I Paint My Masterpiece",
            "Bird Song",
            "Promised Land"
          ],
          "set3": "",
          "comment": "",
          "lastupdate": "1996-01-07 00:00:00",
          "showyear": "1988",
          "showsuserid": "hamilton"
        },
        "key_71": {
          "name": "Grateful Dead",
          "artist_key": "2",
          "shows_key": "2319",
          "showdate": "10/15/88",
          "venue": "Bayfront Center Arena",
          "city": "St. Petersburg",
          "state": "FL",
          "set1": [
            "The Music Never Stopped-> Sugaree",
            "Blow Away",
            "Walkin' Blues",
            "When Push Comes To Shove",
            "Queen Jane Approximately",
            "Tennessee Jed",
            "Let It Grow"
          ],
          "set2": [
            "The Music Never Stopped-> Sugaree",
            "Blow Away",
            "Walkin' Blues",
            "When Push Comes To Shove",
            "Queen Jane Approximately",
            "Tennessee Jed",
            "Let It Grow"
          ],
          "set3": "",
          "comment": "",
          "lastupdate": "2002-09-26 00:00:00",
          "showyear": "1988",
          "showsuserid": "diana"
        },
        "key_72": {
          "name": "Grateful Dead",
          "artist_key": "2",
          "shows_key": "2320",
          "showdate": "10/16/88",
          "venue": "Bayfront Center",
          "city": "St. Petersburg",
          "state": "FL",
          "set1": [
            "Mississippi Half-Step Uptown Toodleloo ; Never Trust A Woman ; Feel Like A Stranger ; Friend Of The Devil ; Stuck In Mobile With The Memphis Blues Again ; To Lay Me Down ; Don't Ease Me In"
          ],
          "set2": [
            "Mississippi Half-Step Uptown Toodleloo ; Never Trust A Woman ; Feel Like A Stranger ; Friend Of The Devil ; Stuck In Mobile With The Memphis Blues Again ; To Lay Me Down ; Don't Ease Me In"
          ],
          "set3": "",
          "comment": "",
          "lastupdate": "1996-01-07 00:00:00",
          "showyear": "1988",
          "showsuserid": "system"
        },
        "key_73": {
          "name": "Grateful Dead",
          "artist_key": "2",
          "shows_key": "2321",
          "showdate": "10/18/88",
          "venue": "Keifer Lakefront Arena",
          "city": "New Orleans",
          "state": "LA",
          "set1": [
            "Hell In A Bucket",
            "They Love Each Other",
            "Little Red Rooster",
            "Loser",
            "Beat It On Down The Line-> Greatest Story Ever Told",
            "Peggy-O",
            "When I Paint My Masterpiece",
            "Bird Song"
          ],
          "set2": [
            "Hell In A Bucket",
            "They Love Each Other",
            "Little Red Rooster",
            "Loser",
            "Beat It On Down The Line-> Greatest Story Ever Told",
            "Peggy-O",
            "When I Paint My Masterpiece",
            "Bird Song"
          ],
          "set3": "",
          "comment": "Other Artist(s): *w/ members of Neville Brothers, ** w/ the Bangles",
          "lastupdate": "1996-01-07 00:00:00",
          "showyear": "1988",
          "showsuserid": "system"
        },
        "key_74": {
          "name": "Grateful Dead",
          "artist_key": "2",
          "shows_key": "2322",
          "showdate": "10/20/88",
          "venue": "The Summit",
          "city": "Houston",
          "state": "TX",
          "set1": [
            "Cold Rain & Snow",
            "Minglewood Blues",
            "Candyman",
            "Me & My Uncle-> Mexicali Blues",
            "West L.A. Fadeaway",
            "Queen Jane Approximately",
            "Stagger Lee",
            "The Music Never Stopped"
          ],
          "set2": [
            "Cold Rain & Snow",
            "Minglewood Blues",
            "Candyman",
            "Me & My Uncle-> Mexicali Blues",
            "West L.A. Fadeaway",
            "Queen Jane Approximately",
            "Stagger Lee",
            "The Music Never Stopped"
          ],
          "set3": "",
          "comment": "First \"Built to Last\"",
          "lastupdate": "1996-01-07 00:00:00",
          "showyear": "1988",
          "showsuserid": "system"
        },
        "key_75": {
          "name": "Grateful Dead",
          "artist_key": "2",
          "shows_key": "2323",
          "showdate": "10/21/88",
          "venue": "Reunion Arena",
          "city": "Dallas",
          "state": "TX",
          "set1": [
            "Let The Good Times Roll",
            "Feel Like A Stranger-> Franklin's Tower",
            "Walkin' Blues",
            "Believe It Or Not",
            "Memphis Blues",
            "Dupree's Diamond Blues",
            "Jack Straw"
          ],
          "set2": [
            "Let The Good Times Roll",
            "Feel Like A Stranger-> Franklin's Tower",
            "Walkin' Blues",
            "Believe It Or Not",
            "Memphis Blues",
            "Dupree's Diamond Blues",
            "Jack Straw"
          ],
          "set3": "",
          "comment": "Happy B-Day sung before Wang Dang (Brent's 36th)",
          "lastupdate": "1996-01-07 00:00:00",
          "showyear": "1988",
          "showsuserid": "system"
        },
        "key_76": {
          "name": "Grateful Dead",
          "artist_key": "2",
          "shows_key": "2325",
          "showdate": "12/09/88",
          "venue": "Long Beach Arena",
          "city": "Long Beach",
          "state": "CA",
          "set1": [
            "Let The Good Times Roll> Franklin's Tower",
            "When I Paint My Masterpiece",
            "Jack A Roe",
            "Walkin' Blues",
            "High Time",
            "Cassidy-> Don't Ease Me In"
          ],
          "set2": [
            "Let The Good Times Roll> Franklin's Tower",
            "When I Paint My Masterpiece",
            "Jack A Roe",
            "Walkin' Blues",
            "High Time",
            "Cassidy-> Don't Ease Me In"
          ],
          "set3": "",
          "comment": "",
          "lastupdate": "1996-01-07 00:00:00",
          "showyear": "1988",
          "showsuserid": "system"
        },
        "key_77": {
          "name": "Grateful Dead",
          "artist_key": "2",
          "shows_key": "2326",
          "showdate": "12/10/88",
          "venue": "Long Beach Arena",
          "city": "Long Beach",
          "state": "CA",
          "set1": [
            "Feel Like A Stranger",
            "West L.A. Fadeaway",
            "Me & My Uncle-> Big River",
            "Althea",
            "Memphis Blues",
            "Tennessee Jed",
            "The Music Never Stopped"
          ],
          "set2": [
            "Feel Like A Stranger",
            "West L.A. Fadeaway",
            "Me & My Uncle-> Big River",
            "Althea",
            "Memphis Blues",
            "Tennessee Jed",
            "The Music Never Stopped"
          ],
          "set3": "",
          "comment": "",
          "lastupdate": "1996-01-07 00:00:00",
          "showyear": "1988",
          "showsuserid": "system"
        },
        "key_78": {
          "name": "Grateful Dead",
          "artist_key": "2",
          "shows_key": "2327",
          "showdate": "12/11/88",
          "venue": "Long Beach Arena",
          "city": "Long Beach",
          "state": "CA",
          "set1": [
            "Iko Iko",
            "Jack Straw",
            "Row Jimmy",
            "Queen Jane Approximately",
            "Bird Song",
            "Hell In A Bucket"
          ],
          "set2": [
            "Iko Iko",
            "Jack Straw",
            "Row Jimmy",
            "Queen Jane Approximately",
            "Bird Song",
            "Hell In A Bucket"
          ],
          "set3": "",
          "comment": "",
          "lastupdate": "1996-01-07 00:00:00",
          "showyear": "1988",
          "showsuserid": "system"
        },
        "key_79": {
          "name": "Grateful Dead",
          "artist_key": "2",
          "shows_key": "2328",
          "showdate": "12/28/88",
          "venue": "Oakland-Alameda County Coliseum",
          "city": "Oakland",
          "state": "CA",
          "set1": [
            "Iko Iko",
            "Walkin' Blues",
            "Jack A Roe",
            "It's All Over Now",
            "When Push Comes To Shove",
            "Memphis Blues",
            "Bird Song",
            "Jack Straw"
          ],
          "set2": [
            "Iko Iko",
            "Walkin' Blues",
            "Jack A Roe",
            "It's All Over Now",
            "When Push Comes To Shove",
            "Memphis Blues",
            "Bird Song",
            "Jack Straw"
          ],
          "set3": "",
          "comment": "",
          "lastupdate": "1996-01-07 00:00:00",
          "showyear": "1988",
          "showsuserid": "system"
        },
        "key_80": {
          "name": "Grateful Dead",
          "artist_key": "2",
          "shows_key": "2329",
          "showdate": "12/29/88",
          "venue": "Oakland-Alameda County Coliseum",
          "city": "Oakland",
          "state": "CA",
          "set1": [
            "Hell In A Bucket-> Sugaree",
            "Minglewood Blues",
            "Friend Of The Devil",
            "Queen Jane Approximately",
            "To Lay Me Down-> Let It Grow"
          ],
          "set2": [
            "Hell In A Bucket-> Sugaree",
            "Minglewood Blues",
            "Friend Of The Devil",
            "Queen Jane Approximately",
            "To Lay Me Down-> Let It Grow"
          ],
          "set3": "",
          "comment": "",
          "lastupdate": "1996-01-07 00:00:00",
          "showyear": "1988",
          "showsuserid": "system"
        },
        "key_81": {
          "name": "Grateful Dead",
          "artist_key": "2",
          "shows_key": "2330",
          "showdate": "12/31/88",
          "venue": "Oakland-Alameda County Coliseum",
          "city": "Oakland",
          "state": "CA",
          "set1": [
            "Let The Good Times Roll-> Franklin's Tower",
            "Wang Dang Doodle*",
            "West L.A. Fadeaway*",
            "When I Paint My Masterpiece",
            "Cold Rain & Snow",
            "Cassidy-> Don't Ease Me In"
          ],
          "set2": [
            "Let The Good Times Roll-> Franklin's Tower",
            "Wang Dang Doodle*",
            "West L.A. Fadeaway*",
            "When I Paint My Masterpiece",
            "Cold Rain & Snow",
            "Cassidy-> Don't Ease Me In"
          ],
          "set3": "",
          "comment": "Other Artist(s): * w/ Clarence Clemons on sax, ** Baba Olatunji, Sikiru Adepoju and Kitaro",
          "lastupdate": "1996-01-07 00:00:00",
          "showyear": "1988",
          "showsuserid": "hamilton"
        },
        "key_82": {
          "name": "Grateful Dead",
          "artist_key": "2",
          "shows_key": "193527",
          "showdate": "??/??/88",
          "venue": "Unknown Studio (possibly Club Front)",
          "city": "Unknown",
          "state": "Unknown",
          "set1": [
            "Instrumental\r\nVictim Or the Crime\r\nBlow Away\r\nBelieve It or Not\r\nGentleman",
            "Start Your Engines\r\nBuilt To Last\r\nI Will Take You Home\r\nVictim Or the Crime\r\nInstrumental 2\r\nInstrumental 3\r\nfiller: Bob Weir studio sessions\r\nShit Happens (Barlow vocal?)\r\nJam\r\nJam\r\nBetty Cantor Vault tape\r\nBarbed Wire Whipping Party"
          ],
          "set2": "",
          "set3": "",
          "comment": "The Inn By The Sea tape; found in hotel \"The Inn By The Sea\" Cape Elizabeth, ME occupied by The Grateful Dead during their 7/2-3/88 Oxford Plains, ME shows; sbd",
          "lastupdate": "2008-09-16 10:15:13",
          "showyear": "1988",
          "showsuserid": "jmoleton"
        }
      },
      "status": "success"
    }
  }
}