{
  "db_rest": {
    "@generator": "zend",
    "@version": "1.0",
    "fetchArtistYear": {
      "shows": {
        "key_0": {
          "name": "Grateful Dead",
          "artist_key": "2",
          "shows_key": "2084",
          "showdate": "01/24/93",
          "venue": "Oakland-Alameda County Coliseum",
          "city": "Oakland",
          "state": "CA",
          "set1": [
            "Jack Straw-> Sugaree",
            "Walkin' Blues",
            "Loser",
            "Queen Jane Approximately",
            "Bird Song"
          ],
          "set2": [
            "Jack Straw-> Sugaree",
            "Walkin' Blues",
            "Loser",
            "Queen Jane Approximately",
            "Bird Song"
          ],
          "set3": "",
          "comment": "",
          "lastupdate": "1996-01-07 00:00:00",
          "showyear": "1993",
          "showsuserid": "system"
        },
        "key_1": {
          "name": "Grateful Dead",
          "artist_key": "2",
          "shows_key": "2085",
          "showdate": "01/25/93",
          "venue": "Oakland-Alameda County Coliseum",
          "city": "Oakland",
          "state": "CA",
          "set1": [
            "Shakedown Street\r\nThe Same Thing\r\nAlthea\r\nMama Tried > \r\nMaggie's Farm\r\nLoose Lucy\r\nThe Music Never Stopped"
          ],
          "set2": [
            "Shakedown Street\r\nThe Same Thing\r\nAlthea\r\nMama Tried > \r\nMaggie's Farm\r\nLoose Lucy\r\nThe Music Never Stopped"
          ],
          "set3": [
            "Shakedown Street\r\nThe Same Thing\r\nAlthea\r\nMama Tried > \r\nMaggie's Farm\r\nLoose Lucy\r\nThe Music Never Stopped"
          ],
          "comment": "",
          "lastupdate": "2007-01-27 00:00:00",
          "showyear": "1993",
          "showsuserid": "wiedmann"
        },
        "key_2": {
          "name": "Grateful Dead",
          "artist_key": "2",
          "shows_key": "2086",
          "showdate": "01/26/93",
          "venue": "Oakland-Alameda County Coliseum",
          "city": "Oakland",
          "state": "CA",
          "set1": [
            "Picasso Moon",
            "Row Jimmy",
            "Wang Dang Doodle",
            "Brown Eyed Women",
            "Desolation Row",
            "Ramble On Rose",
            "Promised Land"
          ],
          "set2": [
            "Picasso Moon",
            "Row Jimmy",
            "Wang Dang Doodle",
            "Brown Eyed Women",
            "Desolation Row",
            "Ramble On Rose",
            "Promised Land"
          ],
          "set3": "",
          "comment": "Chinese Acrobats opened *with Carlos Santana, guitar **Dragon Parade",
          "lastupdate": "1996-01-07 00:00:00",
          "showyear": "1993",
          "showsuserid": "system"
        },
        "key_3": {
          "name": "Grateful Dead",
          "artist_key": "2",
          "shows_key": "155513",
          "showdate": "02/10/93",
          "venue": "Club Front",
          "city": "San Rafael",
          "state": "CA",
          "set1": [
            "Studio Rehearsal;\r\n1. Days Between\r\n2. Days Between"
          ],
          "set2": "",
          "set3": "",
          "comment": "",
          "lastupdate": "2003-05-27 17:36:03",
          "showyear": "1993",
          "showsuserid": "Junkie"
        },
        "key_4": {
          "name": "Grateful Dead",
          "artist_key": "2",
          "shows_key": "155106",
          "showdate": "02/13/93",
          "venue": "Club Front",
          "city": "San Rafael",
          "state": "CA",
          "set1": [
            "Days Between"
          ],
          "set2": "",
          "set3": "",
          "comment": "Rehersal",
          "lastupdate": "2003-05-25 02:03:01",
          "showyear": "1993",
          "showsuserid": "mvernon"
        },
        "key_5": {
          "name": "Grateful Dead",
          "artist_key": "2",
          "shows_key": "2087",
          "showdate": "02/21/93",
          "venue": "Oakland-Alameda County Coliseum",
          "city": "Oakland",
          "state": "CA",
          "set1": [
            "Bertha-> Greatest Story Ever Told",
            "Lazy River Road",
            "Eternity",
            "Ramble On Rose",
            "Queen Jane Approximately",
            "Row Jimmy",
            "Promised Land"
          ],
          "set2": [
            "Bertha-> Greatest Story Ever Told",
            "Lazy River Road",
            "Eternity",
            "Ramble On Rose",
            "Queen Jane Approximately",
            "Row Jimmy",
            "Promised Land"
          ],
          "set3": "",
          "comment": "",
          "lastupdate": "1996-01-07 00:00:00",
          "showyear": "1993",
          "showsuserid": "system"
        },
        "key_6": {
          "name": "Grateful Dead",
          "artist_key": "2",
          "shows_key": "2088",
          "showdate": "02/22/93",
          "venue": "Oakland-Alameda County Coliseum",
          "city": "Oakland",
          "state": "CA",
          "set1": [
            "Hell In A Bucket-> Sugaree",
            "Walkin' Blues",
            "Althea",
            "When I Paint My Masterpiece",
            "So Many Roads",
            "Cassidy",
            "Don't Ease Me In"
          ],
          "set2": [
            "Hell In A Bucket-> Sugaree",
            "Walkin' Blues",
            "Althea",
            "When I Paint My Masterpiece",
            "So Many Roads",
            "Cassidy",
            "Don't Ease Me In"
          ],
          "set3": "",
          "comment": "",
          "lastupdate": "1996-01-07 00:00:00",
          "showyear": "1993",
          "showsuserid": "system"
        },
        "key_7": {
          "name": "Grateful Dead",
          "artist_key": "2",
          "shows_key": "2089",
          "showdate": "02/23/93",
          "venue": "Oakland-Alameda County Coliseum",
          "city": "Oakland",
          "state": "CA",
          "set1": [
            "Cold Rain &amp; Snow\nWang Dang Doodle\nLoser\nStuck Inside Of Mobile",
            "With The Memphis Blues Again\nBroken Arrow\nWay To Go Home\nJohnny B. Goode"
          ],
          "set2": [
            "Cold Rain &amp; Snow\nWang Dang Doodle\nLoser\nStuck Inside Of Mobile",
            "With The Memphis Blues Again\nBroken Arrow\nWay To Go Home\nJohnny B. Goode"
          ],
          "set3": "",
          "comment": "Ornette Coleman Group Opened\nJerry sits in last song of Ornette's Set\nJerry plays Wolf for whole show\n\nJerry Garcia - Guitar\nBob Weir - Guitar\nVince Welnick - Keyboards\nPhil Lesh - Bass\nBill Kreutzmann - Drums\nMickey Hart - Drums\nOrnette Coleman - Saxophone #\nDenardo Coleman - Drums *\nSikiru Adepoju - Percussion %, Hand Drum @\nGraham Wiggins - LP Clave $, Yirdaki (Didgeridoo) ^",
          "lastupdate": "2014-06-18 20:36:54",
          "showyear": "1993",
          "showsuserid": "schmoe75_DVD"
        },
        "key_8": {
          "name": "Grateful Dead",
          "artist_key": "2",
          "shows_key": "2090",
          "showdate": "03/09/93",
          "venue": "Rosemont Horizon",
          "city": "Rosemont",
          "state": "IL",
          "set1": [
            "Here Comes Sunshine",
            "Wang Dang Doodle",
            "Loose Lucy",
            "Me & My Uncle-> Mexicali Blues"
          ],
          "set2": [
            "Here Comes Sunshine",
            "Wang Dang Doodle",
            "Loose Lucy",
            "Me & My Uncle-> Mexicali Blues"
          ],
          "set3": "",
          "comment": "",
          "lastupdate": "2015-03-22 16:24:04",
          "showyear": "1993",
          "showsuserid": "Wharfrat73"
        },
        "key_9": {
          "name": "Grateful Dead",
          "artist_key": "2",
          "shows_key": "2091",
          "showdate": "03/10/93",
          "venue": "Rosemont Horizon",
          "city": "Rosemont",
          "state": "IL",
          "set1": [
            "Feel Like A Stranger",
            "Stagger Lee",
            "The Same Thing",
            "Peggy-O",
            "Queen Jane Approximately",
            "Ramble On Rose",
            "Let It Grow"
          ],
          "set2": [
            "Feel Like A Stranger",
            "Stagger Lee",
            "The Same Thing",
            "Peggy-O",
            "Queen Jane Approximately",
            "Ramble On Rose",
            "Let It Grow"
          ],
          "set3": "",
          "comment": "",
          "lastupdate": "2003-04-29 00:00:00",
          "showyear": "1993",
          "showsuserid": "diana"
        },
        "key_10": {
          "name": "Grateful Dead",
          "artist_key": "2",
          "shows_key": "2092",
          "showdate": "03/11/93",
          "venue": "Rosemont Horizon",
          "city": "Rosemont",
          "state": "IL",
          "set1": [
            "Help On The Way-> Slipknot!-> Franklin's Tower",
            "Little Red Rooster",
            "Althea",
            "When I Paint My Masterpiece",
            "So Many Roads",
            "The Music Never Stopped"
          ],
          "set2": [
            "Help On The Way-> Slipknot!-> Franklin's Tower",
            "Little Red Rooster",
            "Althea",
            "When I Paint My Masterpiece",
            "So Many Roads",
            "The Music Never Stopped"
          ],
          "set3": "",
          "comment": "*with Ken Nordine",
          "lastupdate": "1996-01-07 00:00:00",
          "showyear": "1993",
          "showsuserid": "system"
        },
        "key_11": {
          "name": "Grateful Dead",
          "artist_key": "2",
          "shows_key": "2093",
          "showdate": "03/14/93",
          "venue": "Richfield Coliseum",
          "city": "Richfield",
          "state": "OH",
          "set1": [
            "Cold Rain & Snow",
            "Walkin' Blues",
            "Brown Eyed Women",
            "Just Like Tom Thumb's Blues",
            "Lazy River Road",
            "Eternity",
            "Don't Ease Me In"
          ],
          "set2": [
            "Cold Rain & Snow",
            "Walkin' Blues",
            "Brown Eyed Women",
            "Just Like Tom Thumb's Blues",
            "Lazy River Road",
            "Eternity",
            "Don't Ease Me In"
          ],
          "set3": "",
          "comment": "*first time played; previous night's scheduled show was cancelled due to snowstorm",
          "lastupdate": "2001-11-06 00:00:00",
          "showyear": "1993",
          "showsuserid": "hamilton"
        },
        "key_12": {
          "name": "Grateful Dead",
          "artist_key": "2",
          "shows_key": "2094",
          "showdate": "03/16/93",
          "venue": "Capital Centre",
          "city": "Landover",
          "state": "MD",
          "set1": [
            "Jack Straw",
            "Row Jimmy",
            "Minglewood Blues",
            "So Many Roads",
            "Cassidy",
            "Tennessee Jed",
            "Promised Land"
          ],
          "set2": [
            "Jack Straw",
            "Row Jimmy",
            "Minglewood Blues",
            "So Many Roads",
            "Cassidy",
            "Tennessee Jed",
            "Promised Land"
          ],
          "set3": "",
          "comment": "*w/o Jerry and Bobby major Phil Jamming",
          "lastupdate": "2002-03-27 00:00:00",
          "showyear": "1993",
          "showsuserid": "system"
        },
        "key_13": {
          "name": "Grateful Dead",
          "artist_key": "2",
          "shows_key": "2095",
          "showdate": "03/17/93",
          "venue": "Capital Centre",
          "city": "Landover",
          "state": "MD",
          "set1": [
            "Shakedown Street",
            "Wang Dang Doodle",
            "Lazy River Road",
            "Desolation Row",
            "Ramble On Rose",
            "Eternity",
            "Liberty"
          ],
          "set2": [
            "Shakedown Street",
            "Wang Dang Doodle",
            "Lazy River Road",
            "Desolation Row",
            "Ramble On Rose",
            "Eternity",
            "Liberty"
          ],
          "set3": "",
          "comment": "",
          "lastupdate": "2002-03-27 00:00:00",
          "showyear": "1993",
          "showsuserid": "system"
        },
        "key_14": {
          "name": "Grateful Dead",
          "artist_key": "2",
          "shows_key": "2096",
          "showdate": "03/18/93",
          "venue": "Capital Centre",
          "city": "Landover",
          "state": "MD",
          "set1": [
            "Hell In A Bucket-> Sugaree",
            "Walkin' Blues",
            "Broken Arrow",
            "Loose Lucy",
            "When I Paint My Masterpiece",
            "Friend Of The Devil",
            "The Music Never Stopped"
          ],
          "set2": [
            "Hell In A Bucket-> Sugaree",
            "Walkin' Blues",
            "Broken Arrow",
            "Loose Lucy",
            "When I Paint My Masterpiece",
            "Friend Of The Devil",
            "The Music Never Stopped"
          ],
          "set3": "",
          "comment": "Bruce Hornsby sat in for the whole 2nd set and encore on accordion",
          "lastupdate": "2002-03-27 00:00:00",
          "showyear": "1993",
          "showsuserid": "system"
        },
        "key_15": {
          "name": "Grateful Dead",
          "artist_key": "2",
          "shows_key": "2097",
          "showdate": "03/20/93",
          "venue": "The Omni",
          "city": "Atlanta",
          "state": "GA",
          "set1": [
            "Mississippi Half Step",
            "It's All Over Now",
            "So Many Roads",
            "Me & My Uncle-> Maggie's Farm",
            "Bird Song-> Promised Land"
          ],
          "set2": [
            "Mississippi Half Step",
            "It's All Over Now",
            "So Many Roads",
            "Me & My Uncle-> Maggie's Farm",
            "Bird Song-> Promised Land"
          ],
          "set3": "",
          "comment": "",
          "lastupdate": "1996-01-07 00:00:00",
          "showyear": "1993",
          "showsuserid": "system"
        },
        "key_16": {
          "name": "Grateful Dead",
          "artist_key": "2",
          "shows_key": "2098",
          "showdate": "03/21/93",
          "venue": "The Omni",
          "city": "Atlanta",
          "state": "GA",
          "set1": [
            "Feel Like A Stranger",
            "West L.A. Fadeaway",
            "Black Throated Wind",
            "Candyman",
            "Queen Jane Approximately",
            "Brown Eyed Women",
            "Eternity",
            "Liberty"
          ],
          "set2": [
            "Feel Like A Stranger",
            "West L.A. Fadeaway",
            "Black Throated Wind",
            "Candyman",
            "Queen Jane Approximately",
            "Brown Eyed Women",
            "Eternity",
            "Liberty"
          ],
          "set3": "",
          "comment": "",
          "lastupdate": "1996-01-07 00:00:00",
          "showyear": "1993",
          "showsuserid": "system"
        },
        "key_17": {
          "name": "Grateful Dead",
          "artist_key": "2",
          "shows_key": "2099",
          "showdate": "03/22/93",
          "venue": "The Omni",
          "city": "Atlanta",
          "state": "GA",
          "set1": [
            "Help On The Way-> Slipknot!-> Franklin's Tower",
            "Little Red Rooster",
            "Althea",
            "Beat It On Down The Line",
            "Just Like Tom Thumb's Blues",
            "Lazy River Road",
            "Picasso Moon"
          ],
          "set2": [
            "Help On The Way-> Slipknot!-> Franklin's Tower",
            "Little Red Rooster",
            "Althea",
            "Beat It On Down The Line",
            "Just Like Tom Thumb's Blues",
            "Lazy River Road",
            "Picasso Moon"
          ],
          "set3": "",
          "comment": "",
          "lastupdate": "1996-01-07 00:00:00",
          "showyear": "1993",
          "showsuserid": "system"
        },
        "key_18": {
          "name": "Grateful Dead",
          "artist_key": "2",
          "shows_key": "2100",
          "showdate": "03/24/93",
          "venue": "Dean Smith Center",
          "city": "Chapel Hill",
          "state": "NC",
          "set1": [
            "Jack Straw\nStagger Lee\nWang Dang Doodle\nIt Must Have Been The Roses\nStuck Inside Of Mobile",
            "With The Memphis Blues Again\nTennessee Jed\nLet It Grow"
          ],
          "set2": [
            "Jack Straw\nStagger Lee\nWang Dang Doodle\nIt Must Have Been The Roses\nStuck Inside Of Mobile",
            "With The Memphis Blues Again\nTennessee Jed\nLet It Grow"
          ],
          "set3": "",
          "comment": "Dan Healy gave a lecture at UNC that day (which was well recieved) and gave out SBD patches for the show that night.\n\nJerry Garcia - Guitar\nBob Weir - Guitar\nVince Welnick - Keyboards\nPhil Lesh - Bass\nBill Kreutzmann - Drums\nMickey Hart - Drums",
          "lastupdate": "2014-10-27 00:43:59",
          "showyear": "1993",
          "showsuserid": "schmoe75_DVD"
        },
        "key_19": {
          "name": "Grateful Dead",
          "artist_key": "2",
          "shows_key": "2101",
          "showdate": "03/25/93",
          "venue": "Dean Smith Center",
          "city": "Chapel Hill",
          "state": "NC",
          "set1": [
            "Touch Of Grey\nGreatest Story Ever Told\nSo Many Roads\nNew Minglewood Blues\nLazy River Road\nMexicali Blues\nBig River\nFriend Of The Devil\nEternity\nLiberty"
          ],
          "set2": [
            "Touch Of Grey\nGreatest Story Ever Told\nSo Many Roads\nNew Minglewood Blues\nLazy River Road\nMexicali Blues\nBig River\nFriend Of The Devil\nEternity\nLiberty"
          ],
          "set3": "",
          "comment": "Jerry Garcia - Guitar\nBob Weir - Guitar\nVince Welnick - Keyboards\nPhil Lesh - Bass\nBill Kreutzmann - Drums\nMickey Hart - Drums",
          "lastupdate": "2014-10-27 00:45:03",
          "showyear": "1993",
          "showsuserid": "schmoe75_DVD"
        },
        "key_20": {
          "name": "Grateful Dead",
          "artist_key": "2",
          "shows_key": "2102",
          "showdate": "03/27/93",
          "venue": "Knickerbocker Arena",
          "city": "Albany",
          "state": "NY",
          "set1": [
            "Hell In A Bucket",
            "Bertha",
            "The Same Thing",
            "Peggy-O",
            "Queen Jane Approximately",
            "Broken Arrow",
            "Loose Lucy",
            "Cassidy",
            "Casey Jones"
          ],
          "set2": [
            "Hell In A Bucket",
            "Bertha",
            "The Same Thing",
            "Peggy-O",
            "Queen Jane Approximately",
            "Broken Arrow",
            "Loose Lucy",
            "Cassidy",
            "Casey Jones"
          ],
          "set3": "",
          "comment": "",
          "lastupdate": "1996-01-07 00:00:00",
          "showyear": "1993",
          "showsuserid": "system"
        },
        "key_21": {
          "name": "Grateful Dead",
          "artist_key": "2",
          "shows_key": "2103",
          "showdate": "03/28/93",
          "venue": "Knickerbocker Arena",
          "city": "Albany",
          "state": "NY",
          "set1": [
            "Mississippi Half Step",
            "Walkin' Blues",
            "So Many Roads",
            "When I Paint My Masterpiece",
            "High Time",
            "Eternity",
            "Deal"
          ],
          "set2": [
            "Mississippi Half Step",
            "Walkin' Blues",
            "So Many Roads",
            "When I Paint My Masterpiece",
            "High Time",
            "Eternity",
            "Deal"
          ],
          "set3": "",
          "comment": "",
          "lastupdate": "1996-01-07 00:00:00",
          "showyear": "1993",
          "showsuserid": "system"
        },
        "key_22": {
          "name": "Grateful Dead",
          "artist_key": "2",
          "shows_key": "2104",
          "showdate": "03/29/93",
          "venue": "Knickerbocker Arena",
          "city": "Albany",
          "state": "NY",
          "set1": [
            "Let The Good Times Roll",
            "Feel Like A Stranger",
            "Loser",
            "Little Red Rooster",
            "Ramble On Rose",
            "Black Throated Wind",
            "Lazy River Road",
            "Johnny B. Goode"
          ],
          "set2": [
            "Let The Good Times Roll",
            "Feel Like A Stranger",
            "Loser",
            "Little Red Rooster",
            "Ramble On Rose",
            "Black Throated Wind",
            "Lazy River Road",
            "Johnny B. Goode"
          ],
          "set3": "",
          "comment": "*they started Miracle and changed their minds.",
          "lastupdate": "1996-01-07 00:00:00",
          "showyear": "1993",
          "showsuserid": "system"
        },
        "key_23": {
          "name": "Grateful Dead",
          "artist_key": "2",
          "shows_key": "2105",
          "showdate": "03/31/93",
          "venue": "Nassau Coliseum",
          "city": "Uniondale",
          "state": "NY",
          "set1": [
            "Cold Rain & Snow",
            "Wang Dang Doodle",
            "Althea",
            "It's All Over Now",
            "Row Jimmy",
            "Let It Grow"
          ],
          "set2": [
            "Cold Rain & Snow",
            "Wang Dang Doodle",
            "Althea",
            "It's All Over Now",
            "Row Jimmy",
            "Let It Grow"
          ],
          "set3": "",
          "comment": "",
          "lastupdate": "1996-01-07 00:00:00",
          "showyear": "1993",
          "showsuserid": "system"
        },
        "key_24": {
          "name": "Grateful Dead",
          "artist_key": "2",
          "shows_key": "2106",
          "showdate": "04/01/93",
          "venue": "Nassau Coliseum",
          "city": "Uniondale",
          "state": "NY",
          "set1": [
            "Jack Straw",
            "They Love Each Other",
            "Minglewood Blues",
            "Candyman",
            "Desolation Row",
            "Stagger Lee",
            "Eternity",
            "Liberty"
          ],
          "set2": [
            "Jack Straw",
            "They Love Each Other",
            "Minglewood Blues",
            "Candyman",
            "Desolation Row",
            "Stagger Lee",
            "Eternity",
            "Liberty"
          ],
          "set3": "",
          "comment": "*Barney the dinosaur feigning bass while Phil plays behind the rack",
          "lastupdate": "2013-04-20 11:48:26",
          "showyear": "1993",
          "showsuserid": "BeLikeMike"
        },
        "key_25": {
          "name": "Grateful Dead",
          "artist_key": "2",
          "shows_key": "2107",
          "showdate": "04/02/93",
          "venue": "Nassau Coliseum",
          "city": "Uniondale",
          "state": "NY",
          "set1": [
            "Help On The Way-> Slipknot!-> Franklin's Tower-> The Same Thing",
            "Jack A Roe",
            "Queen Jane Approximately",
            "Brown Eyed Women",
            "Picasso Moon"
          ],
          "set2": [
            "Help On The Way-> Slipknot!-> Franklin's Tower-> The Same Thing",
            "Jack A Roe",
            "Queen Jane Approximately",
            "Brown Eyed Women",
            "Picasso Moon"
          ],
          "set3": "",
          "comment": "",
          "lastupdate": "1996-01-07 00:00:00",
          "showyear": "1993",
          "showsuserid": "system"
        },
        "key_26": {
          "name": "Grateful Dead",
          "artist_key": "2",
          "shows_key": "2108",
          "showdate": "04/04/93",
          "venue": "Nassau Coliseum",
          "city": "Uniondale",
          "state": "NY",
          "set1": [
            "Midnight Hour\nSugaree\nWalkin' Blues\nDire Wolf\nWhen I Paint My Masterpiece\nSo Many Roads\nEternity\nBird Song"
          ],
          "set2": [
            "Midnight Hour\nSugaree\nWalkin' Blues\nDire Wolf\nWhen I Paint My Masterpiece\nSo Many Roads\nEternity\nBird Song"
          ],
          "set3": "",
          "comment": "Jerry Garcia - Guitar\nBob Weir - Guitar\nVince Welnick - Keyboards\nPhil Lesh - Bass\nBill Kreutzmann - Drums\nMickey Hart - Drums\nBaba Olatunji - Percussion *",
          "lastupdate": "2014-03-09 00:01:35",
          "showyear": "1993",
          "showsuserid": "schmoe75_DVD"
        },
        "key_27": {
          "name": "Grateful Dead",
          "artist_key": "2",
          "shows_key": "2109",
          "showdate": "04/05/93",
          "venue": "Nassau Coliseum",
          "city": "Uniondale",
          "state": "NY",
          "set1": [
            "Touch Of Grey",
            "Greatest Story Ever Told",
            "Lazy River Road",
            "Just Like Tom Thumb's Blues",
            "Black Throated Wind",
            "Tennessee Jed",
            "The Music Never Stopped",
            "Deal"
          ],
          "set2": [
            "Touch Of Grey",
            "Greatest Story Ever Told",
            "Lazy River Road",
            "Just Like Tom Thumb's Blues",
            "Black Throated Wind",
            "Tennessee Jed",
            "The Music Never Stopped",
            "Deal"
          ],
          "set3": "",
          "comment": "",
          "lastupdate": "1996-01-07 00:00:00",
          "showyear": "1993",
          "showsuserid": "hamilton"
        },
        "key_28": {
          "name": "Grateful Dead",
          "artist_key": "2",
          "shows_key": "140455",
          "showdate": "04/12/93",
          "venue": "Candlestick Park",
          "city": "San Francisco",
          "state": "CA",
          "set1": [
            "Star Spangled Banner"
          ],
          "set2": "",
          "set3": "",
          "comment": "Jerry, Bob, & Vince singing the Star Spangled Banner at the 1993 Giants home opener.",
          "lastupdate": "2003-02-23 19:15:02",
          "showyear": "1993",
          "showsuserid": "daydream73"
        },
        "key_29": {
          "name": "Grateful Dead",
          "artist_key": "2",
          "shows_key": "2110",
          "showdate": "05/14/93",
          "venue": "Sam Boyd Silver Bowl, U.N.L.V.",
          "city": "Las Vegas",
          "state": "NV",
          "set1": [
            "Cold Rain & Snow",
            "Wang Dang Doodle",
            "Lazy River Road",
            "Queen Jane Approximately",
            "Ramble On Rose",
            "Black Throated Wind",
            "Liberty"
          ],
          "set2": [
            "Cold Rain & Snow",
            "Wang Dang Doodle",
            "Lazy River Road",
            "Queen Jane Approximately",
            "Ramble On Rose",
            "Black Throated Wind",
            "Liberty"
          ],
          "set3": "",
          "comment": "Sting opened",
          "lastupdate": "1996-01-07 00:00:00",
          "showyear": "1993",
          "showsuserid": "system"
        },
        "key_30": {
          "name": "Grateful Dead",
          "artist_key": "2",
          "shows_key": "2111",
          "showdate": "05/15/93",
          "venue": "Sam Boyd Silver Bowl, U.N.L.V.",
          "city": "Las Vegas",
          "state": "NV",
          "set1": [
            "Picasso Moon",
            "Peggy-O",
            "The Same Thing",
            "Tennessee Jed",
            "Broken Arrow",
            "Bird Song"
          ],
          "set2": [
            "Picasso Moon",
            "Peggy-O",
            "The Same Thing",
            "Tennessee Jed",
            "Broken Arrow",
            "Bird Song"
          ],
          "set3": "",
          "comment": "Sting opened",
          "lastupdate": "1996-01-07 00:00:00",
          "showyear": "1993",
          "showsuserid": "system"
        },
        "key_31": {
          "name": "Grateful Dead",
          "artist_key": "2",
          "shows_key": "2112",
          "showdate": "05/16/93",
          "venue": "Sam Boyd Silver Bowl, U.N.L.V.",
          "city": "Las Vegas",
          "state": "NV",
          "set1": [
            "Touch Of Grey",
            "Walkin' Blues",
            "Althea",
            "When I Paint My Masterpiece",
            "Row Jimmy",
            "Cassidy"
          ],
          "set2": [
            "Touch Of Grey",
            "Walkin' Blues",
            "Althea",
            "When I Paint My Masterpiece",
            "Row Jimmy",
            "Cassidy"
          ],
          "set3": "",
          "comment": "Sting opened",
          "lastupdate": "2004-09-03 00:00:00",
          "showyear": "1993",
          "showsuserid": "system"
        },
        "key_32": {
          "name": "Grateful Dead",
          "artist_key": "2",
          "shows_key": "2113",
          "showdate": "05/21/93",
          "venue": "Shoreline Amphitheatre",
          "city": "Mountain View",
          "state": "CA",
          "set1": [
            "Let The Good Times Roll",
            "Feel Like A Stranger",
            "Friend Of The Devil",
            "Me & My Uncle-> Big River",
            "West L.A. Fadeaway",
            "Eternity",
            "Liberty"
          ],
          "set2": [
            "Let The Good Times Roll",
            "Feel Like A Stranger",
            "Friend Of The Devil",
            "Me & My Uncle-> Big River",
            "West L.A. Fadeaway",
            "Eternity",
            "Liberty"
          ],
          "set3": "",
          "comment": "",
          "lastupdate": "1996-01-07 00:00:00",
          "showyear": "1993",
          "showsuserid": "system"
        },
        "key_33": {
          "name": "Grateful Dead",
          "artist_key": "2",
          "shows_key": "2114",
          "showdate": "05/22/93",
          "venue": "Shoreline Amphitheatre",
          "city": "Mountain View",
          "state": "CA",
          "set1": [
            "Mississippi Half Step",
            "Little Red Rooster",
            "Brown Eyed Women",
            "Broken Arrow",
            "Supplication*",
            "Stagger Lee",
            "Promised Land"
          ],
          "set2": [
            "Mississippi Half Step",
            "Little Red Rooster",
            "Brown Eyed Women",
            "Broken Arrow",
            "Supplication*",
            "Stagger Lee",
            "Promised Land"
          ],
          "set3": "",
          "comment": "*with words \nlast 'Supplication': 10/31/84 [597]",
          "lastupdate": "2011-10-22 00:24:18",
          "showyear": "1993",
          "showsuserid": "Oldneumanntapr"
        },
        "key_34": {
          "name": "Grateful Dead",
          "artist_key": "2",
          "shows_key": "2115",
          "showdate": "05/23/93",
          "venue": "Shoreline Amphitheatre",
          "city": "Mountain View",
          "state": "CA",
          "set1": [
            "Jack Straw",
            "Loser",
            "It's All Over Now",
            "Just Like Tom Thumb's Blues",
            "Bird Song",
            "The Music Never Stopped"
          ],
          "set2": [
            "Jack Straw",
            "Loser",
            "It's All Over Now",
            "Just Like Tom Thumb's Blues",
            "Bird Song",
            "The Music Never Stopped"
          ],
          "set3": "",
          "comment": "",
          "lastupdate": "1996-01-07 00:00:00",
          "showyear": "1993",
          "showsuserid": "system"
        },
        "key_35": {
          "name": "Grateful Dead",
          "artist_key": "2",
          "shows_key": "2116",
          "showdate": "05/25/93",
          "venue": "Cal Expo",
          "city": "Sacramento",
          "state": "CA",
          "set1": [
            "Bertha",
            "Greatest Story Ever Told",
            "Jack A Roe",
            "Wang Dang Doodle",
            "Loose Lucy",
            "Queen Jane Approximately",
            "Lazy River Road",
            "Let It Grow",
            "Don't Ease Me In"
          ],
          "set2": [
            "Bertha",
            "Greatest Story Ever Told",
            "Jack A Roe",
            "Wang Dang Doodle",
            "Loose Lucy",
            "Queen Jane Approximately",
            "Lazy River Road",
            "Let It Grow",
            "Don't Ease Me In"
          ],
          "set3": "",
          "comment": "",
          "lastupdate": "1996-01-07 00:00:00",
          "showyear": "1993",
          "showsuserid": "system"
        },
        "key_36": {
          "name": "Grateful Dead",
          "artist_key": "2",
          "shows_key": "2117",
          "showdate": "05/26/93",
          "venue": "Cal Expo",
          "city": "Sacramento",
          "state": "CA",
          "set1": [
            "Samson & Delilah",
            "Here Comes Sunshine",
            "Walkin' Blues",
            "Broken Arrow",
            "Ramble On Rose",
            "Memphis Blues",
            "Deal"
          ],
          "set2": [
            "Samson & Delilah",
            "Here Comes Sunshine",
            "Walkin' Blues",
            "Broken Arrow",
            "Ramble On Rose",
            "Memphis Blues",
            "Deal"
          ],
          "set3": "",
          "comment": "",
          "lastupdate": "1996-01-07 00:00:00",
          "showyear": "1993",
          "showsuserid": "system"
        },
        "key_37": {
          "name": "Grateful Dead",
          "artist_key": "2",
          "shows_key": "2118",
          "showdate": "05/27/93",
          "venue": "Cal Expo",
          "city": "Sacramento",
          "state": "CA",
          "set1": [
            "Shakedown Street",
            "The Same Thing",
            "Dire Wolf",
            "Beat It On Down The Line",
            "High Time",
            "When I Paint My Masterpiece",
            "Cumberland Blues",
            "Promised Land"
          ],
          "set2": [
            "Shakedown Street",
            "The Same Thing",
            "Dire Wolf",
            "Beat It On Down The Line",
            "High Time",
            "When I Paint My Masterpiece",
            "Cumberland Blues",
            "Promised Land"
          ],
          "set3": "",
          "comment": "",
          "lastupdate": "1996-01-07 00:00:00",
          "showyear": "1993",
          "showsuserid": "system"
        },
        "key_38": {
          "name": "Grateful Dead",
          "artist_key": "2",
          "shows_key": "501173",
          "showdate": "05/??/93",
          "venue": "Cal Expo",
          "city": "Sacramento",
          "state": "CA",
          "set1": "",
          "set2": "",
          "set3": "",
          "comment": "",
          "lastupdate": "2010-11-06 03:19:21",
          "showyear": "1993",
          "showsuserid": "1346"
        },
        "key_39": {
          "name": "Grateful Dead",
          "artist_key": "2",
          "shows_key": "2119",
          "showdate": "06/05/93",
          "venue": "Giants Stadium",
          "city": "East Rutherford",
          "state": "NJ",
          "set1": [
            "Hell In A Bucket",
            "Sugaree",
            "Wang Dang Doodle",
            "Peggy-O",
            "Eternity",
            "Candyman",
            "The Music Never Stopped > Easy Answers^> The Music Never Stopped"
          ],
          "set2": [
            "Hell In A Bucket",
            "Sugaree",
            "Wang Dang Doodle",
            "Peggy-O",
            "Eternity",
            "Candyman",
            "The Music Never Stopped > Easy Answers^> The Music Never Stopped"
          ],
          "set3": "",
          "comment": "Sting opened\r\n^Easy Answers, Bobby debut in the middle of Music Never Stopped !!",
          "lastupdate": "2002-03-21 00:00:00",
          "showyear": "1993",
          "showsuserid": "diana"
        },
        "key_40": {
          "name": "Grateful Dead",
          "artist_key": "2",
          "shows_key": "2120",
          "showdate": "06/06/93",
          "venue": "Giants Stadium",
          "city": "East Rutherford",
          "state": "NJ",
          "set1": [
            "Here Comes Sunshine",
            "Minglewood Blues",
            "Ramble On Rose",
            "Broken Arrow",
            "When I Paint My Masterpiece",
            "Lazy River Road",
            "Let It Grow"
          ],
          "set2": [
            "Here Comes Sunshine",
            "Minglewood Blues",
            "Ramble On Rose",
            "Broken Arrow",
            "When I Paint My Masterpiece",
            "Lazy River Road",
            "Let It Grow"
          ],
          "set3": "",
          "comment": "Sting opened",
          "lastupdate": "1996-01-07 00:00:00",
          "showyear": "1993",
          "showsuserid": "system"
        },
        "key_41": {
          "name": "Grateful Dead",
          "artist_key": "2",
          "shows_key": "2121",
          "showdate": "06/08/93",
          "venue": "The Palace",
          "city": "Auburn Hills",
          "state": "MI",
          "set1": [
            "Picasso Moon",
            "Althea",
            "Queen Jane Approximately",
            "It Must Have Been The Roses",
            "It's All Over Now",
            "Bird Song"
          ],
          "set2": [
            "Picasso Moon",
            "Althea",
            "Queen Jane Approximately",
            "It Must Have Been The Roses",
            "It's All Over Now",
            "Bird Song"
          ],
          "set3": "",
          "comment": "",
          "lastupdate": "1996-01-07 00:00:00",
          "showyear": "1993",
          "showsuserid": "system"
        },
        "key_42": {
          "name": "Grateful Dead",
          "artist_key": "2",
          "shows_key": "2122",
          "showdate": "06/09/93",
          "venue": "The Palace",
          "city": "Auburn Hills",
          "state": "MI",
          "set1": [
            "Help On The Way-> Slipknot!-> Franklin's Tower",
            "Little Red Rooster",
            "Loose Lucy",
            "Easy Answers",
            "Bertha"
          ],
          "set2": [
            "Help On The Way-> Slipknot!-> Franklin's Tower",
            "Little Red Rooster",
            "Loose Lucy",
            "Easy Answers",
            "Bertha"
          ],
          "set3": "",
          "comment": "",
          "lastupdate": "1996-01-07 00:00:00",
          "showyear": "1993",
          "showsuserid": "system"
        },
        "key_43": {
          "name": "Grateful Dead",
          "artist_key": "2",
          "shows_key": "2123",
          "showdate": "06/11/93",
          "venue": "Buckeye Lake Music Center",
          "city": "Hebron",
          "state": "OH",
          "set1": [
            "Jack Straw",
            "Foolish Heart",
            "The Same Thing",
            "Lazy River Road",
            "Just Like Tom Thumb's Blues",
            "When I Paint My Masterpiece",
            "So Many Roads",
            "Promised Land"
          ],
          "set2": [
            "Jack Straw",
            "Foolish Heart",
            "The Same Thing",
            "Lazy River Road",
            "Just Like Tom Thumb's Blues",
            "When I Paint My Masterpiece",
            "So Many Roads",
            "Promised Land"
          ],
          "set3": "",
          "comment": "Sting opened",
          "lastupdate": "1996-01-07 00:00:00",
          "showyear": "1993",
          "showsuserid": "system"
        },
        "key_44": {
          "name": "Grateful Dead",
          "artist_key": "2",
          "shows_key": "2124",
          "showdate": "06/13/93",
          "venue": "Rich Stadium",
          "city": "Orchard Park",
          "state": "NY",
          "set1": [
            "Touch Of Gray",
            "Minglewood Blues",
            "Loser",
            "Me & My Uncle-> Mexicali Blues",
            "Broken Arrow",
            "Tennessee Jed",
            "Cassidy",
            "Deal"
          ],
          "set2": [
            "Touch Of Gray",
            "Minglewood Blues",
            "Loser",
            "Me & My Uncle-> Mexicali Blues",
            "Broken Arrow",
            "Tennessee Jed",
            "Cassidy",
            "Deal"
          ],
          "set3": "",
          "comment": "Sting opened",
          "lastupdate": "1996-01-07 00:00:00",
          "showyear": "1993",
          "showsuserid": "hamilton"
        },
        "key_45": {
          "name": "Grateful Dead",
          "artist_key": "2",
          "shows_key": "2125",
          "showdate": "06/15/93",
          "venue": "Freedom Hall",
          "city": "Louisville",
          "state": "KY",
          "set1": [
            "Feel Like A Stranger",
            "Althea",
            "Wang Dang Doodle",
            "Friend Of The Devil",
            "Desolation Row",
            "Don't Ease Me In"
          ],
          "set2": [
            "Feel Like A Stranger",
            "Althea",
            "Wang Dang Doodle",
            "Friend Of The Devil",
            "Desolation Row",
            "Don't Ease Me In"
          ],
          "set3": "",
          "comment": "",
          "lastupdate": "1996-01-07 00:00:00",
          "showyear": "1993",
          "showsuserid": "system"
        },
        "key_46": {
          "name": "Grateful Dead",
          "artist_key": "2",
          "shows_key": "2126",
          "showdate": "06/16/93",
          "venue": "Freedom Hall",
          "city": "Louisville",
          "state": "KY",
          "set1": [
            "Cold Rain & Snow",
            "The Same Thing",
            "Peggy-O",
            "Just Like Tom Thumb's Blues",
            "Ramble On Rose",
            "Eternity",
            "Brown Eyed Women",
            "Easy Answers",
            "Don't Ease Me In"
          ],
          "set2": [
            "Cold Rain & Snow",
            "The Same Thing",
            "Peggy-O",
            "Just Like Tom Thumb's Blues",
            "Ramble On Rose",
            "Eternity",
            "Brown Eyed Women",
            "Easy Answers",
            "Don't Ease Me In"
          ],
          "set3": "",
          "comment": "",
          "lastupdate": "1996-01-07 00:00:00",
          "showyear": "1993",
          "showsuserid": "system"
        },
        "key_47": {
          "name": "Grateful Dead",
          "artist_key": "2",
          "shows_key": "2127",
          "showdate": "06/18/93",
          "venue": "Soldier Field",
          "city": "Chicago",
          "state": "IL",
          "set1": [
            "Hell In A Bucket",
            "Sugaree",
            "Walkin' Blues",
            "Stagger Lee",
            "Queen Jane Approximately",
            "Row Jimmy",
            "The Music Never Stopped"
          ],
          "set2": [
            "Hell In A Bucket",
            "Sugaree",
            "Walkin' Blues",
            "Stagger Lee",
            "Queen Jane Approximately",
            "Row Jimmy",
            "The Music Never Stopped"
          ],
          "set3": "",
          "comment": "Sting opened",
          "lastupdate": "1996-01-07 00:00:00",
          "showyear": "1993",
          "showsuserid": "system"
        },
        "key_48": {
          "name": "Grateful Dead",
          "artist_key": "2",
          "shows_key": "2128",
          "showdate": "06/19/93",
          "venue": "Soldier Field",
          "city": "Chicago",
          "state": "IL",
          "set1": [
            "Touch Of Grey",
            "Little Red Rooster",
            "Lazy River Road",
            "Me & My Uncle-> Maggie's Farm",
            "Broken Arrow",
            "Deal"
          ],
          "set2": [
            "Touch Of Grey",
            "Little Red Rooster",
            "Lazy River Road",
            "Me & My Uncle-> Maggie's Farm",
            "Broken Arrow",
            "Deal"
          ],
          "set3": "",
          "comment": "Sting opened",
          "lastupdate": "1996-01-07 00:00:00",
          "showyear": "1993",
          "showsuserid": "hamilton"
        },
        "key_49": {
          "name": "Grateful Dead",
          "artist_key": "2",
          "shows_key": "2129",
          "showdate": "06/21/93",
          "venue": "Deer Creek Music Center",
          "city": "Noblesville",
          "state": "IN",
          "set1": [
            "Jack Straw",
            "Friend Of The Devil",
            "Spoonful",
            "Jack A Roe",
            "Black Throated Wind",
            "Loose Lucy",
            "Eternity",
            "So Many Roads",
            "Promised Land"
          ],
          "set2": [
            "Jack Straw",
            "Friend Of The Devil",
            "Spoonful",
            "Jack A Roe",
            "Black Throated Wind",
            "Loose Lucy",
            "Eternity",
            "So Many Roads",
            "Promised Land"
          ],
          "set3": "",
          "comment": "",
          "lastupdate": "2003-02-20 00:00:00",
          "showyear": "1993",
          "showsuserid": "hamilton"
        },
        "key_50": {
          "name": "Grateful Dead",
          "artist_key": "2",
          "shows_key": "2130",
          "showdate": "06/22/93",
          "venue": "Deer Creek Music Center",
          "city": "Noblesville",
          "state": "IN",
          "set1": [
            "Help On The Way-> Slipknot!-> Franklin's Tower",
            "Wang Dang Doodle",
            "High Time",
            "It's All Over Now",
            "Just Like Tom Thumb's Blues",
            "Tennessee Jed",
            "Picasso Moon"
          ],
          "set2": [
            "Help On The Way-> Slipknot!-> Franklin's Tower",
            "Wang Dang Doodle",
            "High Time",
            "It's All Over Now",
            "Just Like Tom Thumb's Blues",
            "Tennessee Jed",
            "Picasso Moon"
          ],
          "set3": "",
          "comment": "Sting opened",
          "lastupdate": "1996-01-07 00:00:00",
          "showyear": "1993",
          "showsuserid": "system"
        },
        "key_51": {
          "name": "Grateful Dead",
          "artist_key": "2",
          "shows_key": "2131",
          "showdate": "06/23/93",
          "venue": "Deer Creek Music Center",
          "city": "Noblesville",
          "state": "IN",
          "set1": [
            "Let The Good Times Roll",
            "Hell In A Bucket",
            "Lazy River Road",
            "Memphis Blues",
            "Loser",
            "Broken Arrow",
            "Easy Answers"
          ],
          "set2": [
            "Let The Good Times Roll",
            "Hell In A Bucket",
            "Lazy River Road",
            "Memphis Blues",
            "Loser",
            "Broken Arrow",
            "Easy Answers"
          ],
          "set3": "",
          "comment": "*one verse, very short. Sting opened",
          "lastupdate": "1996-01-07 00:00:00",
          "showyear": "1993",
          "showsuserid": "system"
        },
        "key_52": {
          "name": "Grateful Dead",
          "artist_key": "2",
          "shows_key": "406474",
          "showdate": "06/25/93",
          "venue": "Robert F. Kennedy Stadium",
          "city": "Washington",
          "state": "DC",
          "set1": [
            "Soundcheck:\n\nAint That Peculiar\nNew Speedway Boogie\nLucy In The Sky With Diamonds"
          ],
          "set2": [
            "Soundcheck:\n\nAint That Peculiar\nNew Speedway Boogie\nLucy In The Sky With Diamonds"
          ],
          "set3": [
            "Soundcheck:\n\nAint That Peculiar\nNew Speedway Boogie\nLucy In The Sky With Diamonds"
          ],
          "comment": "",
          "lastupdate": "2008-04-09 06:52:40",
          "showyear": "1993",
          "showsuserid": "Wharfrat73"
        },
        "key_53": {
          "name": "Grateful Dead",
          "artist_key": "2",
          "shows_key": "2133",
          "showdate": "06/26/93",
          "venue": "Robert F. Kennedy Stadium",
          "city": "Washington",
          "state": "DC",
          "set1": [
            "Feel Like A Stranger",
            "Brown Eyed Women",
            "Spoonful",
            "Lazy River Road",
            "When I Paint My Masterpiece",
            "Bird Song",
            "Picasso Moon"
          ],
          "set2": [
            "Feel Like A Stranger",
            "Brown Eyed Women",
            "Spoonful",
            "Lazy River Road",
            "When I Paint My Masterpiece",
            "Bird Song",
            "Picasso Moon"
          ],
          "set3": "",
          "comment": "",
          "lastupdate": "1996-01-07 00:00:00",
          "showyear": "1993",
          "showsuserid": "system"
        },
        "key_54": {
          "name": "Grateful Dead",
          "artist_key": "2",
          "shows_key": "2134",
          "showdate": "08/21/93",
          "venue": "Autzen Stadium, University of Oregon",
          "city": "Eugene",
          "state": "OR",
          "set1": [
            "Here Comes Sunshine",
            "Walkin' Blues",
            "Lazy River Road",
            "Queen Jane Approximately",
            "Bird Song",
            "Promised Land"
          ],
          "set2": [
            "Here Comes Sunshine",
            "Walkin' Blues",
            "Lazy River Road",
            "Queen Jane Approximately",
            "Bird Song",
            "Promised Land"
          ],
          "set3": "",
          "comment": "Indigo Girls Opened; *with Huey Lewis on harmonica",
          "lastupdate": "2010-05-27 16:07:12",
          "showyear": "1993",
          "showsuserid": "MusicNevStopped"
        },
        "key_55": {
          "name": "Grateful Dead",
          "artist_key": "2",
          "shows_key": "2135",
          "showdate": "08/22/93",
          "venue": "Autzen Stadium, University of Oregon",
          "city": "Eugene",
          "state": "OR",
          "set1": [
            "Jack Straw-> Bertha",
            "Little Red Rooster",
            "Broken Arrow",
            "Althea",
            "When I Paint My Masterpiece",
            "Tennessee Jed",
            "The Music Never Stopped"
          ],
          "set2": [
            "Jack Straw-> Bertha",
            "Little Red Rooster",
            "Broken Arrow",
            "Althea",
            "When I Paint My Masterpiece",
            "Tennessee Jed",
            "The Music Never Stopped"
          ],
          "set3": "",
          "comment": "Indigo Girls Opened",
          "lastupdate": "2010-05-27 16:48:27",
          "showyear": "1993",
          "showsuserid": "MusicNevStopped"
        },
        "key_56": {
          "name": "Grateful Dead",
          "artist_key": "2",
          "shows_key": "2136",
          "showdate": "08/25/93",
          "venue": "Shoreline Amphitheatre",
          "city": "Mountain View",
          "state": "CA",
          "set1": [
            "Touch Of Gray",
            "Greatest Story Ever Told",
            "Peggy-O",
            "The Same Thing",
            "Friend Of The Devil",
            "Easy Answers",
            "So Many Roads",
            "Promised Land"
          ],
          "set2": [
            "Touch Of Gray",
            "Greatest Story Ever Told",
            "Peggy-O",
            "The Same Thing",
            "Friend Of The Devil",
            "Easy Answers",
            "So Many Roads",
            "Promised Land"
          ],
          "set3": "",
          "comment": "",
          "lastupdate": "1996-01-07 00:00:00",
          "showyear": "1993",
          "showsuserid": "system"
        },
        "key_57": {
          "name": "Grateful Dead",
          "artist_key": "2",
          "shows_key": "2137",
          "showdate": "08/26/93",
          "venue": "Shoreline Amphitheatre",
          "city": "Mountain View",
          "state": "CA",
          "set1": [
            "Hell In A Bucket-> Bertha",
            "Wang Dang Doodle",
            "Candyman",
            "Just Like Tom Thumb's Blues",
            "Let It Grow-> Don't Ease Me In"
          ],
          "set2": [
            "Hell In A Bucket-> Bertha",
            "Wang Dang Doodle",
            "Candyman",
            "Just Like Tom Thumb's Blues",
            "Let It Grow-> Don't Ease Me In"
          ],
          "set3": "",
          "comment": "",
          "lastupdate": "1996-01-07 00:00:00",
          "showyear": "1993",
          "showsuserid": "system"
        },
        "key_58": {
          "name": "Grateful Dead",
          "artist_key": "2",
          "shows_key": "2138",
          "showdate": "08/27/93",
          "venue": "Shoreline Amphitheatre",
          "city": "Mountain View",
          "state": "CA",
          "set1": [
            "Mississippi Half Step",
            "Minglewood Blues",
            "Lazy River Road",
            "Broken Arrow",
            "Eternity",
            "Loose Lucy",
            "Johnny B. Goode"
          ],
          "set2": [
            "Mississippi Half Step",
            "Minglewood Blues",
            "Lazy River Road",
            "Broken Arrow",
            "Eternity",
            "Loose Lucy",
            "Johnny B. Goode"
          ],
          "set3": "",
          "comment": "",
          "lastupdate": "1996-01-07 00:00:00",
          "showyear": "1993",
          "showsuserid": "system"
        },
        "key_59": {
          "name": "Grateful Dead",
          "artist_key": "2",
          "shows_key": "2139",
          "showdate": "09/08/93",
          "venue": "Richfield Coliseum",
          "city": "Richfield",
          "state": "OH",
          "set1": [
            "Feel Like A Stranger",
            "Peggy-O",
            "Wang Dang Doodle",
            "Brown Eyed Women",
            "When I Paint My Masterpiece",
            "Liberty",
            "Johnny B. Goode"
          ],
          "set2": [
            "Feel Like A Stranger",
            "Peggy-O",
            "Wang Dang Doodle",
            "Brown Eyed Women",
            "When I Paint My Masterpiece",
            "Liberty",
            "Johnny B. Goode"
          ],
          "set3": "",
          "comment": "",
          "lastupdate": "1996-01-07 00:00:00",
          "showyear": "1993",
          "showsuserid": "system"
        },
        "key_60": {
          "name": "Grateful Dead",
          "artist_key": "2",
          "shows_key": "2140",
          "showdate": "09/09/93",
          "venue": "Richfield Coliseum",
          "city": "Richfield",
          "state": "OH",
          "set1": [
            "Here Comes Sunshine",
            "Spoonful",
            "Stagger Lee",
            "Queen Jane Approximately",
            "Tennessee Jed",
            "Easy Answers",
            "Don't Ease Me In"
          ],
          "set2": [
            "Here Comes Sunshine",
            "Spoonful",
            "Stagger Lee",
            "Queen Jane Approximately",
            "Tennessee Jed",
            "Easy Answers",
            "Don't Ease Me In"
          ],
          "set3": "",
          "comment": "",
          "lastupdate": "1996-01-07 00:00:00",
          "showyear": "1993",
          "showsuserid": "system"
        },
        "key_61": {
          "name": "Grateful Dead",
          "artist_key": "2",
          "shows_key": "2141",
          "showdate": "09/10/93",
          "venue": "Richfield Coliseum",
          "city": "Richfield",
          "state": "OH",
          "set1": [
            "Jack Straw",
            "They Love Each Other",
            "Little Red Rooster",
            "Just Like Tom Thumb's Blues",
            "Ramble On Rose",
            "Black Throated Wind",
            "Bertha"
          ],
          "set2": [
            "Jack Straw",
            "They Love Each Other",
            "Little Red Rooster",
            "Just Like Tom Thumb's Blues",
            "Ramble On Rose",
            "Black Throated Wind",
            "Bertha"
          ],
          "set3": "",
          "comment": "",
          "lastupdate": "1996-01-07 00:00:00",
          "showyear": "1993",
          "showsuserid": "system"
        },
        "key_62": {
          "name": "Grateful Dead",
          "artist_key": "2",
          "shows_key": "2142",
          "showdate": "09/12/93",
          "venue": "The Spectrum",
          "city": "Philadelphia",
          "state": "PA",
          "set1": [
            "Touch Of Gray",
            "Walkin' Blues",
            "Loser",
            "Desolation Row",
            "Cumberland Blues",
            "Eternity",
            "Loose Lucy",
            "Picasso Moon"
          ],
          "set2": [
            "Touch Of Gray",
            "Walkin' Blues",
            "Loser",
            "Desolation Row",
            "Cumberland Blues",
            "Eternity",
            "Loose Lucy",
            "Picasso Moon"
          ],
          "set3": "",
          "comment": "",
          "lastupdate": "1996-01-07 00:00:00",
          "showyear": "1993",
          "showsuserid": "system"
        },
        "key_63": {
          "name": "Grateful Dead",
          "artist_key": "2",
          "shows_key": "2143",
          "showdate": "09/13/93",
          "venue": "The Spectrum",
          "city": "Philadelphia",
          "state": "PA",
          "set1": [
            "Hell In A Bucket",
            "Jack A Roe",
            "The Same Thing",
            "Stagger Lee",
            "Black Throated Wind",
            "Dire Wolf",
            "Let It Grow"
          ],
          "set2": [
            "Hell In A Bucket",
            "Jack A Roe",
            "The Same Thing",
            "Stagger Lee",
            "Black Throated Wind",
            "Dire Wolf",
            "Let It Grow"
          ],
          "set3": "",
          "comment": "*Tubular Bells Space",
          "lastupdate": "1996-01-07 00:00:00",
          "showyear": "1993",
          "showsuserid": "system"
        },
        "key_64": {
          "name": "Grateful Dead",
          "artist_key": "2",
          "shows_key": "2144",
          "showdate": "09/14/93",
          "venue": "The Spectrum",
          "city": "Philadelphia",
          "state": "PA",
          "set1": [
            "Help On The Way-> Slipknot!-> Franklin's Tower",
            "Minglewood Blues",
            "Broken Arrow",
            "Brown Eyed Women",
            "When I Paint My Masterpiece",
            "Bird Song"
          ],
          "set2": [
            "Help On The Way-> Slipknot!-> Franklin's Tower",
            "Minglewood Blues",
            "Broken Arrow",
            "Brown Eyed Women",
            "When I Paint My Masterpiece",
            "Bird Song"
          ],
          "set3": "",
          "comment": "",
          "lastupdate": "1996-01-07 00:00:00",
          "showyear": "1993",
          "showsuserid": "system"
        },
        "key_65": {
          "name": "Grateful Dead",
          "artist_key": "2",
          "shows_key": "2149",
          "showdate": "09/16/93",
          "venue": "Madison Square Garden",
          "city": "New York",
          "state": "NY",
          "set1": [
            "Rain",
            "Shakedown Street",
            "Wang Dang Doodle",
            "Cold Rain & Snow",
            "Queen Jane Approximately",
            "Althea",
            "Eternity",
            "Don't Ease Me In"
          ],
          "set2": [
            "Rain",
            "Shakedown Street",
            "Wang Dang Doodle",
            "Cold Rain & Snow",
            "Queen Jane Approximately",
            "Althea",
            "Eternity",
            "Don't Ease Me In"
          ],
          "set3": "",
          "comment": "",
          "lastupdate": "2002-05-28 00:00:00",
          "showyear": "1993",
          "showsuserid": "hamilton"
        },
        "key_66": {
          "name": "Grateful Dead",
          "artist_key": "2",
          "shows_key": "2160",
          "showdate": "09/17/93",
          "venue": "Madison Square Garden",
          "city": "New York",
          "state": "NY",
          "set1": [
            "Jack Straw",
            "Sugaree",
            "Walkin' Blues",
            "Ramble On Rose",
            "Just Like Just Like Tom Thumb's Blues's Blues",
            "Easy Answers",
            "Lazy River Road",
            "Promised Land"
          ],
          "set2": [
            "Jack Straw",
            "Sugaree",
            "Walkin' Blues",
            "Ramble On Rose",
            "Just Like Just Like Tom Thumb's Blues's Blues",
            "Easy Answers",
            "Lazy River Road",
            "Promised Land"
          ],
          "set3": "",
          "comment": "",
          "lastupdate": "2004-09-06 00:00:00",
          "showyear": "1993",
          "showsuserid": "system"
        },
        "key_67": {
          "name": "Grateful Dead",
          "artist_key": "2",
          "shows_key": "2150",
          "showdate": "09/18/93",
          "venue": "Madison Square Garden",
          "city": "New York",
          "state": "NY",
          "set1": [
            "Mississippi Half Step-> Little Red Rooster",
            "Althea",
            "When I Paint My Masterpiece",
            "Brown Eyed Women",
            "Cassidy",
            "Loose Lucy"
          ],
          "set2": [
            "Mississippi Half Step-> Little Red Rooster",
            "Althea",
            "When I Paint My Masterpiece",
            "Brown Eyed Women",
            "Cassidy",
            "Loose Lucy"
          ],
          "set3": "",
          "comment": "",
          "lastupdate": "2004-09-06 00:00:00",
          "showyear": "1993",
          "showsuserid": "system"
        },
        "key_68": {
          "name": "Grateful Dead",
          "artist_key": "2",
          "shows_key": "2151",
          "showdate": "09/20/93",
          "venue": "Madison Square Garden",
          "city": "New York",
          "state": "NY",
          "set1": [
            "Touch Of Grey",
            "Greatest Story Ever Told",
            "Row Jimmy",
            "The Race is On",
            "Dire Wolf",
            "Memphis Blues",
            "Lazy River Road",
            "Johnny B. Goode"
          ],
          "set2": [
            "Touch Of Grey",
            "Greatest Story Ever Told",
            "Row Jimmy",
            "The Race is On",
            "Dire Wolf",
            "Memphis Blues",
            "Lazy River Road",
            "Johnny B. Goode"
          ],
          "set3": "",
          "comment": "* w/Edie Brickell",
          "lastupdate": "2004-09-06 00:00:00",
          "showyear": "1993",
          "showsuserid": "hamilton"
        },
        "key_69": {
          "name": "Grateful Dead",
          "artist_key": "2",
          "shows_key": "2152",
          "showdate": "09/21/93",
          "venue": "Madison Square Garden",
          "city": "New York",
          "state": "NY",
          "set1": [
            "Hell In A Bucket",
            "Bertha",
            "The Same Thing",
            "Peggy-O",
            "Broken Arrow",
            "Tennessee Jed",
            "The Music Never Stopped"
          ],
          "set2": [
            "Hell In A Bucket",
            "Bertha",
            "The Same Thing",
            "Peggy-O",
            "Broken Arrow",
            "Tennessee Jed",
            "The Music Never Stopped"
          ],
          "set3": "",
          "comment": "",
          "lastupdate": "2004-09-06 00:00:00",
          "showyear": "1993",
          "showsuserid": "system"
        },
        "key_70": {
          "name": "Grateful Dead",
          "artist_key": "2",
          "shows_key": "2153",
          "showdate": "09/22/93",
          "venue": "Madison Square Garden",
          "city": "New York",
          "state": "NY",
          "set1": [
            "Help On The Way-> Slipknot!-> Franklin's Tower",
            "Minglewood Blues",
            "Ramble On Rose",
            "When I Paint My Masterpiece",
            "Bird Song"
          ],
          "set2": [
            "Help On The Way-> Slipknot!-> Franklin's Tower",
            "Minglewood Blues",
            "Ramble On Rose",
            "When I Paint My Masterpiece",
            "Bird Song"
          ],
          "set3": "",
          "comment": "David Murray on sax during Birdsong and entire second set, * w/ James Cotton on harmonica",
          "lastupdate": "2004-09-06 00:00:00",
          "showyear": "1993",
          "showsuserid": "system"
        },
        "key_71": {
          "name": "Grateful Dead",
          "artist_key": "2",
          "shows_key": "2154",
          "showdate": "09/24/93",
          "venue": "Boston Garden",
          "city": "Boston",
          "state": "MA",
          "set1": [
            "Feel Like A Stranger",
            "Jack A Roe",
            "Little Red Rooster",
            "Stagger Lee",
            "Queen Jane Approximately",
            "Loose Lucy",
            "Picasso Moon"
          ],
          "set2": [
            "Feel Like A Stranger",
            "Jack A Roe",
            "Little Red Rooster",
            "Stagger Lee",
            "Queen Jane Approximately",
            "Loose Lucy",
            "Picasso Moon"
          ],
          "set3": "",
          "comment": "",
          "lastupdate": "1996-01-07 00:00:00",
          "showyear": "1993",
          "showsuserid": "system"
        },
        "key_72": {
          "name": "Grateful Dead",
          "artist_key": "2",
          "shows_key": "2155",
          "showdate": "09/25/93",
          "venue": "Boston Garden",
          "city": "Boston",
          "state": "MA",
          "set1": [
            "Cold Rain & Snow",
            "Wang Dang Doodle",
            "Loser",
            "It's All Over Now",
            "Just Like Tom Thumb's Blues",
            "Cassidy",
            "Deal"
          ],
          "set2": [
            "Cold Rain & Snow",
            "Wang Dang Doodle",
            "Loser",
            "It's All Over Now",
            "Just Like Tom Thumb's Blues",
            "Cassidy",
            "Deal"
          ],
          "set3": "",
          "comment": "",
          "lastupdate": "1996-01-07 00:00:00",
          "showyear": "1993",
          "showsuserid": "system"
        },
        "key_73": {
          "name": "Grateful Dead",
          "artist_key": "2",
          "shows_key": "2156",
          "showdate": "09/26/93",
          "venue": "Boston Garden",
          "city": "Boston",
          "state": "MA",
          "set1": [
            "Jack Straw",
            "Althea",
            "Walkin' Blues",
            "High Time",
            "Me & My Uncle-> Maggie's Farm",
            "Lazy River Road",
            "Easy Answers",
            "Don't Ease Me In"
          ],
          "set2": [
            "Jack Straw",
            "Althea",
            "Walkin' Blues",
            "High Time",
            "Me & My Uncle-> Maggie's Farm",
            "Lazy River Road",
            "Easy Answers",
            "Don't Ease Me In"
          ],
          "set3": "",
          "comment": "",
          "lastupdate": "2001-01-04 00:00:00",
          "showyear": "1993",
          "showsuserid": "system"
        },
        "key_74": {
          "name": "Grateful Dead",
          "artist_key": "2",
          "shows_key": "2157",
          "showdate": "09/28/93",
          "venue": "Boston Garden",
          "city": "Boston",
          "state": "MA",
          "set1": [
            "Touch Of Gray",
            "Greatest Story Ever Told",
            "Row Jimmy",
            "Minglewood Blues",
            "So Many Roads",
            "When I Paint My Masterpiece",
            "Bird Song"
          ],
          "set2": [
            "Touch Of Gray",
            "Greatest Story Ever Told",
            "Row Jimmy",
            "Minglewood Blues",
            "So Many Roads",
            "When I Paint My Masterpiece",
            "Bird Song"
          ],
          "set3": "",
          "comment": "",
          "lastupdate": "1996-01-07 00:00:00",
          "showyear": "1993",
          "showsuserid": "hamilton"
        },
        "key_75": {
          "name": "Grateful Dead",
          "artist_key": "2",
          "shows_key": "2158",
          "showdate": "09/29/93",
          "venue": "Boston Garden",
          "city": "Boston",
          "state": "MA",
          "set1": [
            "Hell In A Bucket",
            "Sugaree",
            "The Same Thing",
            "Loose Lucy",
            "Black Throated Wind",
            "Dire Wolf",
            "Eternity",
            "Tennessee Jed"
          ],
          "set2": [
            "Hell In A Bucket",
            "Sugaree",
            "The Same Thing",
            "Loose Lucy",
            "Black Throated Wind",
            "Dire Wolf",
            "Eternity",
            "Tennessee Jed"
          ],
          "set3": "",
          "comment": "",
          "lastupdate": "1996-01-07 00:00:00",
          "showyear": "1993",
          "showsuserid": "system"
        },
        "key_76": {
          "name": "Grateful Dead",
          "artist_key": "2",
          "shows_key": "2355",
          "showdate": "09/30/93",
          "venue": "Boston Garden",
          "city": "Boston",
          "state": "MA",
          "set1": [
            "Here Comes Sunshine",
            "Spoonful",
            "Candyman",
            "El Paso*",
            "Broken Arrow",
            "Stagger Lee",
            "Easy Answers-> Don't Ease Me In"
          ],
          "set2": [
            "Here Comes Sunshine",
            "Spoonful",
            "Candyman",
            "El Paso*",
            "Broken Arrow",
            "Stagger Lee",
            "Easy Answers-> Don't Ease Me In"
          ],
          "set3": "",
          "comment": "* Weir on acoustic",
          "lastupdate": "2002-06-13 00:00:00",
          "showyear": "1993",
          "showsuserid": "system"
        },
        "key_77": {
          "name": "Grateful Dead",
          "artist_key": "2",
          "shows_key": "2161",
          "showdate": "12/08/93",
          "venue": "Sports Arena",
          "city": "Los Angeles",
          "state": "CA",
          "set1": [
            "Rain-> Let The Good Times Roll",
            "I'm A King Bee",
            "Stagger Lee",
            "Me & My Uncle-> Mexicali Blues",
            "Lazy River Road",
            "When I Paint My Masterpiece",
            "Row Jimmy",
            "Picasso Moon"
          ],
          "set2": [
            "Rain-> Let The Good Times Roll",
            "I'm A King Bee",
            "Stagger Lee",
            "Me & My Uncle-> Mexicali Blues",
            "Lazy River Road",
            "When I Paint My Masterpiece",
            "Row Jimmy",
            "Picasso Moon"
          ],
          "set3": "",
          "comment": "",
          "lastupdate": "1996-01-07 00:00:00",
          "showyear": "1993",
          "showsuserid": "system"
        },
        "key_78": {
          "name": "Grateful Dead",
          "artist_key": "2",
          "shows_key": "2162",
          "showdate": "12/09/93",
          "venue": "Sports Arena",
          "city": "Los Angeles",
          "state": "CA",
          "set1": [
            "Touch Of Grey",
            "Wang Dang Doodle",
            "Peggy-O",
            "Queen",
            "Broken Arrow",
            "Loose Lucy",
            "Easy Answers",
            "Don't Ease Me In"
          ],
          "set2": [
            "Touch Of Grey",
            "Wang Dang Doodle",
            "Peggy-O",
            "Queen",
            "Broken Arrow",
            "Loose Lucy",
            "Easy Answers",
            "Don't Ease Me In"
          ],
          "set3": "",
          "comment": "* w/ Airto, Flora Purim - vocals, + Ornette Coleman - alto sax",
          "lastupdate": "2004-09-03 22:13:32",
          "showyear": "1993",
          "showsuserid": "hamilton"
        },
        "key_79": {
          "name": "Grateful Dead",
          "artist_key": "2",
          "shows_key": "2163",
          "showdate": "12/10/93",
          "venue": "Sports Arena",
          "city": "Los Angeles",
          "state": "CA",
          "set1": [
            "Hell In A Bucket",
            "Loser",
            "Little Red Rooster",
            "So Many Roads",
            "Just Like Tom Thumb's Blues",
            "Eternity",
            "Bertha"
          ],
          "set2": [
            "Hell In A Bucket",
            "Loser",
            "Little Red Rooster",
            "So Many Roads",
            "Just Like Tom Thumb's Blues",
            "Eternity",
            "Bertha"
          ],
          "set3": "",
          "comment": "Branford Marsalis played saxophones throughout the entire show (doesn't play on Corina).",
          "lastupdate": "1996-01-07 00:00:00",
          "showyear": "1993",
          "showsuserid": "toma"
        },
        "key_80": {
          "name": "Grateful Dead",
          "artist_key": "2",
          "shows_key": "2164",
          "showdate": "12/12/93",
          "venue": "San Diego Sports Arena",
          "city": "San Diego",
          "state": "CA",
          "set1": [
            "Cold Rain & Snow",
            "Minglewood Blues Blues",
            "Friend Of The Devil",
            "Black Throated Wind",
            "Althea",
            "Beat It On Down The Line (5 beats)",
            "Bird Song",
            "Promised Land"
          ],
          "set2": [
            "Cold Rain & Snow",
            "Minglewood Blues Blues",
            "Friend Of The Devil",
            "Black Throated Wind",
            "Althea",
            "Beat It On Down The Line (5 beats)",
            "Bird Song",
            "Promised Land"
          ],
          "set3": "",
          "comment": "",
          "lastupdate": "1996-01-07 00:00:00",
          "showyear": "1993",
          "showsuserid": "system"
        },
        "key_81": {
          "name": "Grateful Dead",
          "artist_key": "2",
          "shows_key": "2165",
          "showdate": "12/13/93",
          "venue": "San Diego Sports Arena",
          "city": "San Diego",
          "state": "CA",
          "set1": [
            "Soundcheck:\r\n\r\nPiano and drum machine",
            "Mississippi Half Step",
            "I Fought The Law",
            "Mississippi Half Step"
          ],
          "set2": [
            "Soundcheck:\r\n\r\nPiano and drum machine",
            "Mississippi Half Step",
            "I Fought The Law",
            "Mississippi Half Step"
          ],
          "set3": [
            "Soundcheck:\r\n\r\nPiano and drum machine",
            "Mississippi Half Step",
            "I Fought The Law",
            "Mississippi Half Step"
          ],
          "comment": "",
          "lastupdate": "2008-04-12 00:00:00",
          "showyear": "1993",
          "showsuserid": "system"
        },
        "key_82": {
          "name": "Grateful Dead",
          "artist_key": "2",
          "shows_key": "2166",
          "showdate": "12/17/93",
          "venue": "Oakland Coliseum Arena",
          "city": "Oakland",
          "state": "CA",
          "set1": [
            "Here Comes Sunshine",
            "Walkin' Blues",
            "Jack-A-Roe",
            "Desolation Row",
            "Ramble On Rose",
            "Broken Arrow",
            "Lazy River Road",
            "The Music Never Stopped"
          ],
          "set2": [
            "Here Comes Sunshine",
            "Walkin' Blues",
            "Jack-A-Roe",
            "Desolation Row",
            "Ramble On Rose",
            "Broken Arrow",
            "Lazy River Road",
            "The Music Never Stopped"
          ],
          "set3": "",
          "comment": "",
          "lastupdate": "2002-01-31 00:00:00",
          "showyear": "1993",
          "showsuserid": "hamilton"
        },
        "key_83": {
          "name": "Grateful Dead",
          "artist_key": "2",
          "shows_key": "2167",
          "showdate": "12/18/93",
          "venue": "Oakland-Alameda County Coliseum",
          "city": "Oakland",
          "state": "CA",
          "set1": [
            "Jack Straw",
            "They Love Each Other",
            "Spoonful",
            "Friend Of The Devil",
            "When I Paint My Masterpiece",
            "Tennessee Jed",
            "Easy Answers",
            "Deal"
          ],
          "set2": [
            "Jack Straw",
            "They Love Each Other",
            "Spoonful",
            "Friend Of The Devil",
            "When I Paint My Masterpiece",
            "Tennessee Jed",
            "Easy Answers",
            "Deal"
          ],
          "set3": "",
          "comment": "",
          "lastupdate": "1996-01-07 00:00:00",
          "showyear": "1993",
          "showsuserid": "system"
        },
        "key_84": {
          "name": "Grateful Dead",
          "artist_key": "2",
          "shows_key": "2168",
          "showdate": "12/19/93",
          "venue": "Oakland-Alameda County Coliseum",
          "city": "Oakland",
          "state": "CA",
          "set1": [
            "Bertha",
            "Wang Dang Doodle",
            "Loose Lucy",
            "Queen Jane Approximately",
            "Roses",
            "It's All Over Now",
            "Bird Song",
            "Promised Land"
          ],
          "set2": [
            "Bertha",
            "Wang Dang Doodle",
            "Loose Lucy",
            "Queen Jane Approximately",
            "Roses",
            "It's All Over Now",
            "Bird Song",
            "Promised Land"
          ],
          "set3": "",
          "comment": "",
          "lastupdate": "1996-01-07 00:00:00",
          "showyear": "1993",
          "showsuserid": "system"
        },
        "key_85": {
          "name": "Grateful Dead",
          "artist_key": "2",
          "shows_key": "51802",
          "showdate": "??/??/93",
          "venue": "Studio - So Many Roads Outtakes",
          "city": "San Francisco",
          "state": "CA",
          "set1": [
            "Doin' That Rag\r\nCandyman\r\nKC Moan\r\nFeel Like a Stranger\r\nTill the Morning Comes\r\nCold Rain & Snow\r\nChina Cat Sunflower\r\nI Know You Rider\r\nDrums > Good Lovin' > Drums > Good Lovin'\r\nSugar Magnolia"
          ],
          "set2": [
            "Doin' That Rag\r\nCandyman\r\nKC Moan\r\nFeel Like a Stranger\r\nTill the Morning Comes\r\nCold Rain & Snow\r\nChina Cat Sunflower\r\nI Know You Rider\r\nDrums > Good Lovin' > Drums > Good Lovin'\r\nSugar Magnolia"
          ],
          "set3": "",
          "comment": "?10-06-79 Spectrum - Philadelphia, PA\r\n?09-28-90 Rehearsal",
          "lastupdate": "2006-10-02 07:47:50",
          "showyear": "1993",
          "showsuserid": "brojay"
        },
        "key_86": {
          "name": "Grateful Dead",
          "artist_key": "2",
          "shows_key": "164957",
          "showdate": "??/??/93",
          "venue": "Club Front Studio",
          "city": "Palo Alto",
          "state": "CA",
          "set1": "",
          "set2": "",
          "set3": "",
          "comment": "So Many Roads Rehearsal. Jerry Teaches the Band to Play the song.",
          "lastupdate": "2006-02-23 19:12:46",
          "showyear": "1993",
          "showsuserid": "arturion2000"
        },
        "key_87": {
          "name": "Grateful Dead",
          "artist_key": "2",
          "shows_key": "519849",
          "showdate": "??/??/93",
          "venue": "VH1 Truckin' With The Dead",
          "city": "Various",
          "state": "Various",
          "set1": "",
          "set2": "",
          "set3": "",
          "comment": "The Grateful Dead phenonenom, as told by Bob Weir, Mickey Hart and Jerry Garcia. Excellent production values make this an interesting and entertaining video. Mickey and Bobby are both interviewed solely for this VH1 project. The Garcia interview is from MTV in 1987.",
          "lastupdate": "2011-06-03 12:11:13",
          "showyear": "1993",
          "showsuserid": "acady_DVD"
        }
      },
      "status": "success"
    }
  }
}