{
  "db_rest": {
    "@generator": "zend",
    "@version": "1.0",
    "fetchArtistYear": {
      "shows": {
        "key_0": {
          "name": "Grateful Dead",
          "artist_key": "2",
          "shows_key": "296154",
          "showdate": "02/24/94",
          "venue": "Oakland County Coliseum*",
          "city": "Oakland",
          "state": "CA",
          "set1": [
            "It's A Man's World (take 1)\r\nIt's A Man's World (take 2)\r\nIt's A Man's World (take 3)\r\nBob! Bob!...Bob Do It >\r\nJerry slipknotian noodles\r\nSlipknot >\r\nFranklin's Tower\r\nmessing around >\r\nBlues jam(schoolgirl?)"
          ],
          "set2": "",
          "set3": "",
          "comment": "*this is the date and location given.\r\n \r\nStrange listen.\r\n\r\nWorth it for the Franklin's Tower which Jerry refuses to let die,\r\notherwise its pretty painful.\r\n\r\nThere was a decent amount of hiss which given the rehearsal\r\nnature of the recording is distraction.\r\nXNoise did an adequate job at minimal settings.\r\n\r\nThanks to M.Townshend for sharing his cassette source.",
          "lastupdate": "2006-01-19 15:21:45",
          "showyear": "1994",
          "showsuserid": "sat420"
        },
        "key_1": {
          "name": "Grateful Dead",
          "artist_key": "2",
          "shows_key": "2252",
          "showdate": "02/25/94",
          "venue": "Oakland-Alameda County Coliseum",
          "city": "Oakland",
          "state": "CA",
          "set1": [
            "Soundcheck:\n\nLucy In The Sky With Diamonds\nLike a Rolling Stone\nPhil",
            "Bob & Vince Jam\nLazy River Road\nLiberty\nRain"
          ],
          "set2": [
            "Soundcheck:\n\nLucy In The Sky With Diamonds\nLike a Rolling Stone\nPhil",
            "Bob & Vince Jam\nLazy River Road\nLiberty\nRain"
          ],
          "set3": [
            "Soundcheck:\n\nLucy In The Sky With Diamonds\nLike a Rolling Stone\nPhil",
            "Bob & Vince Jam\nLazy River Road\nLiberty\nRain"
          ],
          "comment": "",
          "lastupdate": "2008-04-09 07:04:11",
          "showyear": "1994",
          "showsuserid": "Wharfrat73"
        },
        "key_2": {
          "name": "Grateful Dead",
          "artist_key": "2",
          "shows_key": "406472",
          "showdate": "02/25/94",
          "venue": "Oakland Colisem Arena",
          "city": "Oakland",
          "state": "CA",
          "set1": [
            "Lucy In The Sky With Diamonds\nLike a Rolling Stone\nPhil",
            "Bob & Vince Jam\nLazy River Road\nLiberty\nRain"
          ],
          "set2": "",
          "set3": "",
          "comment": "",
          "lastupdate": "2008-04-09 07:01:38",
          "showyear": "1994",
          "showsuserid": "Wharfrat73"
        },
        "key_3": {
          "name": "Grateful Dead",
          "artist_key": "2",
          "shows_key": "2251",
          "showdate": "02/26/94",
          "venue": "Oakland-Alameda County Coliseum",
          "city": "Oakland",
          "state": "CA",
          "set1": [
            "Cold Rain & Snow",
            "Wang Dang Doodle",
            "Althea",
            "Black Throated Wind",
            "Loose Lucy",
            "Broken Arrow",
            "The Music Never Stopped"
          ],
          "set2": [
            "Cold Rain & Snow",
            "Wang Dang Doodle",
            "Althea",
            "Black Throated Wind",
            "Loose Lucy",
            "Broken Arrow",
            "The Music Never Stopped"
          ],
          "set3": "",
          "comment": "",
          "lastupdate": "1996-01-07 00:00:00",
          "showyear": "1994",
          "showsuserid": "system"
        },
        "key_4": {
          "name": "Grateful Dead",
          "artist_key": "2",
          "shows_key": "2250",
          "showdate": "02/27/94",
          "venue": "Oakland-Alameda County Coliseum",
          "city": "Oakland",
          "state": "CA",
          "set1": [
            "Hell In A Bucket",
            "Row Jimmy",
            "Minglewood Blues",
            "Lazy River Road",
            "Mama Tried-> Mexicali Blues",
            "Tennessee Jed",
            "Easy Answers"
          ],
          "set2": [
            "Hell In A Bucket",
            "Row Jimmy",
            "Minglewood Blues",
            "Lazy River Road",
            "Mama Tried-> Mexicali Blues",
            "Tennessee Jed",
            "Easy Answers"
          ],
          "set3": "",
          "comment": "first \"Mama Tried\" since 01-25-93. \"Supplication\" jam during \"Uncle John's\". \"Cosmic Charlie\" tease before \"Wharf Rat\". Dragon parade during Drums.",
          "lastupdate": "2003-04-04 00:00:00",
          "showyear": "1994",
          "showsuserid": "hamilton"
        },
        "key_5": {
          "name": "Grateful Dead",
          "artist_key": "2",
          "shows_key": "2249",
          "showdate": "03/04/94",
          "venue": "Desert Sky Pavilion",
          "city": "Phoenix",
          "state": "AZ",
          "set1": [
            "Mississippi Half Step",
            "Little Red Rooster",
            "Ramble On Rose",
            "Me & My Uncle*-> Big River*",
            "Bird Song",
            "Promised Land"
          ],
          "set2": [
            "Mississippi Half Step",
            "Little Red Rooster",
            "Ramble On Rose",
            "Me & My Uncle*-> Big River*",
            "Bird Song",
            "Promised Land"
          ],
          "set3": "",
          "comment": "* Weir on acoustic",
          "lastupdate": "1996-01-07 00:00:00",
          "showyear": "1994",
          "showsuserid": "system"
        },
        "key_6": {
          "name": "Grateful Dead",
          "artist_key": "2",
          "shows_key": "2248",
          "showdate": "03/05/94",
          "venue": "Desert Sky Pavilion",
          "city": "Phoenix",
          "state": "AZ",
          "set1": [
            "Feel Like A Stranger",
            "Stagger Lee",
            "El Paso*",
            "Loose Lucy",
            "Broken Arrow",
            "Eternity",
            "Bertha"
          ],
          "set2": [
            "Feel Like A Stranger",
            "Stagger Lee",
            "El Paso*",
            "Loose Lucy",
            "Broken Arrow",
            "Eternity",
            "Bertha"
          ],
          "set3": "",
          "comment": "* Weir on acoustic",
          "lastupdate": "1996-01-07 00:00:00",
          "showyear": "1994",
          "showsuserid": "system"
        },
        "key_7": {
          "name": "Grateful Dead",
          "artist_key": "2",
          "shows_key": "2247",
          "showdate": "03/06/94",
          "venue": "Desert Sky Pavilion",
          "city": "Phoenix",
          "state": "AZ",
          "set1": [
            "Help On The Way-> Slipknot!-> Franklin's Tower",
            "Spoonful",
            "Jack A Roe",
            "When I Paint My Masterpiece",
            "Brown Eyed Women",
            "Let It Grow"
          ],
          "set2": [
            "Help On The Way-> Slipknot!-> Franklin's Tower",
            "Spoonful",
            "Jack A Roe",
            "When I Paint My Masterpiece",
            "Brown Eyed Women",
            "Let It Grow"
          ],
          "set3": "",
          "comment": "",
          "lastupdate": "1996-01-07 00:00:00",
          "showyear": "1994",
          "showsuserid": "system"
        },
        "key_8": {
          "name": "Grateful Dead",
          "artist_key": "2",
          "shows_key": "2246",
          "showdate": "03/16/94",
          "venue": "Rosemont Horizon",
          "city": "Rosemont",
          "state": "IL",
          "set1": [
            "Jack Straw",
            "Friend Of The Devil",
            "Minglewood Blues",
            "Lazy River Road",
            "Just Like Tom Thumb's Blues",
            "Beat It On Down The Line (5)",
            "High Time",
            "Easy Answers-> Don't Ease Me In"
          ],
          "set2": [
            "Jack Straw",
            "Friend Of The Devil",
            "Minglewood Blues",
            "Lazy River Road",
            "Just Like Tom Thumb's Blues",
            "Beat It On Down The Line (5)",
            "High Time",
            "Easy Answers-> Don't Ease Me In"
          ],
          "set3": "",
          "comment": "",
          "lastupdate": "1996-08-11 00:00:00",
          "showyear": "1994",
          "showsuserid": "system"
        },
        "key_9": {
          "name": "Grateful Dead",
          "artist_key": "2",
          "shows_key": "2245",
          "showdate": "03/17/94",
          "venue": "Rosemont Horizon",
          "city": "Rosemont",
          "state": "IL",
          "set1": [
            "Touch Of Gray",
            "Wang Dang Doodle",
            "Althea",
            "Me & My Uncle-> Mexicali Blues",
            "Lazy River Road",
            "Eternity"
          ],
          "set2": [
            "Touch Of Gray",
            "Wang Dang Doodle",
            "Althea",
            "Me & My Uncle-> Mexicali Blues",
            "Lazy River Road",
            "Eternity"
          ],
          "set3": "",
          "comment": "",
          "lastupdate": "1996-08-11 00:00:00",
          "showyear": "1994",
          "showsuserid": "system"
        },
        "key_10": {
          "name": "Grateful Dead",
          "artist_key": "2",
          "shows_key": "2244",
          "showdate": "03/18/94",
          "venue": "Rosemont Horizon",
          "city": "Rosemont",
          "state": "IL",
          "set1": [
            "Feel Like A Stranger-> Deal",
            "El Paso",
            "Brown Eyed Women",
            "When I Paint My Masterpiece",
            "Ramble On Rose",
            "The Music Never Stopped"
          ],
          "set2": [
            "Feel Like A Stranger-> Deal",
            "El Paso",
            "Brown Eyed Women",
            "When I Paint My Masterpiece",
            "Ramble On Rose",
            "The Music Never Stopped"
          ],
          "set3": "",
          "comment": "",
          "lastupdate": "1996-08-11 00:00:00",
          "showyear": "1994",
          "showsuserid": "system"
        },
        "key_11": {
          "name": "Grateful Dead",
          "artist_key": "2",
          "shows_key": "2243",
          "showdate": "03/20/94",
          "venue": "Richfield Coliseum",
          "city": "Richfield",
          "state": "OH",
          "set1": [
            "Cold Rain & Snow",
            "It's All Over Now",
            "Candyman",
            "Mama Tried*-> Big River*",
            "Lazy River Road",
            "Let It Grow-> Don't Ease Me In"
          ],
          "set2": [
            "Cold Rain & Snow",
            "It's All Over Now",
            "Candyman",
            "Mama Tried*-> Big River*",
            "Lazy River Road",
            "Let It Grow-> Don't Ease Me In"
          ],
          "set3": "",
          "comment": "* Weir on acoustic",
          "lastupdate": "1996-01-07 00:00:00",
          "showyear": "1994",
          "showsuserid": "system"
        },
        "key_12": {
          "name": "Grateful Dead",
          "artist_key": "2",
          "shows_key": "2242",
          "showdate": "03/21/94",
          "venue": "Richfield Coliseum",
          "city": "Richfield",
          "state": "OH",
          "set1": [
            "Greatest Story Ever Told-> Bertha",
            "The Same Thing",
            "Peggy-O",
            "Queen Jane Approximately",
            "West L.A. Fadeaway",
            "Eternity",
            "Tennessee Jed"
          ],
          "set2": [
            "Greatest Story Ever Told-> Bertha",
            "The Same Thing",
            "Peggy-O",
            "Queen Jane Approximately",
            "West L.A. Fadeaway",
            "Eternity",
            "Tennessee Jed"
          ],
          "set3": "",
          "comment": "",
          "lastupdate": "2002-09-06 00:00:00",
          "showyear": "1994",
          "showsuserid": "diana"
        },
        "key_13": {
          "name": "Grateful Dead",
          "artist_key": "2",
          "shows_key": "2241",
          "showdate": "03/23/94",
          "venue": "Nassau Coliseum",
          "city": "Uniondale",
          "state": "NY",
          "set1": [
            "Shakedown Street",
            "Little Red Rooster",
            "Row Jimmy",
            "El Paso*",
            "Might as Well",
            "Promised Land"
          ],
          "set2": [
            "Shakedown Street",
            "Little Red Rooster",
            "Row Jimmy",
            "El Paso*",
            "Might as Well",
            "Promised Land"
          ],
          "set3": "",
          "comment": "* Weir on acoustic guitar",
          "lastupdate": "1996-01-07 00:00:00",
          "showyear": "1994",
          "showsuserid": "system"
        },
        "key_14": {
          "name": "Grateful Dead",
          "artist_key": "2",
          "shows_key": "2240",
          "showdate": "03/24/94",
          "venue": "Nassau Veterans Memorial Coliseum",
          "city": "Uniondale",
          "state": "NY",
          "set1": [
            "Hell In A Bucket",
            "Sugaree",
            "Walkin' Blues",
            "Loser",
            "Me & My Uncle*-> Maggie's Farm*",
            "Loose Lucy",
            "Cassidy"
          ],
          "set2": [
            "Hell In A Bucket",
            "Sugaree",
            "Walkin' Blues",
            "Loser",
            "Me & My Uncle*-> Maggie's Farm*",
            "Loose Lucy",
            "Cassidy"
          ],
          "set3": "",
          "comment": "* Weir on acoustic",
          "lastupdate": "2015-05-24 13:52:20",
          "showyear": "1994",
          "showsuserid": "Zoooma1"
        },
        "key_15": {
          "name": "Grateful Dead",
          "artist_key": "2",
          "shows_key": "2239",
          "showdate": "03/25/94",
          "venue": "Nassau Coliseum",
          "city": "Uniondale",
          "state": "NY",
          "set1": [
            "Help On The Way-> Slipknot!-> Franklin's Tower",
            "Wang Dang Doodle",
            "Althea",
            "Black Throated Wind*",
            "Ramble On Rose",
            "Eternity",
            "Don't Ease Me In"
          ],
          "set2": [
            "Help On The Way-> Slipknot!-> Franklin's Tower",
            "Wang Dang Doodle",
            "Althea",
            "Black Throated Wind*",
            "Ramble On Rose",
            "Eternity",
            "Don't Ease Me In"
          ],
          "set3": "",
          "comment": "* Weir on acoustic",
          "lastupdate": "1996-01-07 00:00:00",
          "showyear": "1994",
          "showsuserid": "system"
        },
        "key_16": {
          "name": "Grateful Dead",
          "artist_key": "2",
          "shows_key": "2238",
          "showdate": "03/27/94",
          "venue": "Nassau Coliseum",
          "city": "Uniondale",
          "state": "NY",
          "set1": [
            "Jack Straw",
            "Jack A Roe",
            "It's All Over Now",
            "Stagger Lee",
            "Queen Jane Approximately",
            "Candyman",
            "Easy Answers",
            "Deal"
          ],
          "set2": [
            "Jack Straw",
            "Jack A Roe",
            "It's All Over Now",
            "Stagger Lee",
            "Queen Jane Approximately",
            "Candyman",
            "Easy Answers",
            "Deal"
          ],
          "set3": "",
          "comment": "",
          "lastupdate": "1996-01-07 00:00:00",
          "showyear": "1994",
          "showsuserid": "system"
        },
        "key_17": {
          "name": "Grateful Dead",
          "artist_key": "2",
          "shows_key": "2237",
          "showdate": "03/28/94",
          "venue": "Nassau Coliseum",
          "city": "Uniondale",
          "state": "NY",
          "set1": [
            "Let The Good Times Roll",
            "Bertha",
            "Greatest Story Ever Told",
            "West L.A. Fadeaway",
            "When I Paint My Masterpiece",
            "It Must Have Been The Roses",
            "Beat It On Down The Line",
            "Peggy-O",
            "The Music Never Stopped"
          ],
          "set2": [
            "Let The Good Times Roll",
            "Bertha",
            "Greatest Story Ever Told",
            "West L.A. Fadeaway",
            "When I Paint My Masterpiece",
            "It Must Have Been The Roses",
            "Beat It On Down The Line",
            "Peggy-O",
            "The Music Never Stopped"
          ],
          "set3": "",
          "comment": "",
          "lastupdate": "2002-08-07 00:00:00",
          "showyear": "1994",
          "showsuserid": "system"
        },
        "key_18": {
          "name": "Grateful Dead",
          "artist_key": "2",
          "shows_key": "2236",
          "showdate": "03/30/94",
          "venue": "The Omni",
          "city": "Atlanta",
          "state": "GA",
          "set1": [
            "Here Comes Sunshine",
            "Feel Like A Stranger",
            "Jack A Roe",
            "Lazy River Road",
            "El Paso",
            "The Same Thing",
            "New Speedway Boogie*",
            "Promised Land"
          ],
          "set2": [
            "Here Comes Sunshine",
            "Feel Like A Stranger",
            "Jack A Roe",
            "Lazy River Road",
            "El Paso",
            "The Same Thing",
            "New Speedway Boogie*",
            "Promised Land"
          ],
          "set3": "",
          "comment": "* Weir on acoustic guitar\r\n** Final Dark Star",
          "lastupdate": "1996-01-07 00:00:00",
          "showyear": "1994",
          "showsuserid": "hamilton"
        },
        "key_19": {
          "name": "Grateful Dead",
          "artist_key": "2",
          "shows_key": "151433",
          "showdate": "03/30/94",
          "venue": "Liberty Video",
          "city": "n/a",
          "state": "n/a",
          "set1": [
            "Liberty"
          ],
          "set2": "",
          "set3": "",
          "comment": "tThe Justin Kreutzman \"Liberty\" video is included on the DVD of \"View From the Vault II.\" The audio is from 30 March 1994 (the same as \"So Many Roads\" box set), though the video footage is from three different concerts.",
          "lastupdate": "",
          "showyear": "1994",
          "showsuserid": "diana"
        },
        "key_20": {
          "name": "Grateful Dead",
          "artist_key": "2",
          "shows_key": "2235",
          "showdate": "03/31/94",
          "venue": "The Omni",
          "city": "Atlanta",
          "state": "GA",
          "set1": [
            "Touch Of Grey",
            "I'm A King Bee",
            "Friend Of The Devil",
            "Desolation Row",
            "Tennessee Jed",
            "Easy Answers"
          ],
          "set2": [
            "Touch Of Grey",
            "I'm A King Bee",
            "Friend Of The Devil",
            "Desolation Row",
            "Tennessee Jed",
            "Easy Answers"
          ],
          "set3": "",
          "comment": "",
          "lastupdate": "2004-09-03 00:00:00",
          "showyear": "1994",
          "showsuserid": "system"
        },
        "key_21": {
          "name": "Grateful Dead",
          "artist_key": "2",
          "shows_key": "2234",
          "showdate": "04/01/94",
          "venue": "The Omni",
          "city": "Atlanta",
          "state": "GA",
          "set1": [
            "Picasso Moon-> Deal",
            "Wang Dang Doodle",
            "Dire Wolf",
            "Black Throated Wind*",
            "Bird Song"
          ],
          "set2": [
            "Picasso Moon-> Deal",
            "Wang Dang Doodle",
            "Dire Wolf",
            "Black Throated Wind*",
            "Bird Song"
          ],
          "set3": "",
          "comment": "* Weir on acoustic",
          "lastupdate": "1996-01-07 00:00:00",
          "showyear": "1994",
          "showsuserid": "system"
        },
        "key_22": {
          "name": "Grateful Dead",
          "artist_key": "2",
          "shows_key": "2233",
          "showdate": "04/04/94",
          "venue": "Sports Arena",
          "city": "Orlando",
          "state": "FL",
          "set1": [
            "Help On The Way-> Slipknot!-> Franklin's Tower",
            "Little Red Rooster",
            "Brown Eyed Women",
            "When I Paint My Masterpiece",
            "Loose Lucy",
            "Cassidy",
            "Don't Ease Me In"
          ],
          "set2": [
            "Help On The Way-> Slipknot!-> Franklin's Tower",
            "Little Red Rooster",
            "Brown Eyed Women",
            "When I Paint My Masterpiece",
            "Loose Lucy",
            "Cassidy",
            "Don't Ease Me In"
          ],
          "set3": "",
          "comment": "",
          "lastupdate": "1996-01-07 00:00:00",
          "showyear": "1994",
          "showsuserid": "system"
        },
        "key_23": {
          "name": "Grateful Dead",
          "artist_key": "2",
          "shows_key": "2232",
          "showdate": "04/06/94",
          "venue": "Miami Arena",
          "city": "Miami",
          "state": "FL",
          "set1": [
            "Jack Straw",
            "Jack A Roe",
            "Wang Dang Doodle",
            "Broken Arrow",
            "West L.A. Fadeaway",
            "El Paso*",
            "Row Jimmy",
            "Promised Land"
          ],
          "set2": [
            "Jack Straw",
            "Jack A Roe",
            "Wang Dang Doodle",
            "Broken Arrow",
            "West L.A. Fadeaway",
            "El Paso*",
            "Row Jimmy",
            "Promised Land"
          ],
          "set3": "",
          "comment": "* Weir on acoustic",
          "lastupdate": "1996-01-07 00:00:00",
          "showyear": "1994",
          "showsuserid": "system"
        },
        "key_24": {
          "name": "Grateful Dead",
          "artist_key": "2",
          "shows_key": "2231",
          "showdate": "04/07/94",
          "venue": "Miami Arena",
          "city": "Miami",
          "state": "FL",
          "set1": [
            "Shakedown Street",
            "Walkin' Blues",
            "Friend Of The Devil",
            "Queen Jane Approximately",
            "Ramble On Rose",
            "The Music Never Stopped"
          ],
          "set2": [
            "Shakedown Street",
            "Walkin' Blues",
            "Friend Of The Devil",
            "Queen Jane Approximately",
            "Ramble On Rose",
            "The Music Never Stopped"
          ],
          "set3": "",
          "comment": "",
          "lastupdate": "1996-01-07 00:00:00",
          "showyear": "1994",
          "showsuserid": "system"
        },
        "key_25": {
          "name": "Grateful Dead",
          "artist_key": "2",
          "shows_key": "2230",
          "showdate": "04/08/94",
          "venue": "Miami Arena",
          "city": "Miami",
          "state": "FL",
          "set1": [
            "Hell In A Bucket",
            "Peggy-O",
            "It's All Over Now",
            "So Many Roads",
            "When I Paint My Masterpiece",
            "Bird Song"
          ],
          "set2": [
            "Hell In A Bucket",
            "Peggy-O",
            "It's All Over Now",
            "So Many Roads",
            "When I Paint My Masterpiece",
            "Bird Song"
          ],
          "set3": "",
          "comment": "",
          "lastupdate": "1996-01-07 00:00:00",
          "showyear": "1994",
          "showsuserid": "system"
        },
        "key_26": {
          "name": "Grateful Dead",
          "artist_key": "2",
          "shows_key": "2229",
          "showdate": "06/08/94",
          "venue": "Cal Expo",
          "city": "Sacramento",
          "state": "CA",
          "set1": [
            "Mississippi Half Step",
            "Walkin' Blues",
            "Peggy-O",
            "Me & My Uncle*-> Big River*",
            "Stagger Lee",
            "Cassidy",
            "Don't Ease Me In"
          ],
          "set2": [
            "Mississippi Half Step",
            "Walkin' Blues",
            "Peggy-O",
            "Me & My Uncle*-> Big River*",
            "Stagger Lee",
            "Cassidy",
            "Don't Ease Me In"
          ],
          "set3": "",
          "comment": "* Weir on acoustic, **First Samba In The Rain Welnick-Hunter",
          "lastupdate": "1996-01-07 00:00:00",
          "showyear": "1994",
          "showsuserid": "system"
        },
        "key_27": {
          "name": "Grateful Dead",
          "artist_key": "2",
          "shows_key": "2228",
          "showdate": "06/09/94",
          "venue": "Cal Expo",
          "city": "Sacramento",
          "state": "CA",
          "set1": [
            "Jack Straw",
            "Friend Of The Devil",
            "Wang Dang Doodle",
            "Ramble On Rose",
            "If The Shoe Fits*",
            "Deal"
          ],
          "set2": [
            "Jack Straw",
            "Friend Of The Devil",
            "Wang Dang Doodle",
            "Ramble On Rose",
            "If The Shoe Fits*",
            "Deal"
          ],
          "set3": "",
          "comment": "*First \"If the Shoe Fits\" Lesh and Andrew Charles",
          "lastupdate": "1996-01-07 00:00:00",
          "showyear": "1994",
          "showsuserid": "system"
        },
        "key_28": {
          "name": "Grateful Dead",
          "artist_key": "2",
          "shows_key": "2227",
          "showdate": "06/10/94",
          "venue": "Cal Expo",
          "city": "Sacramento",
          "state": "CA",
          "set1": [
            "Here Comes Sunshine",
            "The Same Thing",
            "Lazy River Road",
            "El Paso*",
            "Loser",
            "Easy Answers-> Don't Ease Me In"
          ],
          "set2": [
            "Here Comes Sunshine",
            "The Same Thing",
            "Lazy River Road",
            "El Paso*",
            "Loser",
            "Easy Answers-> Don't Ease Me In"
          ],
          "set3": "",
          "comment": "",
          "lastupdate": "2004-09-03 00:00:00",
          "showyear": "1994",
          "showsuserid": "system"
        },
        "key_29": {
          "name": "Grateful Dead",
          "artist_key": "2",
          "shows_key": "2226",
          "showdate": "06/13/94",
          "venue": "Memorial Stadium",
          "city": "Seattle",
          "state": "WA",
          "set1": [
            "Hell In A Bucket",
            "Row Jimmy",
            "Minglewood Blues",
            "Tennessee Jed",
            "Queen Jane Approximately",
            "Bird Song",
            "Promised Land"
          ],
          "set2": [
            "Hell In A Bucket",
            "Row Jimmy",
            "Minglewood Blues",
            "Tennessee Jed",
            "Queen Jane Approximately",
            "Bird Song",
            "Promised Land"
          ],
          "set3": "",
          "comment": "",
          "lastupdate": "1996-01-07 00:00:00",
          "showyear": "1994",
          "showsuserid": "system"
        },
        "key_30": {
          "name": "Grateful Dead",
          "artist_key": "2",
          "shows_key": "2225",
          "showdate": "06/14/94",
          "venue": "Memorial Stadium",
          "city": "Seattle",
          "state": "WA",
          "set1": [
            "Shakedown Street",
            "Little Red Rooster",
            "Loose Lucy",
            "When I Paint My Masterpiece*",
            "Althea",
            "Eternity"
          ],
          "set2": [
            "Shakedown Street",
            "Little Red Rooster",
            "Loose Lucy",
            "When I Paint My Masterpiece*",
            "Althea",
            "Eternity"
          ],
          "set3": "",
          "comment": "*Weir on acoustic guitar",
          "lastupdate": "1996-01-07 00:00:00",
          "showyear": "1994",
          "showsuserid": "system"
        },
        "key_31": {
          "name": "Grateful Dead",
          "artist_key": "2",
          "shows_key": "2224",
          "showdate": "06/17/94",
          "venue": "Autzen Stadium, U. of Oregon",
          "city": "Eugene",
          "state": "OR",
          "set1": [
            "Bertha-> Greatest Story Ever Told",
            "Lazy River Road",
            "Wang Dang Doodle",
            "Ramble On Rose",
            "Black Throated Wind",
            "Just Like Tom Thumb's Blues",
            "Deal"
          ],
          "set2": [
            "Bertha-> Greatest Story Ever Told",
            "Lazy River Road",
            "Wang Dang Doodle",
            "Ramble On Rose",
            "Black Throated Wind",
            "Just Like Tom Thumb's Blues",
            "Deal"
          ],
          "set3": "",
          "comment": "",
          "lastupdate": "2001-01-15 00:00:00",
          "showyear": "1994",
          "showsuserid": "hamilton"
        },
        "key_32": {
          "name": "Grateful Dead",
          "artist_key": "2",
          "shows_key": "2223",
          "showdate": "06/18/94",
          "venue": "Autzen Stadium, U. of Oregon",
          "city": "Eugene",
          "state": "OR",
          "set1": [
            "Jack Straw",
            "Sugaree",
            "It's All Over Now",
            "Tennessee Jed",
            "Me & My Uncle*",
            "Maggie's Farm",
            "Candyman",
            "Easy Answers"
          ],
          "set2": [
            "Jack Straw",
            "Sugaree",
            "It's All Over Now",
            "Tennessee Jed",
            "Me & My Uncle*",
            "Maggie's Farm",
            "Candyman",
            "Easy Answers"
          ],
          "set3": "",
          "comment": "* Weir on acoustic guitar",
          "lastupdate": "1996-01-07 00:00:00",
          "showyear": "1994",
          "showsuserid": "system"
        },
        "key_33": {
          "name": "Grateful Dead",
          "artist_key": "2",
          "shows_key": "2222",
          "showdate": "06/19/94",
          "venue": "Autzen Stadium, U. of Oregon",
          "city": "Eugene",
          "state": "OR",
          "set1": [
            "Touch Of Gray",
            "Walkin' Blues",
            "Brown Eyed Women",
            "El Paso*",
            "If The Shoe Fits-> Bird Song"
          ],
          "set2": [
            "Touch Of Gray",
            "Walkin' Blues",
            "Brown Eyed Women",
            "El Paso*",
            "If The Shoe Fits-> Bird Song"
          ],
          "set3": "",
          "comment": "* Weir on acoustic guitar",
          "lastupdate": "1996-01-07 00:00:00",
          "showyear": "1994",
          "showsuserid": "system"
        },
        "key_34": {
          "name": "Grateful Dead",
          "artist_key": "2",
          "shows_key": "2221",
          "showdate": "06/24/94",
          "venue": "Sam Boyd Silver Bowl, U.N.L.V.",
          "city": "Las Vegas",
          "state": "NV",
          "set1": [
            "Let The Good Times Roll",
            "Feel Like A Stranger",
            "Althea",
            "The Same Thing",
            "Broken Arrow",
            "Cumberland Blues",
            "Eternity",
            "Don't Ease Me In"
          ],
          "set2": [
            "Let The Good Times Roll",
            "Feel Like A Stranger",
            "Althea",
            "The Same Thing",
            "Broken Arrow",
            "Cumberland Blues",
            "Eternity",
            "Don't Ease Me In"
          ],
          "set3": "",
          "comment": "",
          "lastupdate": "1996-01-07 00:00:00",
          "showyear": "1994",
          "showsuserid": "system"
        },
        "key_35": {
          "name": "Grateful Dead",
          "artist_key": "2",
          "shows_key": "2220",
          "showdate": "06/25/94",
          "venue": "Sam Boyd Silver Bowl, U.N.L.V.",
          "city": "Las Vegas",
          "state": "NV",
          "set1": [
            "Mississippi Half Step",
            "Little Red Rooster",
            "Lazy River Road",
            "When I Paint My Masterpiece*",
            "Loose Lucy",
            "Cassidy"
          ],
          "set2": [
            "Mississippi Half Step",
            "Little Red Rooster",
            "Lazy River Road",
            "When I Paint My Masterpiece*",
            "Loose Lucy",
            "Cassidy"
          ],
          "set3": "",
          "comment": "* Weir on acoustic guitar",
          "lastupdate": "1996-01-07 00:00:00",
          "showyear": "1994",
          "showsuserid": "system"
        },
        "key_36": {
          "name": "Grateful Dead",
          "artist_key": "2",
          "shows_key": "2219",
          "showdate": "06/26/94",
          "venue": "Sam Boyd Silver Bowl",
          "city": "Las Vegas",
          "state": "NV",
          "set1": [
            "Hell In A Bucket",
            "Peggy-O",
            "Minglewood Blues",
            "Ramble On Rose",
            "El Paso",
            "So Many Roads",
            "Just Like Tom Thumb's Blues",
            "The Music Never Stopped"
          ],
          "set2": [
            "Hell In A Bucket",
            "Peggy-O",
            "Minglewood Blues",
            "Ramble On Rose",
            "El Paso",
            "So Many Roads",
            "Just Like Tom Thumb's Blues",
            "The Music Never Stopped"
          ],
          "set3": "",
          "comment": "",
          "lastupdate": "2015-04-26 18:52:04",
          "showyear": "1994",
          "showsuserid": "Zoooma1"
        },
        "key_37": {
          "name": "Grateful Dead",
          "artist_key": "2",
          "shows_key": "2218",
          "showdate": "07/01/94",
          "venue": "Shoreline Amphitheatre",
          "city": "Mountain View",
          "state": "CA",
          "set1": [
            "Cold Rain & Snow-> Wang Dang Doodle",
            "Dire Wolf",
            "Queen Jane Approximately",
            "Stagger Lee",
            "Black Throated Wind",
            "Bertha",
            "Picasso Moon",
            "Don't Ease Me In"
          ],
          "set2": [
            "Cold Rain & Snow-> Wang Dang Doodle",
            "Dire Wolf",
            "Queen Jane Approximately",
            "Stagger Lee",
            "Black Throated Wind",
            "Bertha",
            "Picasso Moon",
            "Don't Ease Me In"
          ],
          "set3": "",
          "comment": "No encore last show with no encore 5/3/86 * First time played",
          "lastupdate": "2003-04-04 00:00:00",
          "showyear": "1994",
          "showsuserid": "hamilton"
        },
        "key_38": {
          "name": "Grateful Dead",
          "artist_key": "2",
          "shows_key": "2217",
          "showdate": "07/02/94",
          "venue": "Shoreline Amphitheatre",
          "city": "Mountain View",
          "state": "CA",
          "set1": [
            "The Music Never Stopped-> Sugaree-> The Music Never Stopped",
            "Friend Of The Devil",
            "Desolation Row*",
            "Tennessee Jed",
            "Eternity"
          ],
          "set2": [
            "The Music Never Stopped-> Sugaree-> The Music Never Stopped",
            "Friend Of The Devil",
            "Desolation Row*",
            "Tennessee Jed",
            "Eternity"
          ],
          "set3": "",
          "comment": "No encore",
          "lastupdate": "1996-01-07 00:00:00",
          "showyear": "1994",
          "showsuserid": "system"
        },
        "key_39": {
          "name": "Grateful Dead",
          "artist_key": "2",
          "shows_key": "2216",
          "showdate": "07/03/94",
          "venue": "Shoreline Amphitheatre",
          "city": "Mountain View",
          "state": "CA",
          "set1": [
            "Here Comes Sunshine",
            "It's All Over Now",
            "Althea",
            "When I Paint My Masterpiece*",
            "Bird Song",
            "Promised Land"
          ],
          "set2": [
            "Here Comes Sunshine",
            "It's All Over Now",
            "Althea",
            "When I Paint My Masterpiece*",
            "Bird Song",
            "Promised Land"
          ],
          "set3": "",
          "comment": "*Weir on acoustic guitar",
          "lastupdate": "1996-01-07 00:00:00",
          "showyear": "1994",
          "showsuserid": "system"
        },
        "key_40": {
          "name": "Grateful Dead",
          "artist_key": "2",
          "shows_key": "2215",
          "showdate": "07/13/94",
          "venue": "Franklin County Airport",
          "city": "Highgate",
          "state": "VT",
          "set1": [
            "Let The Good Times Roll",
            "Jack Straw",
            "Althea",
            "Queen Jane Approximately",
            "Loser",
            "It's All Over Now",
            "Tennessee Jed",
            "Let It Grow"
          ],
          "set2": [
            "Let The Good Times Roll",
            "Jack Straw",
            "Althea",
            "Queen Jane Approximately",
            "Loser",
            "It's All Over Now",
            "Tennessee Jed",
            "Let It Grow"
          ],
          "set3": "",
          "comment": "",
          "lastupdate": "1996-01-07 00:00:00",
          "showyear": "1994",
          "showsuserid": "diana"
        },
        "key_41": {
          "name": "Grateful Dead",
          "artist_key": "2",
          "shows_key": "2214",
          "showdate": "07/16/94",
          "venue": "Robert F. Kennedy Stadium",
          "city": "Washington",
          "state": "DC",
          "set1": [
            "Cold Rain & Snow",
            "Picasso Moon",
            "Lazy River Road",
            "El Paso",
            "If The Shoe Fits",
            "Ramble on Rose",
            "When I Paint My Masterpiece",
            "Loose Lucy",
            "Promised Land"
          ],
          "set2": [
            "Cold Rain & Snow",
            "Picasso Moon",
            "Lazy River Road",
            "El Paso",
            "If The Shoe Fits",
            "Ramble on Rose",
            "When I Paint My Masterpiece",
            "Loose Lucy",
            "Promised Land"
          ],
          "set3": "",
          "comment": "",
          "lastupdate": "1996-01-07 00:00:00",
          "showyear": "1994",
          "showsuserid": "system"
        },
        "key_42": {
          "name": "Grateful Dead",
          "artist_key": "2",
          "shows_key": "2213",
          "showdate": "07/17/94",
          "venue": "Robert F. Kennedy Stadium",
          "city": "Washington",
          "state": "DC",
          "set1": [
            "Hell In A Bucket",
            "Bertha",
            "Wang Dang Doodle",
            "So Many Roads",
            "Just Like Tom Thumb's Blues",
            "Black Throated Wind",
            "Don't Ease Me In"
          ],
          "set2": [
            "Hell In A Bucket",
            "Bertha",
            "Wang Dang Doodle",
            "So Many Roads",
            "Just Like Tom Thumb's Blues",
            "Black Throated Wind",
            "Don't Ease Me In"
          ],
          "set3": "",
          "comment": "",
          "lastupdate": "1996-01-07 00:00:00",
          "showyear": "1994",
          "showsuserid": "system"
        },
        "key_43": {
          "name": "Grateful Dead",
          "artist_key": "2",
          "shows_key": "2212",
          "showdate": "07/19/94",
          "venue": "Deer Creek Music Center",
          "city": "Noblesville",
          "state": "IN",
          "set1": [
            "Shakedown Street",
            "Walkin' Blues",
            "Jack A Roe",
            "Big River*-> Maggie's Farm*",
            "Broken Arrow",
            "Tennessee Jed",
            "Easy Answers"
          ],
          "set2": [
            "Shakedown Street",
            "Walkin' Blues",
            "Jack A Roe",
            "Big River*-> Maggie's Farm*",
            "Broken Arrow",
            "Tennessee Jed",
            "Easy Answers"
          ],
          "set3": "",
          "comment": "* Weir on acoustic guitar",
          "lastupdate": "2002-02-04 00:00:00",
          "showyear": "1994",
          "showsuserid": "hamilton"
        },
        "key_44": {
          "name": "Grateful Dead",
          "artist_key": "2",
          "shows_key": "2211",
          "showdate": "07/20/94",
          "venue": "Deer Creek Music Center",
          "city": "Noblesville",
          "state": "IN",
          "set1": [
            "Feel Like A Stranger",
            "Peggy-O",
            "Beat It On Down The Line",
            "High Time",
            "Memphis Blues",
            "Childhood's End*",
            "Don't Ease Me In"
          ],
          "set2": [
            "Feel Like A Stranger",
            "Peggy-O",
            "Beat It On Down The Line",
            "High Time",
            "Memphis Blues",
            "Childhood's End*",
            "Don't Ease Me In"
          ],
          "set3": "",
          "comment": "*First Childhood's End. **First Mathilda",
          "lastupdate": "1996-01-07 00:00:00",
          "showyear": "1994",
          "showsuserid": "system"
        },
        "key_45": {
          "name": "Grateful Dead",
          "artist_key": "2",
          "shows_key": "2210",
          "showdate": "07/21/94",
          "venue": "Deer Creek Music Center",
          "city": "Noblesville",
          "state": "IN",
          "set1": [
            "Touch Of Grey",
            "Greatest Story Ever Told",
            "Jack A Roe",
            "The Same Thing",
            "Stagger Lee",
            "Me & My Uncle->*",
            "Mexicali Blues*",
            "Ramble On Rose",
            "The Music Never Stopped"
          ],
          "set2": [
            "Touch Of Grey",
            "Greatest Story Ever Told",
            "Jack A Roe",
            "The Same Thing",
            "Stagger Lee",
            "Me & My Uncle->*",
            "Mexicali Blues*",
            "Ramble On Rose",
            "The Music Never Stopped"
          ],
          "set3": "",
          "comment": "* Weir on acoustic guitar",
          "lastupdate": "1996-01-07 00:00:00",
          "showyear": "1994",
          "showsuserid": "chaz"
        },
        "key_46": {
          "name": "Grateful Dead",
          "artist_key": "2",
          "shows_key": "2209",
          "showdate": "07/23/94",
          "venue": "Soldier Field",
          "city": "Chicago",
          "state": "IL",
          "set1": [
            "Picasso Moon",
            "Sugaree",
            "Minglewood Blues",
            "Lazy River Road",
            "When I Paint My Masterpiece",
            "Brown Eyed Women",
            "Cassidy"
          ],
          "set2": [
            "Picasso Moon",
            "Sugaree",
            "Minglewood Blues",
            "Lazy River Road",
            "When I Paint My Masterpiece",
            "Brown Eyed Women",
            "Cassidy"
          ],
          "set3": "",
          "comment": "",
          "lastupdate": "1996-01-07 00:00:00",
          "showyear": "1994",
          "showsuserid": "system"
        },
        "key_47": {
          "name": "Grateful Dead",
          "artist_key": "2",
          "shows_key": "2208",
          "showdate": "07/24/94",
          "venue": "Soldier Field",
          "city": "Chicago",
          "state": "IL",
          "set1": [
            "Mississippi Half Step",
            "It's All Over Now",
            "Roses",
            "El Paso*",
            "Loose Lucy",
            "If The Shoe Fits",
            "Easy Answers-> Don't Ease Me In"
          ],
          "set2": [
            "Mississippi Half Step",
            "It's All Over Now",
            "Roses",
            "El Paso*",
            "Loose Lucy",
            "If The Shoe Fits",
            "Easy Answers-> Don't Ease Me In"
          ],
          "set3": "",
          "comment": "* Weir on acoustic",
          "lastupdate": "1996-01-07 00:00:00",
          "showyear": "1994",
          "showsuserid": "system"
        },
        "key_48": {
          "name": "Grateful Dead",
          "artist_key": "2",
          "shows_key": "2207",
          "showdate": "07/26/94",
          "venue": "Riverport Amphitheatre",
          "city": "Maryland Heights",
          "state": "MO",
          "set1": [
            "Soundcheck:\r\n\r\nDrummers join Vince Bob & Phil",
            "Vince little keyboard jam",
            "Mickey\non the beam w/ Phil",
            "A Day In The Life",
            "A Day In The Life",
            "Childhoods End",
            "Childhoods End",
            "Piano Ragtime Noodle Jam"
          ],
          "set2": [
            "Soundcheck:\r\n\r\nDrummers join Vince Bob & Phil",
            "Vince little keyboard jam",
            "Mickey\non the beam w/ Phil",
            "A Day In The Life",
            "A Day In The Life",
            "Childhoods End",
            "Childhoods End",
            "Piano Ragtime Noodle Jam"
          ],
          "set3": [
            "Soundcheck:\r\n\r\nDrummers join Vince Bob & Phil",
            "Vince little keyboard jam",
            "Mickey\non the beam w/ Phil",
            "A Day In The Life",
            "A Day In The Life",
            "Childhoods End",
            "Childhoods End",
            "Piano Ragtime Noodle Jam"
          ],
          "comment": "* Weir on acoustic",
          "lastupdate": "2008-04-10\n00:00:00",
          "showyear": "1994",
          "showsuserid": "system"
        },
        "key_49": {
          "name": "Grateful\nDead",
          "artist_key": "2",
          "shows_key": "2206",
          "showdate": "07/27/94",
          "venue": "Riverport\nAmphitheatre",
          "city": "Maryland\nHeights",
          "state": "MO",
          "set1": [
            "Here Comes Sunshine",
            "Walkin' Blues",
            "Jack-A-Roe",
            "Black Throated Wind",
            "Just Like Tom Thumb's Blues",
            "Ramble On\nRose",
            "Let It Grow"
          ],
          "set2": [
            "Here Comes Sunshine",
            "Walkin' Blues",
            "Jack-A-Roe",
            "Black Throated Wind",
            "Just Like Tom Thumb's Blues",
            "Ramble On\nRose",
            "Let It Grow"
          ],
          "set3": "",
          "comment": "*\nWeir on acoustic guitar",
          "lastupdate": "1996-01-07\n00:00:00",
          "showyear": "1994",
          "showsuserid": "hamilton"
        },
        "key_50": {
          "name": "Grateful\nDead",
          "artist_key": "2",
          "shows_key": "2205",
          "showdate": "07/29/94",
          "venue": "Buckeye\nLake Music Center",
          "city": "Hebron",
          "state": "OH",
          "set1": [
            "Rain",
            "Feel Like A Stranger",
            "Bertha",
            "Wang Dang Doodle",
            "Loser",
            "El Paso",
            "Althea",
            "Eternity",
            "Deal"
          ],
          "set2": [
            "Rain",
            "Feel Like A Stranger",
            "Bertha",
            "Wang Dang Doodle",
            "Loser",
            "El Paso",
            "Althea",
            "Eternity",
            "Deal"
          ],
          "set3": "",
          "comment": "* Last played 6/11/92",
          "lastupdate": "1996-01-07 00:00:00",
          "showyear": "1994",
          "showsuserid": "system"
        },
        "key_51": {
          "name": "Grateful Dead",
          "artist_key": "2",
          "shows_key": "2204",
          "showdate": "07/31/94",
          "venue": "The Palace",
          "city": "Auburn Hills",
          "state": "MI",
          "set1": [
            "Touch Of Gray-> Greatest Story Ever Told Ever Told",
            "Row Jimmy",
            "Spoonful",
            "Lazy River Road",
            "Me & My Uncle-> Big River",
            "Loose Lucy",
            "Midnight Hour*"
          ],
          "set2": [
            "Touch Of Gray-> Greatest Story Ever Told Ever Told",
            "Row Jimmy",
            "Spoonful",
            "Lazy River Road",
            "Me & My Uncle-> Big River",
            "Loose Lucy",
            "Midnight Hour*"
          ],
          "set3": "",
          "comment": "* Last played 4/4/93. ** Last played 3/24/93 with Ravel's Bolero on top of the usual \"Spanish jam\"",
          "lastupdate": "1996-01-07 00:00:00",
          "showyear": "1994",
          "showsuserid": "system"
        },
        "key_52": {
          "name": "Grateful Dead",
          "artist_key": "2",
          "shows_key": "2203",
          "showdate": "08/01/94",
          "venue": "The Palace",
          "city": "Auburn Hills",
          "state": "MI",
          "set1": [
            "Picasso Moon",
            "Peggy-O",
            "The Same Thing",
            "Stagger Lee",
            "Childhood's End",
            "The Music Never Stopped"
          ],
          "set2": [
            "Picasso Moon",
            "Peggy-O",
            "The Same Thing",
            "Stagger Lee",
            "Childhood's End",
            "The Music Never Stopped"
          ],
          "set3": "",
          "comment": "",
          "lastupdate": "1996-01-07 00:00:00",
          "showyear": "1994",
          "showsuserid": "system"
        },
        "key_53": {
          "name": "Grateful Dead",
          "artist_key": "2",
          "shows_key": "2202",
          "showdate": "08/03/94",
          "venue": "Giants Stadium",
          "city": "East Rutherford",
          "state": "NJ",
          "set1": [
            "Mississippi Half Step",
            "Little Red Rooster",
            "Lazy River Road",
            "El Paso*",
            "If The Shoe Fits",
            "Bird Song-> Promised Land"
          ],
          "set2": [
            "Mississippi Half Step",
            "Little Red Rooster",
            "Lazy River Road",
            "El Paso*",
            "If The Shoe Fits",
            "Bird Song-> Promised Land"
          ],
          "set3": "",
          "comment": "* Weir on acoustic",
          "lastupdate": "1996-01-07 00:00:00",
          "showyear": "1994",
          "showsuserid": "system"
        },
        "key_54": {
          "name": "Grateful Dead",
          "artist_key": "2",
          "shows_key": "2201",
          "showdate": "08/04/94",
          "venue": "Giants Stadium",
          "city": "East Rutherford",
          "state": "NJ",
          "set1": [
            "Box Of Rain",
            "Jack Straw",
            "Jack A Roe",
            "Walkin' Blues",
            "So Many Roads",
            "Eternity*",
            "Childhood's End",
            "Deal"
          ],
          "set2": [
            "Box Of Rain",
            "Jack Straw",
            "Jack A Roe",
            "Walkin' Blues",
            "So Many Roads",
            "Eternity*",
            "Childhood's End",
            "Deal"
          ],
          "set3": "",
          "comment": "* Weir played 1/2 on electric guitar and 1/2 on acoustic. Bruce Hornsby sat in for the entire second set on accordian, Garcia played with Traffic on Dear Mr. Fantasy. Garcia, Hart and Kreutzmann played with Traffic on Gimme Some Lovin'",
          "lastupdate": "1996-01-07 00:00:00",
          "showyear": "1994",
          "showsuserid": "system"
        },
        "key_55": {
          "name": "Grateful Dead",
          "artist_key": "2",
          "shows_key": "80337",
          "showdate": "09/09/94",
          "venue": "not played- try 9/24/94",
          "city": "N/A",
          "state": "N/A",
          "set1": [
            "a bootleg of 9/24/94 benefit acoustic set circualtes mislabeled as \"9/9/94\"- please correct your copy"
          ],
          "set2": "",
          "set3": "",
          "comment": "",
          "lastupdate": "2008-09-29 14:39:21",
          "showyear": "1994",
          "showsuserid": "hamilton"
        },
        "key_56": {
          "name": "Grateful Dead",
          "artist_key": "2",
          "shows_key": "2200",
          "showdate": "09/16/94",
          "venue": "Shoreline Amphitheatre",
          "city": "Mountain View",
          "state": "CA",
          "set1": [
            "Soundcheck:\n\nIt Takes A Lot To Laugh It Takes A Train To Cry",
            "I Want To Tell You",
            "Childhood's End",
            "Attics Of My Life\n\nSet 1:\n\nCold Rain And Snow",
            "Wang Dang Doodle",
            "Lazy River Road",
            "Black Throated Wind*",
            "Stagger Lee",
            "Cassidy",
            "Deal"
          ],
          "set2": [
            "Soundcheck:\n\nIt Takes A Lot To Laugh It Takes A Train To Cry",
            "I Want To Tell You",
            "Childhood's End",
            "Attics Of My Life\n\nSet 1:\n\nCold Rain And Snow",
            "Wang Dang Doodle",
            "Lazy River Road",
            "Black Throated Wind*",
            "Stagger Lee",
            "Cassidy",
            "Deal"
          ],
          "set3": "",
          "comment": "* - Bob Weir On Acoustic Guitar",
          "lastupdate": "2010-11-23 13:22:11",
          "showyear": "1994",
          "showsuserid": "Wharfie"
        },
        "key_57": {
          "name": "Grateful Dead",
          "artist_key": "2",
          "shows_key": "2199",
          "showdate": "09/17/94",
          "venue": "Shoreline Amphitheatre",
          "city": "Mountain View",
          "state": "CA",
          "set1": [
            "Jack Straw",
            "Peggy-O",
            "The Same Thing",
            "West L.A. Fadeaway",
            "Queen Jane Approximately",
            "Ramble On Rose",
            "Eternity*",
            "Don't Ease Me In**"
          ],
          "set2": [
            "Jack Straw",
            "Peggy-O",
            "The Same Thing",
            "West L.A. Fadeaway",
            "Queen Jane Approximately",
            "Ramble On Rose",
            "Eternity*",
            "Don't Ease Me In**"
          ],
          "set3": "",
          "comment": "*Weir on acoustic guitar. ** Last played 3/10/93",
          "lastupdate": "1996-01-07 00:00:00",
          "showyear": "1994",
          "showsuserid": "system"
        },
        "key_58": {
          "name": "Grateful Dead",
          "artist_key": "2",
          "shows_key": "2198",
          "showdate": "09/18/94",
          "venue": "Shoreline Amphitheatre",
          "city": "Mountain View",
          "state": "CA",
          "set1": [
            "Touch Of Gray-> Greatest Story Ever Told",
            "Jack A Roe",
            "Little Red Rooster",
            "Tennessee Jed",
            "El Paso*",
            "Brown Eyed Women",
            "The Music Never Stopped"
          ],
          "set2": [
            "Touch Of Gray-> Greatest Story Ever Told",
            "Jack A Roe",
            "Little Red Rooster",
            "Tennessee Jed",
            "El Paso*",
            "Brown Eyed Women",
            "The Music Never Stopped"
          ],
          "set3": "",
          "comment": "* Weir on acoustic guitar",
          "lastupdate": "1996-01-07 00:00:00",
          "showyear": "1994",
          "showsuserid": "system"
        },
        "key_59": {
          "name": "Grateful Dead",
          "artist_key": "2",
          "shows_key": "46768",
          "showdate": "09/24/94",
          "venue": "Berkeley Community Theater",
          "city": "Berkeley",
          "state": "CA",
          "set1": [
            "Walkin' Blues\r\nLazy River Road\r\nKC Moan\r\nDupree's Diamond Blues\r\nChildhood's End\r\nWhen I Paint My Masterpiece\r\nAttics Of My Life\r\nCassidy\r\nBird Song\r\nThrowin' Stones"
          ],
          "set2": "",
          "set3": "",
          "comment": "This is an acoustic set. Bobby talks to the crowd for a few moments before the show, mentioning MTV unplugged.",
          "lastupdate": "2003-04-29 00:00:00",
          "showyear": "1994",
          "showsuserid": "diana"
        },
        "key_60": {
          "name": "Grateful Dead",
          "artist_key": "2",
          "shows_key": "2197",
          "showdate": "09/27/94",
          "venue": "Boston Garden",
          "city": "Boston",
          "state": "MA",
          "set1": [
            "Feel Like A Stranger",
            "They Love Each Other",
            "Minglewood Blues",
            "So Many Roads",
            "Maggie's Farm*-> Cumberland Blues Blues*",
            "Easy Answers",
            "Deal"
          ],
          "set2": [
            "Feel Like A Stranger",
            "They Love Each Other",
            "Minglewood Blues",
            "So Many Roads",
            "Maggie's Farm*-> Cumberland Blues Blues*",
            "Easy Answers",
            "Deal"
          ],
          "set3": "",
          "comment": "",
          "lastupdate": "1996-01-07 00:00:00",
          "showyear": "1994",
          "showsuserid": "system"
        },
        "key_61": {
          "name": "Grateful Dead",
          "artist_key": "2",
          "shows_key": "2196",
          "showdate": "09/28/94",
          "venue": "Boston Garden",
          "city": "Boston",
          "state": "MA",
          "set1": [
            "Let The Good Times Roll-> Bertha",
            "Greatest Story Ever Told",
            "West L.A. Fadeaway",
            "El Paso*",
            "Lazy River Road",
            "Eternity-> Don't Ease Me In"
          ],
          "set2": [
            "Let The Good Times Roll-> Bertha",
            "Greatest Story Ever Told",
            "West L.A. Fadeaway",
            "El Paso*",
            "Lazy River Road",
            "Eternity-> Don't Ease Me In"
          ],
          "set3": "",
          "comment": "* Weir on acoustic guitar",
          "lastupdate": "1996-01-07 00:00:00",
          "showyear": "1994",
          "showsuserid": "system"
        },
        "key_62": {
          "name": "Grateful Dead",
          "artist_key": "2",
          "shows_key": "2195",
          "showdate": "09/29/94",
          "venue": "Boston Garden",
          "city": "Boston",
          "state": "MA",
          "set1": [
            "Hell In A Bucket",
            "Peggy-O",
            "Wang Dang Doodle",
            "Ramble On Rose",
            "When I Paint My Masterpiece*",
            "Brown Eyed Women",
            "Let It Grow"
          ],
          "set2": [
            "Hell In A Bucket",
            "Peggy-O",
            "Wang Dang Doodle",
            "Ramble On Rose",
            "When I Paint My Masterpiece*",
            "Brown Eyed Women",
            "Let It Grow"
          ],
          "set3": "",
          "comment": "* Weir on acoustic guitar",
          "lastupdate": "2001-10-16 00:00:00",
          "showyear": "1994",
          "showsuserid": "hamilton"
        },
        "key_63": {
          "name": "Grateful Dead",
          "artist_key": "2",
          "shows_key": "2194",
          "showdate": "10/01/94",
          "venue": "Boston Garden",
          "city": "Boston",
          "state": "MA",
          "set1": [
            "Help On The Way-> Slipknot!-> Franklin's Tower",
            "Walkin' Blues",
            "Althea",
            "Me & My Uncle*-> Big River*",
            "Just Like Tom Thumb's Blues",
            "So Many Roads",
            "Promised Land"
          ],
          "set2": [
            "Help On The Way-> Slipknot!-> Franklin's Tower",
            "Walkin' Blues",
            "Althea",
            "Me & My Uncle*-> Big River*",
            "Just Like Tom Thumb's Blues",
            "So Many Roads",
            "Promised Land"
          ],
          "set3": "",
          "comment": "* Weir on acoustic guitar",
          "lastupdate": "1996-01-07 00:00:00",
          "showyear": "1994",
          "showsuserid": "hamilton"
        },
        "key_64": {
          "name": "Grateful Dead",
          "artist_key": "2",
          "shows_key": "2193",
          "showdate": "10/02/94",
          "venue": "Boston Garden",
          "city": "Boston",
          "state": "MA",
          "set1": [
            "Jack Straw",
            "Loser",
            "It's All Over Now",
            "Row Jimmy",
            "Broken Arrow",
            "Mama Tried*-> Mexicali Blues*",
            "Tennessee Jed",
            "Picasso Moon"
          ],
          "set2": [
            "Jack Straw",
            "Loser",
            "It's All Over Now",
            "Row Jimmy",
            "Broken Arrow",
            "Mama Tried*-> Mexicali Blues*",
            "Tennessee Jed",
            "Picasso Moon"
          ],
          "set3": "",
          "comment": "* Weir on acoustic guitar",
          "lastupdate": "1996-01-07 00:00:00",
          "showyear": "1994",
          "showsuserid": "system"
        },
        "key_65": {
          "name": "Grateful Dead",
          "artist_key": "2",
          "shows_key": "2192",
          "showdate": "10/03/94",
          "venue": "Boston Garden",
          "city": "Boston",
          "state": "MA",
          "set1": [
            "Touch Of Gray-> Beat It On Down The Line",
            "Loose Lucy",
            "Little Red Rooster",
            "Childhood's End",
            "Dire Wolf",
            "Black Throated Wind*",
            "Bird Song"
          ],
          "set2": [
            "Touch Of Gray-> Beat It On Down The Line",
            "Loose Lucy",
            "Little Red Rooster",
            "Childhood's End",
            "Dire Wolf",
            "Black Throated Wind*",
            "Bird Song"
          ],
          "set3": "",
          "comment": "* Weir on acoustic guitar",
          "lastupdate": "1996-01-07 00:00:00",
          "showyear": "1994",
          "showsuserid": "system"
        },
        "key_66": {
          "name": "Grateful Dead",
          "artist_key": "2",
          "shows_key": "2191",
          "showdate": "10/05/94",
          "venue": "The Spectrum",
          "city": "Philadelphia",
          "state": "PA",
          "set1": [
            "Jack Straw",
            "Friend Of The Devil",
            "Wang Dang Doodle",
            "Jack A Roe",
            "Queen Jane Approximately",
            "Lazy River Road",
            "Eternity*",
            "Deal"
          ],
          "set2": [
            "Jack Straw",
            "Friend Of The Devil",
            "Wang Dang Doodle",
            "Jack A Roe",
            "Queen Jane Approximately",
            "Lazy River Road",
            "Eternity*",
            "Deal"
          ],
          "set3": "",
          "comment": "* Weir on acoustic",
          "lastupdate": "1996-01-07 00:00:00",
          "showyear": "1994",
          "showsuserid": "system"
        },
        "key_67": {
          "name": "Grateful Dead",
          "artist_key": "2",
          "shows_key": "2190",
          "showdate": "10/06/94",
          "venue": "The Spectrum",
          "city": "Philadelphia",
          "state": "PA",
          "set1": [
            "Mississippi Half Step",
            "Minglewood Blues",
            "Peggy-O",
            "If The Shoe Fits",
            "When I Paint My Masterpiece",
            "Ramble On Rose",
            "Easy Answers",
            "Don't Ease Me In"
          ],
          "set2": [
            "Mississippi Half Step",
            "Minglewood Blues",
            "Peggy-O",
            "If The Shoe Fits",
            "When I Paint My Masterpiece",
            "Ramble On Rose",
            "Easy Answers",
            "Don't Ease Me In"
          ],
          "set3": "",
          "comment": "",
          "lastupdate": "1996-01-07 00:00:00",
          "showyear": "1994",
          "showsuserid": "system"
        },
        "key_68": {
          "name": "Grateful Dead",
          "artist_key": "2",
          "shows_key": "2189",
          "showdate": "10/07/94",
          "venue": "The Spectrum",
          "city": "Philadelphia",
          "state": "PA",
          "set1": [
            "Feel Like A Stranger",
            "Sugaree",
            "The Same Thing",
            "Brown Eyed Women",
            "El Paso*",
            "Tennessee Jed",
            "The Music Never Stopped"
          ],
          "set2": [
            "Feel Like A Stranger",
            "Sugaree",
            "The Same Thing",
            "Brown Eyed Women",
            "El Paso*",
            "Tennessee Jed",
            "The Music Never Stopped"
          ],
          "set3": "",
          "comment": "* Weir on acoustic",
          "lastupdate": "1996-01-07 00:00:00",
          "showyear": "1994",
          "showsuserid": "system"
        },
        "key_69": {
          "name": "Grateful Dead",
          "artist_key": "2",
          "shows_key": "2188",
          "showdate": "10/09/94",
          "venue": "USAir Arena",
          "city": "Landover",
          "state": "MD",
          "set1": [
            "Hell In A Bucket",
            "Bertha",
            "Spoonful",
            "Stagger Lee",
            "Broken Arrow",
            "Me & My Uncle->@",
            "Big River@",
            "So Many Roads",
            "Promised Land"
          ],
          "set2": [
            "Hell In A Bucket",
            "Bertha",
            "Spoonful",
            "Stagger Lee",
            "Broken Arrow",
            "Me & My Uncle->@",
            "Big River@",
            "So Many Roads",
            "Promised Land"
          ],
          "set3": "",
          "comment": "* Last played 3/27/93\r\n@ Bobby acoustic",
          "lastupdate": "1996-01-07 00:00:00",
          "showyear": "1994",
          "showsuserid": "mvernon"
        },
        "key_70": {
          "name": "Grateful Dead",
          "artist_key": "2",
          "shows_key": "2187",
          "showdate": "10/10/94",
          "venue": "USAir Arena",
          "city": "Landover",
          "state": "MD",
          "set1": [
            "Iko Iko",
            "Walkin' Blues",
            "Althea",
            "Desolation Row*",
            "Loose Lucy",
            "Eternity"
          ],
          "set2": [
            "Iko Iko",
            "Walkin' Blues",
            "Althea",
            "Desolation Row*",
            "Loose Lucy",
            "Eternity"
          ],
          "set3": "",
          "comment": "* Weir on acoustic guitar",
          "lastupdate": "1996-01-07 00:00:00",
          "showyear": "1994",
          "showsuserid": "system"
        },
        "key_71": {
          "name": "Grateful Dead",
          "artist_key": "2",
          "shows_key": "2186",
          "showdate": "10/11/94",
          "venue": "USAir Arena",
          "city": "Landover",
          "state": "MD",
          "set1": [
            "Picasso Moon",
            "Jack A Roe",
            "It's All Over Now",
            "High Time*",
            "If The Shoe Fits",
            "Lazy River Road",
            "Easy Answers",
            "Deal"
          ],
          "set2": [
            "Picasso Moon",
            "Jack A Roe",
            "It's All Over Now",
            "High Time*",
            "If The Shoe Fits",
            "Lazy River Road",
            "Easy Answers",
            "Deal"
          ],
          "set3": "",
          "comment": "* Weir on acoustic guitar. ** Last played 9/18/93",
          "lastupdate": "1996-01-07 00:00:00",
          "showyear": "1994",
          "showsuserid": "system"
        },
        "key_72": {
          "name": "Grateful Dead",
          "artist_key": "2",
          "shows_key": "2185",
          "showdate": "10/13/94",
          "venue": "Madison Square Garden",
          "city": "New York",
          "state": "NY",
          "set1": [
            "Touch Of Gray",
            "Wang Dang Doodle",
            "Loser",
            "Mama Tried*-> Mexicali Blues*",
            "Dupree's Diamond Blues**",
            "When I Paint My Masterpiece",
            "Loose Lucy",
            "Let It Grow"
          ],
          "set2": [
            "Touch Of Gray",
            "Wang Dang Doodle",
            "Loser",
            "Mama Tried*-> Mexicali Blues*",
            "Dupree's Diamond Blues**",
            "When I Paint My Masterpiece",
            "Loose Lucy",
            "Let It Grow"
          ],
          "set3": "",
          "comment": "* Weir on acoustic. ** Last played 3/26/90",
          "lastupdate": "2004-09-06 00:00:00",
          "showyear": "1994",
          "showsuserid": "system"
        },
        "key_73": {
          "name": "Grateful Dead",
          "artist_key": "2",
          "shows_key": "2184",
          "showdate": "10/14/94",
          "venue": "Madison Square Garden",
          "city": "New York",
          "state": "NY",
          "set1": [
            "Jack Straw",
            "West L.A. Fadeaway",
            "Queen Jane Approximately",
            "Lazy River Road",
            "El Paso*",
            "Ramble On Rose",
            "Box Of Rain"
          ],
          "set2": [
            "Jack Straw",
            "West L.A. Fadeaway",
            "Queen Jane Approximately",
            "Lazy River Road",
            "El Paso*",
            "Ramble On Rose",
            "Box Of Rain"
          ],
          "set3": "",
          "comment": "*Weir on acoustic guitar",
          "lastupdate": "2004-08-10 00:00:00",
          "showyear": "1994",
          "showsuserid": "hamilton"
        },
        "key_74": {
          "name": "Grateful Dead",
          "artist_key": "2",
          "shows_key": "2183",
          "showdate": "10/15/94",
          "venue": "Madison Square Garden",
          "city": "New York",
          "state": "NY",
          "set1": [
            "Shakedown Street",
            "Little Red Rooster",
            "Stagger Lee",
            "Black Throated Wind*",
            "Just Like Tom Thumb's Blues",
            "Candyman",
            "Easy Ansers",
            "Deal"
          ],
          "set2": [
            "Shakedown Street",
            "Little Red Rooster",
            "Stagger Lee",
            "Black Throated Wind*",
            "Just Like Tom Thumb's Blues",
            "Candyman",
            "Easy Ansers",
            "Deal"
          ],
          "set3": "",
          "comment": "* Weir on acoustic guitar",
          "lastupdate": "2004-09-06 00:00:00",
          "showyear": "1994",
          "showsuserid": "system"
        },
        "key_75": {
          "name": "Grateful Dead",
          "artist_key": "2",
          "shows_key": "2182",
          "showdate": "10/17/94",
          "venue": "Madison Square Garden",
          "city": "New York",
          "state": "NY",
          "set1": [
            "Midnight Hour",
            "Peggy-O",
            "Minglewood Blues",
            "Tennessee Jed",
            "Eternity*",
            "Friend Of The Devil",
            "Promised Land"
          ],
          "set2": [
            "Midnight Hour",
            "Peggy-O",
            "Minglewood Blues",
            "Tennessee Jed",
            "Eternity*",
            "Friend Of The Devil",
            "Promised Land"
          ],
          "set3": "",
          "comment": "*acoustic Bob; * with Bob Dylan on acoustic and vocal",
          "lastupdate": "2002-06-26 00:00:00",
          "showyear": "1994",
          "showsuserid": "diana"
        },
        "key_76": {
          "name": "Grateful Dead",
          "artist_key": "2",
          "shows_key": "2181",
          "showdate": "10/18/94",
          "venue": "Madison Square Garden",
          "city": "New York City",
          "state": "NY",
          "set1": [
            "Help On The Way-> Slipknot!-> Franklin's Tower",
            "The Same Thing",
            "Althea",
            "Cassidy*",
            "Childhood's End",
            "Don't Ease Me In"
          ],
          "set2": [
            "Help On The Way-> Slipknot!-> Franklin's Tower",
            "The Same Thing",
            "Althea",
            "Cassidy*",
            "Childhood's End",
            "Don't Ease Me In"
          ],
          "set3": "",
          "comment": "",
          "lastupdate": "2015-04-02 21:04:51",
          "showyear": "1994",
          "showsuserid": "Zoooma1"
        },
        "key_77": {
          "name": "Grateful Dead",
          "artist_key": "2",
          "shows_key": "2180",
          "showdate": "10/19/94",
          "venue": "Madison Square Garden",
          "city": "New York",
          "state": "NY",
          "set1": [
            "Feel Like A Stranger-> Bertha",
            "Spoonful",
            "Jack A Roe",
            "El Paso*",
            "If The Shoe Fits",
            "Bird Song"
          ],
          "set2": [
            "Feel Like A Stranger-> Bertha",
            "Spoonful",
            "Jack A Roe",
            "El Paso*",
            "If The Shoe Fits",
            "Bird Song"
          ],
          "set3": "",
          "comment": "*  Weir on acoustic guitar",
          "lastupdate": "2004-09-06 00:00:00",
          "showyear": "1994",
          "showsuserid": "system"
        },
        "key_78": {
          "name": "Grateful Dead",
          "artist_key": "2",
          "shows_key": "2179",
          "showdate": "11/29/94",
          "venue": "McNichols Sports Arena",
          "city": "Denver",
          "state": "CO",
          "set1": [
            "Jack Straw",
            "Peggy-O",
            "Walkin' Blues",
            "So Many Roads",
            "El Paso*",
            "Tennessee Jed",
            "Easy Answers**"
          ],
          "set2": [
            "Jack Straw",
            "Peggy-O",
            "Walkin' Blues",
            "So Many Roads",
            "El Paso*",
            "Tennessee Jed",
            "Easy Answers**"
          ],
          "set3": "",
          "comment": "* Weir on acoustic,  ** Jerry left 1/3 way through and did not return",
          "lastupdate": "1996-01-07 00:00:00",
          "showyear": "1994",
          "showsuserid": "system"
        },
        "key_79": {
          "name": "Grateful Dead",
          "artist_key": "2",
          "shows_key": "2178",
          "showdate": "11/30/94",
          "venue": "McNichols Sports Arena",
          "city": "Denver",
          "state": "CO",
          "set1": [
            "Touch Of Gray;",
            "Greatest Story Ever Told",
            "West L.A. Fadeaway",
            "Queen Jane Approximately",
            "Lazy River Road",
            "Me & My Uncle*-> Big River*",
            "Loose Lucy",
            "Cassidy"
          ],
          "set2": [
            "Touch Of Gray;",
            "Greatest Story Ever Told",
            "West L.A. Fadeaway",
            "Queen Jane Approximately",
            "Lazy River Road",
            "Me & My Uncle*-> Big River*",
            "Loose Lucy",
            "Cassidy"
          ],
          "set3": "",
          "comment": "* Weir on acoustic guitar",
          "lastupdate": "1996-01-07 00:00:00",
          "showyear": "1994",
          "showsuserid": "system"
        },
        "key_80": {
          "name": "Grateful Dead",
          "artist_key": "2",
          "shows_key": "2177",
          "showdate": "12/01/94",
          "venue": "McNichols Sports Arena",
          "city": "Denver",
          "state": "CO",
          "set1": [
            "Hell In A Bucket",
            "Sugaree",
            "Wang Dang Doodle",
            "Loser",
            "If The Shoe Fits",
            "When I Paint My Masterpiece*",
            "Bird Song"
          ],
          "set2": [
            "Hell In A Bucket",
            "Sugaree",
            "Wang Dang Doodle",
            "Loser",
            "If The Shoe Fits",
            "When I Paint My Masterpiece*",
            "Bird Song"
          ],
          "set3": "",
          "comment": "* Weir on acoustic guitar",
          "lastupdate": "1996-01-07 00:00:00",
          "showyear": "1994",
          "showsuserid": "system"
        },
        "key_81": {
          "name": "Grateful Dead",
          "artist_key": "2",
          "shows_key": "2176",
          "showdate": "12/08/94",
          "venue": "Oakland-Alameda County Coliseum",
          "city": "Oakland",
          "state": "CA",
          "set1": [
            "Bertha",
            "Spoonful",
            "Jack-A-Roe",
            "It's All Over Now",
            "So Many Roads",
            "Eternity",
            "Don't Ease Me In"
          ],
          "set2": [
            "Bertha",
            "Spoonful",
            "Jack-A-Roe",
            "It's All Over Now",
            "So Many Roads",
            "Eternity",
            "Don't Ease Me In"
          ],
          "set3": "",
          "comment": "",
          "lastupdate": "1996-01-07 00:00:00",
          "showyear": "1994",
          "showsuserid": "diana"
        },
        "key_82": {
          "name": "Grateful Dead",
          "artist_key": "2",
          "shows_key": "2175",
          "showdate": "12/09/94",
          "venue": "Oakland-Alameda County Coliseum",
          "city": "Oakland",
          "state": "CA",
          "set1": [
            "Feel Like A Stranger",
            "Stagger Lee",
            "The Same Thing",
            "Loose Lucy",
            "El Paso*",
            "Broken Arrow",
            "Ramble On Rose",
            "The Music Never Stopped"
          ],
          "set2": [
            "Feel Like A Stranger",
            "Stagger Lee",
            "The Same Thing",
            "Loose Lucy",
            "El Paso*",
            "Broken Arrow",
            "Ramble On Rose",
            "The Music Never Stopped"
          ],
          "set3": "",
          "comment": "* Weir on acoustic guitar",
          "lastupdate": "1996-01-07 00:00:00",
          "showyear": "1994",
          "showsuserid": "system"
        },
        "key_83": {
          "name": "Grateful Dead",
          "artist_key": "2",
          "shows_key": "2174",
          "showdate": "12/11/94",
          "venue": "Oakland-Alameda County Coliseum",
          "city": "Oakland",
          "state": "CA",
          "set1": [
            "Help On The Way->Slipknot!->Franklin's Tower",
            "Little Red Rooster",
            "Lazy River Road",
            "Black Throated Wind*",
            "If The Shoe Fits",
            "Tennessee Jed",
            "Promised Land"
          ],
          "set2": [
            "Help On The Way->Slipknot!->Franklin's Tower",
            "Little Red Rooster",
            "Lazy River Road",
            "Black Throated Wind*",
            "If The Shoe Fits",
            "Tennessee Jed",
            "Promised Land"
          ],
          "set3": "",
          "comment": "",
          "lastupdate": "1996-01-07 00:00:00",
          "showyear": "1994",
          "showsuserid": "system"
        },
        "key_84": {
          "name": "Grateful Dead",
          "artist_key": "2",
          "shows_key": "2173",
          "showdate": "12/12/94",
          "venue": "Oakland-Alameda County Coliseum",
          "city": "Oakland",
          "state": "CA",
          "set1": [
            "Jack Straw",
            "Althea",
            "Me & My Uncle*-> Maggie's Farm*",
            "Candyman",
            "Easy Answers",
            "Bird Song"
          ],
          "set2": [
            "Jack Straw",
            "Althea",
            "Me & My Uncle*-> Maggie's Farm*",
            "Candyman",
            "Easy Answers",
            "Bird Song"
          ],
          "set3": "",
          "comment": "* Weir on acoustic guitar. ** with Sikuru Adepoju",
          "lastupdate": "1996-01-07 00:00:00",
          "showyear": "1994",
          "showsuserid": "system"
        },
        "key_85": {
          "name": "Grateful Dead",
          "artist_key": "2",
          "shows_key": "2171",
          "showdate": "12/15/94",
          "venue": "Sports Arena",
          "city": "Los Angeles",
          "state": "CA",
          "set1": [
            "Shakedown Street",
            "Wang Dang Doodle",
            "Lazy River Road",
            "Me & My Uncle-> Mexicali Blues",
            "Row Jimmy",
            "Promised Land"
          ],
          "set2": [
            "Shakedown Street",
            "Wang Dang Doodle",
            "Lazy River Road",
            "Me & My Uncle-> Mexicali Blues",
            "Row Jimmy",
            "Promised Land"
          ],
          "set3": "",
          "comment": "* Weir on acoustic for first half",
          "lastupdate": "1996-01-07 00:00:00",
          "showyear": "1994",
          "showsuserid": "system"
        },
        "key_86": {
          "name": "Grateful Dead",
          "artist_key": "2",
          "shows_key": "2170",
          "showdate": "12/16/94",
          "venue": "Sports Arena",
          "city": "Los Angeles",
          "state": "CA",
          "set1": [
            "Hell In A Bucket",
            "Cold Rain & Snow",
            "Minglewood Blues",
            "So Many Roads",
            "Childhood's End",
            "Eternity",
            "Don't Ease Me In"
          ],
          "set2": [
            "Hell In A Bucket",
            "Cold Rain & Snow",
            "Minglewood Blues",
            "So Many Roads",
            "Childhood's End",
            "Eternity",
            "Don't Ease Me In"
          ],
          "set3": "",
          "comment": "Branford Marsalis was onstage throughout",
          "lastupdate": "1996-01-07 00:00:00",
          "showyear": "1994",
          "showsuserid": "system"
        },
        "key_87": {
          "name": "Grateful Dead",
          "artist_key": "2",
          "shows_key": "2169",
          "showdate": "12/18/94",
          "venue": "Sports Arena",
          "city": "Los Angeles",
          "state": "CA",
          "set1": [
            "Touch Of Gray",
            "Greatest Story Ever Told",
            "Althea",
            "Walkin' Blues",
            "Just Like Tom Thumb's Blues",
            "El Paso*",
            "Loose Lucy",
            "Let It Grow"
          ],
          "set2": [
            "Touch Of Gray",
            "Greatest Story Ever Told",
            "Althea",
            "Walkin' Blues",
            "Just Like Tom Thumb's Blues",
            "El Paso*",
            "Loose Lucy",
            "Let It Grow"
          ],
          "set3": "",
          "comment": "* Weir on acoustic",
          "lastupdate": "1996-01-07 00:00:00",
          "showyear": "1994",
          "showsuserid": "system"
        },
        "key_88": {
          "name": "Grateful Dead",
          "artist_key": "2",
          "shows_key": "2172",
          "showdate": "12/19/94",
          "venue": "Sports Arena",
          "city": "Los Angeles",
          "state": "CA",
          "set1": [
            "Picasso Moon",
            "Stagger Lee",
            "Little Red Rooster",
            "Ramble On Rose",
            "Broken Arrow",
            "When I Paint My Masterpiece*",
            "So Many Roads",
            "Easy Answers",
            "Deal"
          ],
          "set2": [
            "Picasso Moon",
            "Stagger Lee",
            "Little Red Rooster",
            "Ramble On Rose",
            "Broken Arrow",
            "When I Paint My Masterpiece*",
            "So Many Roads",
            "Easy Answers",
            "Deal"
          ],
          "set3": "",
          "comment": "* Weir acoustic",
          "lastupdate": "1996-01-07 00:00:00",
          "showyear": "1994",
          "showsuserid": "system"
        }
      },
      "status": "success"
    }
  }
}